# D:\Clouds\OneDrive - Politecnico di Milano\Dottorato\ATTILA\TiPa_New\Tilt_load_data
# 08-Jul-2020 18:12:54
# DO NOT MODIFY 


reference: CURR_ROTOR + CURR_BLADE_3 + AERO + 1, #gen ref
	reference, CURR_ROTOR + CURR_BLADE_3 + FEATH + 1, 0., 0.0038136385500000, -0.0009184919400000,
	reference, CURR_ROTOR + CURR_BLADE_3 + FEATH + 1, eye, 
	reference, OFFSET + BLADE_3_MAIN, null,
	reference, OFFSET + BLADE_3_MAIN, null;

reference: CURR_ROTOR + CURR_BLADE_3 + AERO + 2, #gen ref
	reference, CURR_ROTOR + CURR_BLADE_3 + FEATH + 2, 0., 0.0038136385500000, -0.0009184919400000,
	reference, CURR_ROTOR + CURR_BLADE_3 + FEATH + 2, eye, 
	reference, OFFSET + BLADE_3_MAIN, null,
	reference, OFFSET + BLADE_3_MAIN, null;

reference: CURR_ROTOR + CURR_BLADE_3 + AERO + 3, #gen ref
	reference, CURR_ROTOR + CURR_BLADE_3 + FEATH + 3, 0., 0.0038136385500000, -0.0009184919400000,
	reference, CURR_ROTOR + CURR_BLADE_3 + FEATH + 3, eye, 
	reference, OFFSET + BLADE_3_MAIN, null,
	reference, OFFSET + BLADE_3_MAIN, null;

reference: CURR_ROTOR + CURR_BLADE_3 + AERO + 4, #gen ref
	reference, CURR_ROTOR + CURR_BLADE_3 + FEATH + 7, 0., 0.0038136385500000, -0.0009184919400000,
	reference, CURR_ROTOR + CURR_BLADE_3 + FEATH + 7, eye, 
	reference, OFFSET + BLADE_3_MAIN, null,
	reference, OFFSET + BLADE_3_MAIN, null;

reference: CURR_ROTOR + CURR_BLADE_3 + AERO + 5, #gen ref
	reference, CURR_ROTOR + CURR_BLADE_3 + FEATH + 8, 0., 0.0038136385500000, -0.0009184919400000,
	reference, CURR_ROTOR + CURR_BLADE_3 + FEATH + 8, eye, 
	reference, OFFSET + BLADE_3_MAIN, null,
	reference, OFFSET + BLADE_3_MAIN, null;

reference: CURR_ROTOR + CURR_BLADE_3 + AERO + 6, #gen ref
	reference, CURR_ROTOR + CURR_BLADE_3 + FEATH + 14, 0., 0.0080238516872727, -0.0040218865690909,
	reference, CURR_ROTOR + CURR_BLADE_3 + FEATH + 14, eye, 
	reference, OFFSET + BLADE_3_MAIN, null,
	reference, OFFSET + BLADE_3_MAIN, null;

reference: CURR_ROTOR + CURR_BLADE_3 + AERO + 7, #gen ref
	reference, CURR_ROTOR + CURR_BLADE_3 + FEATH + 17, 0., 0.0168220282050000, -0.0086950677000000,
	reference, CURR_ROTOR + CURR_BLADE_3 + FEATH + 17, eye, 
	reference, OFFSET + BLADE_3_MAIN, null,
	reference, OFFSET + BLADE_3_MAIN, null;

reference: CURR_ROTOR + CURR_BLADE_3 + AERO + 8, #gen ref
	reference, CURR_ROTOR + CURR_BLADE_3 + FEATH + 24, 0., 0.0290263402200000, -0.0197176301100000,
	reference, CURR_ROTOR + CURR_BLADE_3 + FEATH + 24, eye, 
	reference, OFFSET + BLADE_3_MAIN, null,
	reference, OFFSET + BLADE_3_MAIN, null;

reference: CURR_ROTOR + CURR_BLADE_3 + AERO + 9, #gen ref
	reference, CURR_ROTOR + CURR_BLADE_3 + FEATH + 32, 0., 0.0409995469060000, -0.0212110673060000,
	reference, CURR_ROTOR + CURR_BLADE_3 + FEATH + 32, eye, 
	reference, OFFSET + BLADE_3_MAIN, null,
	reference, OFFSET + BLADE_3_MAIN, null;

reference: CURR_ROTOR + CURR_BLADE_3 + AERO + 10, #gen ref
	reference, CURR_ROTOR + CURR_BLADE_3 + FEATH + 34, 0., 0.0434588794905000, -0.0224632798923750,
	reference, CURR_ROTOR + CURR_BLADE_3 + FEATH + 34, eye, 
	reference, OFFSET + BLADE_3_MAIN, null,
	reference, OFFSET + BLADE_3_MAIN, null;

reference: CURR_ROTOR + CURR_BLADE_3 + AERO + 11, #gen ref
	reference, CURR_ROTOR + CURR_BLADE_3 + FEATH + 40, 0., 0.0435164343982500, -0.0228048866355000,
	reference, CURR_ROTOR + CURR_BLADE_3 + FEATH + 40, eye, 
	reference, OFFSET + BLADE_3_MAIN, null,
	reference, OFFSET + BLADE_3_MAIN, null;

reference: CURR_ROTOR + CURR_BLADE_3 + AERO + 12, #gen ref
	reference, CURR_ROTOR + CURR_BLADE_3 + FEATH + 44, 0., 0.0433420195991250, -0.0228870749077500,
	reference, CURR_ROTOR + CURR_BLADE_3 + FEATH + 44, eye, 
	reference, OFFSET + BLADE_3_MAIN, null,
	reference, OFFSET + BLADE_3_MAIN, null;

reference: CURR_ROTOR + CURR_BLADE_3 + AERO + 13, #gen ref
	reference, CURR_ROTOR + CURR_BLADE_3 + FEATH + 47, 0., 0.0431676048000000, -0.0229692631800000,
	reference, CURR_ROTOR + CURR_BLADE_3 + FEATH + 47, eye, 
	reference, OFFSET + BLADE_3_MAIN, null,
	reference, OFFSET + BLADE_3_MAIN, null;

reference: CURR_ROTOR + CURR_BLADE_3 + AERO + 14, #gen ref
	reference, CURR_ROTOR + CURR_BLADE_3 + FEATH + 51, 0., 0.0443243839371429, -0.0232277270485714,
	reference, CURR_ROTOR + CURR_BLADE_3 + FEATH + 51, eye, 
	reference, OFFSET + BLADE_3_MAIN, null,
	reference, OFFSET + BLADE_3_MAIN, null;

reference: CURR_ROTOR + CURR_BLADE_3 + AERO + 15, #gen ref
	reference, CURR_ROTOR + CURR_BLADE_3 + FEATH + 54, 0., 0.0454797071100000, -0.0235746569400000,
	reference, CURR_ROTOR + CURR_BLADE_3 + FEATH + 54, eye, 
	reference, OFFSET + BLADE_3_MAIN, null,
	reference, OFFSET + BLADE_3_MAIN, null;

reference: CURR_ROTOR + CURR_BLADE_3 + AERO + 16, #gen ref
	reference, CURR_ROTOR + CURR_BLADE_3 + FEATH + 59, 0., 0.0472156447100000, -0.0250224213800000,
	reference, CURR_ROTOR + CURR_BLADE_3 + FEATH + 59, eye, 
	reference, OFFSET + BLADE_3_MAIN, null,
	reference, OFFSET + BLADE_3_MAIN, null;

reference: CURR_ROTOR + CURR_BLADE_3 + AERO + 17, #gen ref
	reference, CURR_ROTOR + CURR_BLADE_3 + FEATH + 63, 0., 0.0489588314700000, -0.0254116446300000,
	reference, CURR_ROTOR + CURR_BLADE_3 + FEATH + 63, eye, 
	reference, OFFSET + BLADE_3_MAIN, null,
	reference, OFFSET + BLADE_3_MAIN, null;

