# set: CURR_PSI = (CURR_BLADE/BLADE_1)*2*pi/NBLADES; # Johnson's definition
set: CURR_PSI = -(CURR_BLADE/BLADE_1 - 1)*2*pi/NBLADES; # "logical" definition

reference: CURR_BLADE,
	reference, HUB, null,
	reference, HUB,
		3, 0., 0., 1.,
		1, cos(CURR_PSI), sin(CURR_PSI), 0.,
	reference, HUB, null,
	reference, HUB, null;

reference: CURR_BLADE + FLAP_HINGE,
	reference, CURR_BLADE, FLAP_OFFSET, 0., 0.,
	reference, CURR_BLADE, eye,
	reference, CURR_BLADE, null,
	reference, CURR_BLADE, null;

/* axis 1: blade axis in blade's reference frame
 * axis 2: chordwise direction in blade's reference frame
 * axis 3: out-of-plane direction in blade's reference frame
 */
reference: CURR_BLADE + BLADE_CM,
	reference, CURR_BLADE + FLAP_HINGE, (R - FLAP_OFFSET)/2., 0., 0.,
	reference, CURR_BLADE + FLAP_HINGE, eye,
	reference, CURR_BLADE + FLAP_HINGE, null,
	reference, CURR_BLADE + FLAP_HINGE, null;

# vim:ft=mbd
