set: const integer BLADE_1_MAIN  = 10000; #set name
reference: OFFSET + BLADE_1_MAIN, #gen ref
	reference, global, 0.00000,0.00000,-0.00000,
	reference, global,
	1, 0.0000000000000000, 0.9996573249755573, 0.0261769483078732, 
	2, -1.0000000000000000, 0.0000000000000000, 0.0000000000000000, 
	reference, global, null,
	reference, global, null;
set: const integer YOKE_1_MAIN  = 100000; #set name
reference: OFFSET + YOKE_1_MAIN, #gen ref
	reference, global, 0.00000,0.00000,-0.00000,
	reference, global,
	1, 0.0000000000000000, 1.0000000000000000, 0.0000000000000000, 
	2, -1.0000000000000000, 0.0000000000000000, 0.0000000000000000, 
	reference, global, null,
	reference, global, null;
set: const integer BLADE_2_MAIN  = 20000; #set name
reference: OFFSET + BLADE_2_MAIN, #gen ref
	reference, global, 0.00000,0.00000,-0.00000,
	reference, global,
	1, -0.8657286385080288, -0.4998286624877784, 0.0261769483078732, 
	2, 0.4999999999999998, -0.8660254037844387, 0.0000000000000000, 
	reference, global, null,
	reference, global, null;
set: const integer YOKE_2_MAIN  = 200000; #set name
reference: OFFSET + YOKE_2_MAIN, #gen ref
	reference, global, 0.00000,0.00000,-0.00000,
	reference, global,
	1, -0.8660254037844387, -0.4999999999999998, 0.0000000000000000, 
	2, 0.4999999999999998, -0.8660254037844387, 0.0000000000000000, 
	reference, global, null,
	reference, global, null;
set: const integer BLADE_3_MAIN  = 30000; #set name
reference: OFFSET + BLADE_3_MAIN, #gen ref
	reference, global, 0.00000,0.00000,-0.00000,
	reference, global,
	1, 0.8657286385080286, -0.4998286624877791, 0.0261769483078732, 
	2, 0.5000000000000004, 0.8660254037844385, 0.0000000000000000, 
	reference, global, null,
	reference, global, null;
set: const integer YOKE_3_MAIN  = 300000; #set name
reference: OFFSET + YOKE_3_MAIN, #gen ref
	reference, global, 0.00000,0.00000,-0.00000,
	reference, global,
	1, 0.8660254037844385, -0.5000000000000004, 0.0000000000000000, 
	2, 0.5000000000000004, 0.8660254037844385, 0.0000000000000000, 
	reference, global, null,
	reference, global, null;
