reference: OFFSET + CURR_BLADE_1 + AERO + 1, #gen ref
	reference, OFFSET + CURR_BLADE_1 + FEATH + 1, 0.1276349999999998, 0.0038136385500000, -0.0009184919400000,
	reference, OFFSET + CURR_BLADE_1 + FEATH + 1, eye, 
	reference, OFFSET + CURR_BLADE_1 + FEATH + 1, null,
	reference, OFFSET + CURR_BLADE_1 + FEATH + 1, null;

reference: OFFSET + CURR_BLADE_1 + AERO + 2, #gen ref
	reference, OFFSET + CURR_BLADE_1 + FEATH + 4, 0.0895349999999998, 0.0038136385500000, -0.0009184919400000,
	reference, OFFSET + CURR_BLADE_1 + FEATH + 4, eye, 
	reference, OFFSET + CURR_BLADE_1 + FEATH + 4, null,
	reference, OFFSET + CURR_BLADE_1 + FEATH + 4, null;

reference: OFFSET + CURR_BLADE_1 + AERO + 3, #gen ref
	reference, OFFSET + CURR_BLADE_1 + FEATH + 6, -0.1009650000000002, 0.0038136385500000, -0.0009184919400000,
	reference, OFFSET + CURR_BLADE_1 + FEATH + 6, eye, 
	reference, OFFSET + CURR_BLADE_1 + FEATH + 6, null,
	reference, OFFSET + CURR_BLADE_1 + FEATH + 6, null;

reference: OFFSET + CURR_BLADE_1 + AERO + 4, #gen ref
	reference, OFFSET + CURR_BLADE_1 + FEATH + 13, 0.0952499999999996, 0.0290263402200000, -0.0197176301100000,
	reference, OFFSET + CURR_BLADE_1 + FEATH + 13, eye, 
	reference, OFFSET + CURR_BLADE_1 + FEATH + 13, null,
	reference, OFFSET + CURR_BLADE_1 + FEATH + 13, null;

reference: OFFSET + CURR_BLADE_1 + AERO + 5, #gen ref
	reference, OFFSET + CURR_BLADE_1 + FEATH + 20, -0.0076200000000006, 0.0438320421300000, -0.0226561650000000,
	reference, OFFSET + CURR_BLADE_1 + FEATH + 20, eye, 
	reference, OFFSET + CURR_BLADE_1 + FEATH + 20, null,
	reference, OFFSET + CURR_BLADE_1 + FEATH + 20, null;

reference: OFFSET + CURR_BLADE_1 + AERO + 6, #gen ref
	reference, OFFSET + CURR_BLADE_1 + FEATH + 27, 0.0266699999999997, 0.0431676048000000, -0.0229692631800000,
	reference, OFFSET + CURR_BLADE_1 + FEATH + 27, eye, 
	reference, OFFSET + CURR_BLADE_1 + FEATH + 27, null,
	reference, OFFSET + CURR_BLADE_1 + FEATH + 27, null;

reference: OFFSET + CURR_BLADE_1 + AERO + 7, #gen ref
	reference, OFFSET + CURR_BLADE_1 + FEATH + 34, -0.0000000000000004, 0.0451919682900000, -0.0234215749500000,
	reference, OFFSET + CURR_BLADE_1 + FEATH + 34, eye, 
	reference, OFFSET + CURR_BLADE_1 + FEATH + 34, null,
	reference, OFFSET + CURR_BLADE_1 + FEATH + 34, null;

reference: OFFSET + CURR_BLADE_1 + AERO + 8, #gen ref
	reference, OFFSET + CURR_BLADE_1 + FEATH + 41, -0.0190500000000005, 0.0489588314700000, -0.0254116446300000,
	reference, OFFSET + CURR_BLADE_1 + FEATH + 41, eye, 
	reference, OFFSET + CURR_BLADE_1 + FEATH + 41, null,
	reference, OFFSET + CURR_BLADE_1 + FEATH + 41, null;

reference: OFFSET + CURR_BLADE_1 + AERO + 200 + 1, #gen ref
	reference, OFFSET + CURR_BLADE_1 + FEATH + 1 + 100, 0.1085849999999998, 0.0038136385500000, -0.0009184919400000,
	reference, OFFSET + CURR_BLADE_1 + FEATH + 1 + 100, eye, 
	reference, OFFSET + CURR_BLADE_1 + FEATH + 1 + 100, null,
	reference, OFFSET + CURR_BLADE_1 + FEATH + 1 + 100, null;

reference: OFFSET + CURR_BLADE_1 + AERO + 200 + 2, #gen ref
	reference, OFFSET + CURR_BLADE_1 + FEATH + 4 + 100, -0.0057150000000002, 0.0038136385500000, -0.0009184919400000,
	reference, OFFSET + CURR_BLADE_1 + FEATH + 4 + 100, eye, 
	reference, OFFSET + CURR_BLADE_1 + FEATH + 4 + 100, null,
	reference, OFFSET + CURR_BLADE_1 + FEATH + 4 + 100, null;

reference: OFFSET + CURR_BLADE_1 + AERO + 200 + 3, #gen ref
	reference, OFFSET + CURR_BLADE_1 + FEATH + 6 + 100, -0.0028575000000003, 0.0164199893850000, -0.0103180610250000,
	reference, OFFSET + CURR_BLADE_1 + FEATH + 6 + 100, eye, 
	reference, OFFSET + CURR_BLADE_1 + FEATH + 6 + 100, null,
	reference, OFFSET + CURR_BLADE_1 + FEATH + 6 + 100, null;

reference: OFFSET + CURR_BLADE_1 + AERO + 200 + 4, #gen ref
	reference, OFFSET + CURR_BLADE_1 + FEATH + 13 + 100, 0.0438149999999995, 0.0364291911750000, -0.0211868975550000,
	reference, OFFSET + CURR_BLADE_1 + FEATH + 13 + 100, eye, 
	reference, OFFSET + CURR_BLADE_1 + FEATH + 13 + 100, null,
	reference, OFFSET + CURR_BLADE_1 + FEATH + 13 + 100, null;

reference: OFFSET + CURR_BLADE_1 + AERO + 200 + 5, #gen ref
	reference, OFFSET + CURR_BLADE_1 + FEATH + 20 + 100, 0.0095249999999996, 0.0434998234650000, -0.0228127140900000,
	reference, OFFSET + CURR_BLADE_1 + FEATH + 20 + 100, eye, 
	reference, OFFSET + CURR_BLADE_1 + FEATH + 20 + 100, null,
	reference, OFFSET + CURR_BLADE_1 + FEATH + 20 + 100, null;

reference: OFFSET + CURR_BLADE_1 + AERO + 200 + 6, #gen ref
	reference, OFFSET + CURR_BLADE_1 + FEATH + 27 + 100, 0.0133349999999997, 0.0441797865450000, -0.0231954190650000,
	reference, OFFSET + CURR_BLADE_1 + FEATH + 27 + 100, eye, 
	reference, OFFSET + CURR_BLADE_1 + FEATH + 27 + 100, null,
	reference, OFFSET + CURR_BLADE_1 + FEATH + 27 + 100, null;

reference: OFFSET + CURR_BLADE_1 + AERO + 200 + 7, #gen ref
	reference, OFFSET + CURR_BLADE_1 + FEATH + 34 + 100, -0.0095250000000004, 0.0470753998800000, -0.0244166097900000,
	reference, OFFSET + CURR_BLADE_1 + FEATH + 34 + 100, eye, 
	reference, OFFSET + CURR_BLADE_1 + FEATH + 34 + 100, null,
	reference, OFFSET + CURR_BLADE_1 + FEATH + 34 + 100, null;

