# Derivatives solution step at time 0 performed in 0 iterations with 0 error
# Key for lines starting with "Step":
# Step Time TStep NIter ResErr SolErr SolConv Out
Step 0 0 0 0 0 0 0 1
Step 1 0.01 0.01 2 0 0 0 1
Step 2 0.02 0.01 2 1.359350905471947e-14 0 0 1
Step 3 0.03 0.01 2 1.514125718191635e-14 0 0 1
Step 4 0.04 0.01 2 4.037975857175677e-14 0 0 1
Step 5 0.05 0.01 2 1.919573298092807e-14 0 0 1
Step 6 0.06 0.01 2 1.330643605979926e-14 0 0 1
Step 7 0.07000000000000001 0.01 2 1.634616337861314e-10 0 0 1
Step 8 0.08 0.01 2 2.498561945651544e-07 0 0 1
Step 9 0.09 0.01 2 3.070288807826974e-09 0 0 1
Step 10 0.09999999999999999 0.01 2 3.484430931093037e-11 0 0 1
Step 11 0.11 0.01 2 6.756809872734972e-10 0 0 1
Step 12 0.12 0.01 2 5.348802841317504e-10 0 0 1
Step 13 0.13 0.01 2 6.5953645679771e-10 0 0 1
Step 14 0.14 0.01 2 1.201063018628436e-10 0 0 1
Step 15 0.15 0.01 2 9.406158071161653e-11 0 0 1
Step 16 0.16 0.01 2 2.86245239397267e-12 0 0 1
Step 17 0.17 0.01 2 1.951518260812651e-10 0 0 1
Step 18 0.18 0.01 2 3.648550028931574e-11 0 0 1
Step 19 0.19 0.01 2 3.249683320906933e-11 0 0 1
Step 20 0.2 0.01 2 6.18352198048352e-14 0 0 1
Step 21 0.21 0.01 2 6.277698855579225e-11 0 0 1
Step 22 0.2200000000000001 0.01 2 2.370914199097326e-11 0 0 1
Step 23 0.2300000000000001 0.01 2 5.064342126013703e-11 0 0 1
Step 24 0.2400000000000001 0.01 2 6.013059261381619e-14 0 0 1
Step 25 0.2500000000000001 0.01 2 2.03484610269477e-11 0 0 1
Step 26 0.2600000000000001 0.01 2 2.304337333267295e-14 0 0 1
Step 27 0.2700000000000001 0.01 2 1.336658795453006e-11 0 0 1
Step 28 0.2800000000000001 0.01 2 5.594743187093763e-12 0 0 1
Step 29 0.2900000000000001 0.01 2 3.491687419778103e-14 0 0 1
Step 30 0.3000000000000001 0.01 2 3.560001525941136e-12 0 0 1
Step 31 0.3100000000000001 0.01 2 4.770047799303429e-12 0 0 1
Step 32 0.3200000000000001 0.01 2 3.205440871830286e-14 0 0 1
Step 33 0.3300000000000001 0.01 2 2.54322744196218e-14 0 0 1
Step 34 0.3400000000000001 0.01 2 4.734529713580402e-14 0 0 1
Step 35 0.3500000000000001 0.01 2 5.104634224426438e-14 0 0 1
Step 36 0.3600000000000002 0.01 2 3.801274634560758e-14 0 0 1
Step 37 0.3700000000000002 0.01 2 2.500547459767899e-14 0 0 1
Step 38 0.3800000000000002 0.01 2 4.475274179512924e-14 0 0 1
Step 39 0.3900000000000002 0.01 2 1.443359447780794e-14 0 0 1
Step 40 0.4000000000000002 0.01 2 4.051219783927586e-14 0 0 1
Step 41 0.4100000000000002 0.01 2 2.360941831266638e-14 0 0 1
Step 42 0.4200000000000002 0.01 2 4.896789323267124e-12 0 0 1
Step 43 0.4300000000000002 0.01 2 1.129940504395875e-12 0 0 1
Step 44 0.4400000000000002 0.01 2 6.060772967733204e-12 0 0 1
Step 45 0.4500000000000002 0.01 2 2.01754929748388e-12 0 0 1
Step 46 0.4600000000000002 0.01 2 2.585920650062678e-13 0 0 1
Step 47 0.4700000000000003 0.01 2 5.358029385394535e-12 0 0 1
Step 48 0.4800000000000003 0.01 2 6.01145765160302e-12 0 0 1
Step 49 0.4900000000000003 0.01 2 3.421876839003855e-12 0 0 1
Step 50 0.5000000000000002 0.01 2 4.245056624073153e-12 0 0 1
Step 51 0.5100000000000002 0.01 2 8.504448505092795e-14 0 0 1
Step 52 0.5200000000000002 0.01 2 8.826469805753152e-13 0 0 1
Step 53 0.5300000000000002 0.01 2 3.704527098768093e-13 0 0 1
Step 54 0.5400000000000003 0.01 2 3.234846060210886e-13 0 0 1
Step 55 0.5500000000000003 0.01 2 5.598714572764186e-13 0 0 1
Step 56 0.5600000000000003 0.01 2 6.079775095064596e-14 0 0 1
Step 57 0.5700000000000003 0.01 2 1.307591429534769e-13 0 0 1
Step 58 0.5800000000000003 0.01 2 1.312203154416826e-13 0 0 1
Step 59 0.5900000000000003 0.01 2 1.466866595753898e-13 0 0 1
Step 60 0.6000000000000003 0.01 2 2.723325246595645e-14 0 0 1
Step 61 0.6100000000000003 0.01 2 4.3649378414642e-14 0 0 1
Step 62 0.6200000000000003 0.01 2 2.840956736209405e-14 0 0 1
Step 63 0.6300000000000003 0.01 2 2.44037562624832e-14 0 0 1
Step 64 0.6400000000000003 0.01 2 5.328967566988094e-14 0 0 1
Step 65 0.6500000000000004 0.01 2 7.260765989376392e-14 0 0 1
Step 66 0.6600000000000004 0.01 2 6.566153923049485e-14 0 0 1
Step 67 0.6700000000000004 0.01 2 3.565689607148224e-14 0 0 1
Step 68 0.6800000000000004 0.01 2 3.041378052718566e-14 0 0 1
Step 69 0.6900000000000004 0.01 2 4.022177643429127e-14 0 0 1
Step 70 0.7000000000000004 0.01 2 3.858301914681136e-14 0 0 1
Step 71 0.7100000000000004 0.01 2 5.851978623010626e-14 0 0 1
Step 72 0.7200000000000004 0.01 2 3.531352417554195e-14 0 0 1
Step 73 0.7300000000000004 0.01 2 4.999301058279336e-14 0 0 1
Step 74 0.7400000000000004 0.01 2 9.825671192662268e-14 0 0 1
Step 75 0.7500000000000004 0.01 2 3.542032780937627e-14 0 0 1
Step 76 0.7600000000000005 0.01 2 7.332181910138962e-14 0 0 1
Step 77 0.7700000000000005 0.01 2 8.117975705271002e-14 0 0 1
Step 78 0.7800000000000005 0.01 2 6.092074177618702e-14 0 0 1
Step 79 0.7900000000000005 0.01 2 6.167947081958679e-14 0 0 1
Step 80 0.8000000000000005 0.01 2 5.054745897900376e-14 0 0 1
Step 81 0.8100000000000005 0.01 2 6.96332254731483e-14 0 0 1
Step 82 0.8200000000000005 0.01 2 8.802596227363419e-14 0 0 1
Step 83 0.8300000000000005 0.01 2 3.424570739719089e-14 0 0 1
Step 84 0.8400000000000005 0.01 2 1.869991854480409e-13 0 0 1
Step 85 0.8500000000000005 0.01 2 4.155045154245696e-14 0 0 1
Step 86 0.8600000000000005 0.01 2 1.752626752492705e-13 0 0 1
Step 87 0.8700000000000006 0.01 2 1.756161541539544e-13 0 0 1
Step 88 0.8800000000000006 0.01 2 1.650412889004468e-13 0 0 1
Step 89 0.8900000000000006 0.01 2 7.228756207629984e-14 0 0 1
Step 90 0.9000000000000006 0.01 2 2.080437477844993e-13 0 0 1
Step 91 0.9100000000000006 0.01 2 1.830419390593701e-13 0 0 1
Step 92 0.9200000000000006 0.01 2 8.447273483880396e-14 0 0 1
Step 93 0.9300000000000006 0.01 2 6.923159144110278e-14 0 0 1
Step 94 0.9400000000000006 0.01 2 6.057722929832937e-14 0 0 1
Step 95 0.9500000000000006 0.01 2 3.82743483619733e-14 0 0 1
Step 96 0.9600000000000006 0.01 2 6.3382673063283e-14 0 0 1
Step 97 0.9700000000000006 0.01 2 2.825691066633652e-13 0 0 1
Step 98 0.9800000000000006 0.01 2 1.594371049894655e-13 0 0 1
Step 99 0.9900000000000007 0.01 2 4.019196480903452e-14 0 0 1
Step 100 1.000000000000001 0.01 2 4.017367418977615e-14 0 0 1
