{
  "Finalized": "2020-03-27T18:30:38.835",
  "Initialized": "2020-03-27T18:30:26.633",
  "Name": "",
  "Ranks": [
    {
      "Finalized": "2020-03-27T18:30:38.835",
      "Initialized": "2020-03-27T18:30:26.633",
      "StateChanges": [
        {
          "Name": "_GLOBAL",
          "State": 1,
          "Timestamp": 0
        },
        {
          "Name": "_GLOBAL",
          "State": 0,
          "Timestamp": 12201
        },
        {
          "Name": "advance",
          "State": 1,
          "Timestamp": 12196
        },
        {
          "Name": "advance",
          "State": 0,
          "Timestamp": 12200
        },
        {
          "Name": "advance/m2n.sendData",
          "State": 1,
          "Timestamp": 12199
        },
        {
          "Name": "advance/m2n.sendData",
          "State": 0,
          "Timestamp": 12199
        },
        {
          "Name": "advance/map.nn.computeMapping.FromAuxilFluidMeshToAuxilMBDynMesh",
          "State": 1,
          "Timestamp": 12197
        },
        {
          "Name": "advance/map.nn.computeMapping.FromAuxilFluidMeshToAuxilMBDynMesh",
          "State": 0,
          "Timestamp": 12198
        },
        {
          "Name": "advance/map.nn.computeMapping.FromAuxilFluidMeshToAuxilMBDynMesh.getIndexOnVertices",
          "State": 1,
          "Timestamp": 12197
        },
        {
          "Name": "advance/map.nn.computeMapping.FromAuxilFluidMeshToAuxilMBDynMesh.getIndexOnVertices",
          "State": 0,
          "Timestamp": 12197
        },
        {
          "Name": "advance/map.nn.mapData.FromAuxilFluidMeshToAuxilMBDynMesh",
          "State": 1,
          "Timestamp": 12198
        },
        {
          "Name": "advance/map.nn.mapData.FromAuxilFluidMeshToAuxilMBDynMesh",
          "State": 0,
          "Timestamp": 12198
        },
        {
          "Name": "configure",
          "State": 1,
          "Timestamp": 0
        },
        {
          "Name": "configure",
          "State": 0,
          "Timestamp": 0
        },
        {
          "Name": "finalize",
          "State": 1,
          "Timestamp": 12200
        },
        {
          "Name": "finalize",
          "State": 0,
          "Timestamp": 12201
        },
        {
          "Name": "initialize",
          "State": 1,
          "Timestamp": 2
        },
        {
          "Name": "initialize",
          "State": 0,
          "Timestamp": 12188
        },
        {
          "Name": "initialize/m2n.acceptMasterConnection",
          "State": 1,
          "Timestamp": 3
        },
        {
          "Name": "initialize/m2n.acceptMasterConnection",
          "State": 0,
          "Timestamp": 11976
        },
        {
          "Name": "initialize/m2n.acceptSlavesConnection",
          "State": 1,
          "Timestamp": 12066
        },
        {
          "Name": "initialize/m2n.acceptSlavesConnection",
          "State": 0,
          "Timestamp": 12178
        },
        {
          "Name": "initialize/m2n.broadcastVertexDistributions",
          "State": 1,
          "Timestamp": 12117
        },
        {
          "Name": "initialize/m2n.broadcastVertexDistributions",
          "State": 0,
          "Timestamp": 12117
        },
        {
          "Name": "initialize/m2n.broadcastVertexDistributions",
          "State": 1,
          "Timestamp": 12173
        },
        {
          "Name": "initialize/m2n.broadcastVertexDistributions",
          "State": 0,
          "Timestamp": 12173
        },
        {
          "Name": "initialize/m2n.buildCommunicationMap",
          "State": 1,
          "Timestamp": 12117
        },
        {
          "Name": "initialize/m2n.buildCommunicationMap",
          "State": 0,
          "Timestamp": 12117
        },
        {
          "Name": "initialize/m2n.buildCommunicationMap",
          "State": 1,
          "Timestamp": 12173
        },
        {
          "Name": "initialize/m2n.buildCommunicationMap",
          "State": 0,
          "Timestamp": 12173
        },
        {
          "Name": "initialize/m2n.createCommunications",
          "State": 1,
          "Timestamp": 12117
        },
        {
          "Name": "initialize/m2n.createCommunications",
          "State": 0,
          "Timestamp": 12122
        },
        {
          "Name": "initialize/m2n.createCommunications",
          "State": 1,
          "Timestamp": 12173
        },
        {
          "Name": "initialize/m2n.createCommunications",
          "State": 0,
          "Timestamp": 12178
        },
        {
          "Name": "initialize/m2n.exchangeVertexDistribution",
          "State": 1,
          "Timestamp": 12066
        },
        {
          "Name": "initialize/m2n.exchangeVertexDistribution",
          "State": 0,
          "Timestamp": 12116
        },
        {
          "Name": "initialize/m2n.exchangeVertexDistribution",
          "State": 1,
          "Timestamp": 12122
        },
        {
          "Name": "initialize/m2n.exchangeVertexDistribution",
          "State": 0,
          "Timestamp": 12172
        },
        {
          "Name": "initialize/m2n.receiveData",
          "State": 1,
          "Timestamp": 12179
        },
        {
          "Name": "initialize/m2n.receiveData",
          "State": 0,
          "Timestamp": 12181
        },
        {
          "Name": "initialize/m2n.receiveData",
          "State": 1,
          "Timestamp": 12181
        },
        {
          "Name": "initialize/m2n.receiveData",
          "State": 0,
          "Timestamp": 12181
        },
        {
          "Name": "initialize/m2n.receiveData",
          "State": 1,
          "Timestamp": 12182
        },
        {
          "Name": "initialize/m2n.receiveData",
          "State": 0,
          "Timestamp": 12182
        },
        {
          "Name": "initialize/m2n.receiveData",
          "State": 1,
          "Timestamp": 12182
        },
        {
          "Name": "initialize/m2n.receiveData",
          "State": 0,
          "Timestamp": 12182
        },
        {
          "Name": "initialize/map.nn.computeMapping.FromAuxilMBDynMeshToAuxilFluidMesh",
          "State": 1,
          "Timestamp": 12183
        },
        {
          "Name": "initialize/map.nn.computeMapping.FromAuxilMBDynMeshToAuxilFluidMesh",
          "State": 0,
          "Timestamp": 12185
        },
        {
          "Name": "initialize/map.nn.computeMapping.FromAuxilMBDynMeshToAuxilFluidMesh.getIndexOnVertices",
          "State": 1,
          "Timestamp": 12183
        },
        {
          "Name": "initialize/map.nn.computeMapping.FromAuxilMBDynMeshToAuxilFluidMesh.getIndexOnVertices",
          "State": 0,
          "Timestamp": 12184
        },
        {
          "Name": "initialize/map.nn.mapData.FromAuxilMBDynMeshToAuxilFluidMesh",
          "State": 1,
          "Timestamp": 12185
        },
        {
          "Name": "initialize/map.nn.mapData.FromAuxilMBDynMeshToAuxilFluidMesh",
          "State": 0,
          "Timestamp": 12185
        },
        {
          "Name": "initialize/map.nn.mapData.FromAuxilMBDynMeshToAuxilFluidMesh",
          "State": 1,
          "Timestamp": 12186
        },
        {
          "Name": "initialize/map.nn.mapData.FromAuxilMBDynMeshToAuxilFluidMesh",
          "State": 0,
          "Timestamp": 12186
        },
        {
          "Name": "initialize/map.nn.mapData.FromAuxilMBDynMeshToAuxilFluidMesh",
          "State": 1,
          "Timestamp": 12186
        },
        {
          "Name": "initialize/map.nn.mapData.FromAuxilMBDynMeshToAuxilFluidMesh",
          "State": 0,
          "Timestamp": 12186
        },
        {
          "Name": "initialize/map.nn.mapData.FromAuxilMBDynMeshToAuxilFluidMesh",
          "State": 1,
          "Timestamp": 12187
        },
        {
          "Name": "initialize/map.nn.mapData.FromAuxilMBDynMeshToAuxilFluidMesh",
          "State": 0,
          "Timestamp": 12187
        },
        {
          "Name": "initialize/partition.gatherMesh.AuxilFluidMesh",
          "State": 1,
          "Timestamp": 11977
        },
        {
          "Name": "initialize/partition.gatherMesh.AuxilFluidMesh",
          "State": 0,
          "Timestamp": 11977
        },
        {
          "Name": "initialize/partition.prepareMesh.AuxilFluidMesh",
          "State": 1,
          "Timestamp": 11976
        },
        {
          "Name": "initialize/partition.prepareMesh.AuxilFluidMesh",
          "State": 0,
          "Timestamp": 11976
        },
        {
          "Name": "initialize/partition.receiveGlobalMesh.AuxilMBDynMesh",
          "State": 1,
          "Timestamp": 11978
        },
        {
          "Name": "initialize/partition.receiveGlobalMesh.AuxilMBDynMesh",
          "State": 0,
          "Timestamp": 12063
        },
        {
          "Name": "initialize/partition.sendGlobalMesh.AuxilFluidMesh",
          "State": 1,
          "Timestamp": 11977
        },
        {
          "Name": "initialize/partition.sendGlobalMesh.AuxilFluidMesh",
          "State": 0,
          "Timestamp": 11978
        },
        {
          "Name": "solver.advance",
          "State": 1,
          "Timestamp": 12199
        },
        {
          "Name": "solver.advance",
          "State": 0,
          "Timestamp": 12200
        },
        {
          "Name": "solver.initialize",
          "State": 1,
          "Timestamp": 0
        },
        {
          "Name": "solver.initialize",
          "State": 2,
          "Timestamp": 2
        },
        {
          "Name": "solver.initialize",
          "State": 1,
          "Timestamp": 12187
        },
        {
          "Name": "solver.initialize",
          "State": 0,
          "Timestamp": 12196
        }
      ],
      "Timings": {
        "_GLOBAL": {
          "Count": 1,
          "Data": {},
          "Max": 12201,
          "Min": 12201,
          "TimeRatio": 0.9999180462219308,
          "Total": 12201
        },
        "advance": {
          "Count": 1,
          "Data": {},
          "Max": 3,
          "Min": 3,
          "TimeRatio": 0.000245861334207507,
          "Total": 3
        },
        "advance/m2n.sendData": {
          "Count": 1,
          "Data": {},
          "Max": 0,
          "Min": 0,
          "TimeRatio": 0.0,
          "Total": 0
        },
        "advance/map.nn.computeMapping.FromAuxilFluidMeshToAuxilMBDynMesh": {
          "Count": 1,
          "Data": {},
          "Max": 0,
          "Min": 0,
          "TimeRatio": 0.0,
          "Total": 0
        },
        "advance/map.nn.computeMapping.FromAuxilFluidMeshToAuxilMBDynMesh.getIndexOnVertices": {
          "Count": 1,
          "Data": {},
          "Max": 0,
          "Min": 0,
          "TimeRatio": 0.0,
          "Total": 0
        },
        "advance/map.nn.mapData.FromAuxilFluidMeshToAuxilMBDynMesh": {
          "Count": 1,
          "Data": {},
          "Max": 0,
          "Min": 0,
          "TimeRatio": 0.0,
          "Total": 0
        },
        "configure": {
          "Count": 1,
          "Data": {},
          "Max": 0,
          "Min": 0,
          "TimeRatio": 0.0,
          "Total": 0
        },
        "finalize": {
          "Count": 1,
          "Data": {},
          "Max": 1,
          "Min": 1,
          "TimeRatio": 8.195377806916898e-05,
          "Total": 1
        },
        "initialize": {
          "Count": 1,
          "Data": {},
          "Max": 12185,
          "Min": 12185,
          "TimeRatio": 0.9986067857728241,
          "Total": 12185
        },
        "initialize/m2n.acceptMasterConnection": {
          "Count": 1,
          "Data": {},
          "Max": 11972,
          "Min": 11972,
          "TimeRatio": 0.9811506310440912,
          "Total": 11972
        },
        "initialize/m2n.acceptSlavesConnection": {
          "Count": 1,
          "Data": {},
          "Max": 112,
          "Min": 112,
          "TimeRatio": 0.009178823143746927,
          "Total": 112
        },
        "initialize/m2n.broadcastVertexDistributions": {
          "Count": 2,
          "Data": {},
          "Max": 0,
          "Min": 0,
          "TimeRatio": 0.0,
          "Total": 0
        },
        "initialize/m2n.buildCommunicationMap": {
          "Count": 2,
          "Data": {},
          "Max": 0,
          "Min": 0,
          "TimeRatio": 0.0,
          "Total": 0
        },
        "initialize/m2n.createCommunications": {
          "Count": 2,
          "Data": {
            "Connections": [
              1,
              1
            ]
          },
          "Max": 4,
          "Min": 4,
          "TimeRatio": 0.0007375840026225209,
          "Total": 9
        },
        "initialize/m2n.exchangeVertexDistribution": {
          "Count": 2,
          "Data": {},
          "Max": 50,
          "Min": 49,
          "TimeRatio": 0.008113424028847729,
          "Total": 99
        },
        "initialize/m2n.receiveData": {
          "Count": 4,
          "Data": {},
          "Max": 2,
          "Min": 0,
          "TimeRatio": 0.00016390755613833797,
          "Total": 2
        },
        "initialize/map.nn.computeMapping.FromAuxilMBDynMeshToAuxilFluidMesh": {
          "Count": 1,
          "Data": {},
          "Max": 1,
          "Min": 1,
          "TimeRatio": 8.195377806916898e-05,
          "Total": 1
        },
        "initialize/map.nn.computeMapping.FromAuxilMBDynMeshToAuxilFluidMesh.getIndexOnVertices": {
          "Count": 1,
          "Data": {},
          "Max": 0,
          "Min": 0,
          "TimeRatio": 0.0,
          "Total": 0
        },
        "initialize/map.nn.mapData.FromAuxilMBDynMeshToAuxilFluidMesh": {
          "Count": 4,
          "Data": {},
          "Max": 0,
          "Min": 0,
          "TimeRatio": 0.0,
          "Total": 0
        },
        "initialize/partition.gatherMesh.AuxilFluidMesh": {
          "Count": 1,
          "Data": {},
          "Max": 0,
          "Min": 0,
          "TimeRatio": 0.0,
          "Total": 0
        },
        "initialize/partition.prepareMesh.AuxilFluidMesh": {
          "Count": 1,
          "Data": {},
          "Max": 0,
          "Min": 0,
          "TimeRatio": 0.0,
          "Total": 0
        },
        "initialize/partition.receiveGlobalMesh.AuxilMBDynMesh": {
          "Count": 1,
          "Data": {},
          "Max": 85,
          "Min": 85,
          "TimeRatio": 0.006966071135879364,
          "Total": 85
        },
        "initialize/partition.sendGlobalMesh.AuxilFluidMesh": {
          "Count": 1,
          "Data": {},
          "Max": 0,
          "Min": 0,
          "TimeRatio": 0.0,
          "Total": 0
        },
        "solver.advance": {
          "Count": 1,
          "Data": {},
          "Max": 0,
          "Min": 0,
          "TimeRatio": 0.0,
          "Total": 0
        },
        "solver.initialize": {
          "Count": 1,
          "Data": {},
          "Max": 11,
          "Min": 11,
          "TimeRatio": 0.0009014915587608589,
          "Total": 11
        }
      }
    }
  ]
}
