# Derivatives solution step at time 0 performed in 0 iterations with 8.00099e-13 error
# Key for lines starting with "Step":
# Step Time TStep NIter ResErr SolErr SolConv Out
Step 0 0 0 0 8.00099e-13 0 0 1
Step 1 0.001 0.001 2 1.35042e-12 0 0 1
Step 2 0.002 0.001 2 1.951519098175068e-12 0 0 1
Step 3 0.003 0.001 2 1.777237839122962e-12 0 0 1
Step 4 0.004 0.001 2 1.249043758744004e-12 0 0 1
Step 5 0.005 0.001 2 1.853786310776527e-12 0 0 1
Step 6 0.006 0.001 2 2.008771035059483e-12 0 0 1
Step 7 0.007 0.001 2 1.861626303325906e-12 0 0 1
Step 8 0.008 0.001 2 1.762122548429535e-12 0 0 1
Step 9 0.009000000000000001 0.001 2 1.349957488097161e-12 0 0 1
Step 10 0.01 0.001 2 2.548798145810173e-12 0 0 1
Step 11 0.011 0.001 2 1.821895344436027e-12 0 0 1
Step 12 0.012 0.001 2 2.242223664750617e-12 0 0 1
Step 13 0.013 0.001 2 2.754245727392996e-12 0 0 1
Step 14 0.01400000000000001 0.001 2 2.764964411888553e-12 0 0 1
Step 15 0.01500000000000001 0.001 2 1.797608922858849e-12 0 0 1
Step 16 0.01600000000000001 0.001 2 2.366456088350355e-12 0 0 1
Step 17 0.01700000000000001 0.001 2 1.885486563040368e-12 0 0 1
Step 18 0.01800000000000001 0.001 2 2.216028076375623e-12 0 0 1
Step 19 0.01900000000000001 0.001 2 1.950790881296796e-12 0 0 1
Step 20 0.02000000000000001 0.001 2 2.232696360174798e-12 0 0 1
Step 21 0.02100000000000001 0.001 2 1.556307491063743e-12 0 0 1
Step 22 0.02200000000000001 0.001 2 2.910036842628549e-12 0 0 1
Step 23 0.02300000000000001 0.001 2 2.583657384884738e-12 0 0 1
Step 24 0.02400000000000001 0.001 2 5.100389884478498e-12 0 0 1
Step 25 0.02500000000000002 0.001 2 2.734834235044221e-12 0 0 1
Step 26 0.02600000000000002 0.001 2 4.162962874073426e-12 0 0 1
Step 27 0.02700000000000002 0.001 2 3.279465607641812e-12 0 0 1
Step 28 0.02800000000000002 0.001 2 3.254563736180595e-12 0 0 1
Step 29 0.02900000000000002 0.001 2 3.478842285966814e-12 0 0 1
Step 30 0.03000000000000002 0.001 2 3.474833740174074e-12 0 0 1
Step 31 0.03100000000000002 0.001 2 2.663997817306689e-12 0 0 1
Step 32 0.03200000000000002 0.001 2 4.024013653247259e-12 0 0 1
Step 33 0.03300000000000002 0.001 2 4.316446689161036e-12 0 0 1
Step 34 0.03400000000000002 0.001 2 3.846898895057217e-12 0 0 1
Step 35 0.03500000000000002 0.001 2 3.655721315640218e-12 0 0 1
Step 36 0.03600000000000003 0.001 2 4.278400414887294e-12 0 0 1
Step 37 0.03700000000000003 0.001 2 3.601532231036426e-12 0 0 1
Step 38 0.03800000000000003 0.001 2 5.010000118936223e-12 0 0 1
Step 39 0.03900000000000003 0.001 2 6.653856046579017e-12 0 0 1
Step 40 0.04000000000000003 0.001 2 3.512762930278378e-12 0 0 1
Step 41 0.04100000000000003 0.001 2 4.3718932286655e-12 0 0 1
Step 42 0.04200000000000003 0.001 2 4.924139546550247e-12 0 0 1
Step 43 0.04300000000000003 0.001 2 5.076324878275374e-12 0 0 1
Step 44 0.04400000000000003 0.001 2 5.836046547715447e-12 0 0 1
Step 45 0.04500000000000003 0.001 2 4.418545879679874e-12 0 0 1
Step 46 0.04600000000000003 0.001 2 4.599755544565163e-12 0 0 1
Step 47 0.04700000000000003 0.001 2 6.229018952228167e-12 0 0 1
Step 48 0.04800000000000004 0.001 2 5.681420984624541e-12 0 0 1
Step 49 0.04900000000000004 0.001 2 5.07016873958562e-12 0 0 1
Step 50 0.05000000000000004 0.001 2 5.701410792628222e-12 0 0 1
Step 51 0.05100000000000004 0.001 2 1.044333786338838e-11 0 0 1
Step 52 0.05200000000000004 0.001 2 7.475483592713487e-12 0 0 1
Step 53 0.05300000000000004 0.001 2 3.546559285784287e-12 0 0 1
Step 54 0.05400000000000004 0.001 2 7.574325827718178e-12 0 0 1
Step 55 0.05500000000000004 0.001 2 6.971306139721984e-12 0 0 1
Step 56 0.05600000000000004 0.001 2 7.119883575923032e-12 0 0 1
Step 57 0.05700000000000004 0.001 2 1.169287288572004e-11 0 0 1
Step 58 0.05800000000000004 0.001 2 8.078698918509376e-12 0 0 1
Step 59 0.05900000000000005 0.001 2 1.397262226949449e-11 0 0 1
Step 60 0.06000000000000005 0.001 2 6.221121804939179e-12 0 0 1
Step 61 0.06100000000000005 0.001 2 8.133521925711514e-12 0 0 1
Step 62 0.06200000000000005 0.001 2 1.165852349562621e-11 0 0 1
Step 63 0.06300000000000004 0.001 2 4.953389852379242e-12 0 0 1
Step 64 0.06400000000000004 0.001 2 1.274214365388681e-11 0 0 1
Step 65 0.06500000000000004 0.001 2 6.188753234721419e-12 0 0 1
Step 66 0.06600000000000004 0.001 2 7.401147766677389e-12 0 0 1
Step 67 0.06700000000000005 0.001 2 1.558087573436882e-11 0 0 1
Step 68 0.06800000000000005 0.001 2 7.71287203119111e-12 0 0 1
Step 69 0.06900000000000005 0.001 2 5.621938689709815e-12 0 0 1
Step 70 0.07000000000000005 0.001 2 7.707097418116966e-12 0 0 1
Step 71 0.07100000000000005 0.001 2 1.041711152778022e-11 0 0 1
Step 72 0.07200000000000005 0.001 2 1.35908436870102e-11 0 0 1
Step 73 0.07300000000000005 0.001 2 6.754929051235242e-12 0 0 1
Step 74 0.07400000000000005 0.001 2 6.525769578125687e-12 0 0 1
Step 75 0.07500000000000005 0.001 2 1.024397054413264e-11 0 0 1
Step 76 0.07600000000000005 0.001 2 1.140965297360378e-11 0 0 1
Step 77 0.07700000000000005 0.001 2 1.283011903635252e-11 0 0 1
Step 78 0.07800000000000006 0.001 2 5.473572287406574e-12 0 0 1
Step 79 0.07900000000000006 0.001 2 1.819887889648747e-11 0 0 1
Step 80 0.08000000000000006 0.001 2 1.687037405129747e-11 0 0 1
Step 81 0.08100000000000006 0.001 2 1.305569400609485e-11 0 0 1
Step 82 0.08200000000000006 0.001 2 1.692394970067183e-11 0 0 1
Step 83 0.08300000000000006 0.001 2 1.251297988555275e-11 0 0 1
Step 84 0.08400000000000006 0.001 2 1.307356747975245e-11 0 0 1
Step 85 0.08500000000000006 0.001 2 1.259028154337199e-11 0 0 1
Step 86 0.08600000000000006 0.001 2 8.874294995984361e-12 0 0 1
Step 87 0.08700000000000006 0.001 2 9.818576196254219e-12 0 0 1
Step 88 0.08800000000000006 0.001 2 1.216921895404652e-11 0 0 1
Step 89 0.08900000000000007 0.001 2 1.416516243503613e-11 0 0 1
