reference: OFFSET + CURR_YOKE_1 + FEATH + 1, #gen ref
	reference, OFFSET + BLADE_1_MAIN, 0.0000000000000000, 0., 0.,
	reference, OFFSET + BLADE_1_MAIN, 
		1, 1., 	0., 	0.,
		2, 0., 1.0000000000000000, 0.0000000000000000,
	reference, OFFSET + BLADE_1_MAIN, null,
	reference, OFFSET + BLADE_1_MAIN, null;

reference: OFFSET + CURR_YOKE_1 + FEATH + 4, #gen ref
	reference, OFFSET + BLADE_1_MAIN, 0.3810000000000000, 0., 0.,
	reference, OFFSET + BLADE_1_MAIN, 
		1, 1., 	0., 	0.,
		2, 0., 1.0000000000000000, 0.0000000000000000,
	reference, OFFSET + BLADE_1_MAIN, null,
	reference, OFFSET + BLADE_1_MAIN, null;

reference: OFFSET + CURR_YOKE_1 + FEATH + 7, #gen ref
	reference, OFFSET + BLADE_1_MAIN, 0.4648200000000000, 0., 0.,
	reference, OFFSET + BLADE_1_MAIN, 
		1, 1., 	0., 	0.,
		2, 0., 1.0000000000000000, 0.0000000000000000,
	reference, OFFSET + BLADE_1_MAIN, null,
	reference, OFFSET + BLADE_1_MAIN, null;

reference: OFFSET + CURR_YOKE_1 + FEATH + 10, #gen ref
	reference, OFFSET + BLADE_1_MAIN, 0.6096000000000000, 0., 0.,
	reference, OFFSET + BLADE_1_MAIN, 
		1, 1., 	0., 	0.,
		2, 0., 1.0000000000000000, 0.0000000000000000,
	reference, OFFSET + BLADE_1_MAIN, null,
	reference, OFFSET + BLADE_1_MAIN, null;

reference: OFFSET + CURR_YOKE_1 + FEATH + 1 + 100, #gen ref
	reference, OFFSET + BLADE_1_MAIN, 0.1905000000000000, 0., 0.,
	reference, OFFSET + BLADE_1_MAIN,
		1, 1., 	0., 	0.,
		2, 0., 1.0000000000000000, 0.0000000000000000,
	reference, OFFSET + BLADE_1_MAIN, null,
	reference, OFFSET + BLADE_1_MAIN, null;

reference: OFFSET + CURR_YOKE_1 + FEATH + 4 + 100, #gen ref
	reference, OFFSET + BLADE_1_MAIN, 0.4229100000000000, 0., 0.,
	reference, OFFSET + BLADE_1_MAIN,
		1, 1., 	0., 	0.,
		2, 0., 1.0000000000000000, 0.0000000000000000,
	reference, OFFSET + BLADE_1_MAIN, null,
	reference, OFFSET + BLADE_1_MAIN, null;

reference: OFFSET + CURR_YOKE_1 + FEATH + 7 + 100, #gen ref
	reference, OFFSET + BLADE_1_MAIN, 0.5372100000000000, 0., 0.,
	reference, OFFSET + BLADE_1_MAIN,
		1, 1., 	0., 	0.,
		2, 0., 1.0000000000000000, 0.0000000000000000,
	reference, OFFSET + BLADE_1_MAIN, null,
	reference, OFFSET + BLADE_1_MAIN, null;

reference: OFFSET + CURR_YOKE_1 + NEUTR + 1, #gen ref
	reference, OFFSET + CURR_YOKE_1 + FEATH + 1, 0., 0.0000000000000000, 0.0000000000000000,
	reference, OFFSET + CURR_YOKE_1 + FEATH + 1, eye,
	reference, OFFSET + CURR_YOKE_1 + FEATH + 1, null,
	reference, OFFSET + CURR_YOKE_1 + FEATH + 1, null;

reference: OFFSET + CURR_YOKE_1 + NEUTR + 4, #gen ref
	reference, OFFSET + CURR_YOKE_1 + FEATH + 4, 0., 0.0000000000000000, 0.0000000000000000,
	reference, OFFSET + CURR_YOKE_1 + FEATH + 4, eye,
	reference, OFFSET + CURR_YOKE_1 + FEATH + 4, null,
	reference, OFFSET + CURR_YOKE_1 + FEATH + 4, null;

reference: OFFSET + CURR_YOKE_1 + NEUTR + 7, #gen ref
	reference, OFFSET + CURR_YOKE_1 + FEATH + 7, 0., 0.0000000000000000, 0.0000000000000000,
	reference, OFFSET + CURR_YOKE_1 + FEATH + 7, eye,
	reference, OFFSET + CURR_YOKE_1 + FEATH + 7, null,
	reference, OFFSET + CURR_YOKE_1 + FEATH + 7, null;

reference: OFFSET + CURR_YOKE_1 + NEUTR + 10, #gen ref
	reference, OFFSET + CURR_YOKE_1 + FEATH + 10, 0., 0.0000000000000000, 0.0000000000000000,
	reference, OFFSET + CURR_YOKE_1 + FEATH + 10, eye,
	reference, OFFSET + CURR_YOKE_1 + FEATH + 10, null,
	reference, OFFSET + CURR_YOKE_1 + FEATH + 10, null;

reference: OFFSET + CURR_YOKE_1 + NEUTR + 100 + 1, #gen ref
	reference, OFFSET + CURR_YOKE_1 + FEATH + 1 + 100, 0., 0.0000000000000000, 0.0000000000000000,
	reference, OFFSET + CURR_YOKE_1 + FEATH + 1 + 100, eye, 
	reference, OFFSET + CURR_YOKE_1 + FEATH + 1 + 100, null,
	reference, OFFSET + CURR_YOKE_1 + FEATH + 1 + 100, null;

reference: OFFSET + CURR_YOKE_1 + NEUTR + 100 + 4, #gen ref
	reference, OFFSET + CURR_YOKE_1 + FEATH + 4 + 100, 0., 0.0000000000000000, 0.0000000000000000,
	reference, OFFSET + CURR_YOKE_1 + FEATH + 4 + 100, eye, 
	reference, OFFSET + CURR_YOKE_1 + FEATH + 4 + 100, null,
	reference, OFFSET + CURR_YOKE_1 + FEATH + 4 + 100, null;

reference: OFFSET + CURR_YOKE_1 + NEUTR + 100 + 7, #gen ref
	reference, OFFSET + CURR_YOKE_1 + FEATH + 7 + 100, 0., 0.0000000000000000, 0.0000000000000000,
	reference, OFFSET + CURR_YOKE_1 + FEATH + 7 + 100, eye, 
	reference, OFFSET + CURR_YOKE_1 + FEATH + 7 + 100, null,
	reference, OFFSET + CURR_YOKE_1 + FEATH + 7 + 100, null;

reference: OFFSET + CURR_YOKE_1 + BODY + 1, #gen ref
	reference, OFFSET + CURR_YOKE_1 + FEATH + 1, 0., 0.0000000000000000, 0.0000000000000000,
	reference, OFFSET + CURR_YOKE_1 + FEATH + 1, 
		1, 1., 	0., 	0.,
		2, 0., 1.0000000000000000, 0.0000000000000000,
	reference, OFFSET + CURR_YOKE_1 + FEATH + 1, null,
	reference, OFFSET + CURR_YOKE_1 + FEATH + 1, null;

reference: OFFSET + CURR_YOKE_1 + BODY + 4, #gen ref
	reference, OFFSET + CURR_YOKE_1 + FEATH + 4, 0., 0.0000000000000000, 0.0000000000000000,
	reference, OFFSET + CURR_YOKE_1 + FEATH + 4, 
		1, 1., 	0., 	0.,
		2, 0., 1.0000000000000000, 0.0000000000000000,
	reference, OFFSET + CURR_YOKE_1 + FEATH + 4, null,
	reference, OFFSET + CURR_YOKE_1 + FEATH + 4, null;

reference: OFFSET + CURR_YOKE_1 + BODY + 7, #gen ref
	reference, OFFSET + CURR_YOKE_1 + FEATH + 7, 0., 0.0000000000000000, 0.0000000000000000,
	reference, OFFSET + CURR_YOKE_1 + FEATH + 7, 
		1, 1., 	0., 	0.,
		2, 0., 1.0000000000000000, 0.0000000000000000,
	reference, OFFSET + CURR_YOKE_1 + FEATH + 7, null,
	reference, OFFSET + CURR_YOKE_1 + FEATH + 7, null;

reference: OFFSET + CURR_YOKE_1 + BODY + 10, #gen ref
	reference, OFFSET + CURR_YOKE_1 + FEATH + 10, 0., 0.0000000000000000, 0.0000000000000000,
	reference, OFFSET + CURR_YOKE_1 + FEATH + 10, 
		1, 1., 	0., 	0.,
		2, 0., 1.0000000000000000, 0.0000000000000000,
	reference, OFFSET + CURR_YOKE_1 + FEATH + 10, null,
	reference, OFFSET + CURR_YOKE_1 + FEATH + 10, null;

reference: OFFSET + CURR_YOKE_1 + BODY + 100 + 1, #gen ref
	reference, OFFSET + CURR_YOKE_1 + FEATH + 1 + 100, 0., 0.0000000000000000, 0.0000000000000000,
	reference, OFFSET + CURR_YOKE_1 + FEATH + 1 + 100, 
		1, 1., 	0., 	0.,
		2, 0., 1.0000000000000000, 0.0000000000000000,
	reference, OFFSET + CURR_YOKE_1 + FEATH + 1 + 100, null,
	reference, OFFSET + CURR_YOKE_1 + FEATH + 1 + 100, null;

reference: OFFSET + CURR_YOKE_1 + BODY + 100 + 4, #gen ref
	reference, OFFSET + CURR_YOKE_1 + FEATH + 4 + 100, 0., 0.0000000000000000, 0.0000000000000000,
	reference, OFFSET + CURR_YOKE_1 + FEATH + 4 + 100, 
		1, 1., 	0., 	0.,
		2, 0., 1.0000000000000000, 0.0000000000000000,
	reference, OFFSET + CURR_YOKE_1 + FEATH + 4 + 100, null,
	reference, OFFSET + CURR_YOKE_1 + FEATH + 4 + 100, null;

reference: OFFSET + CURR_YOKE_1 + BODY + 100 + 7, #gen ref
	reference, OFFSET + CURR_YOKE_1 + FEATH + 7 + 100, 0., 0.0000000000000000, 0.0000000000000000,
	reference, OFFSET + CURR_YOKE_1 + FEATH + 7 + 100, 
		1, 1., 	0., 	0.,
		2, 0., 1.0000000000000000, 0.0000000000000000,
	reference, OFFSET + CURR_YOKE_1 + FEATH + 7 + 100, null,
	reference, OFFSET + CURR_YOKE_1 + FEATH + 7 + 100, null;

