\relax 
\providecommand\hyper@newdestlabel[2]{}
\@nameuse{bbl@beforestart}
\providecommand\HyperFirstAtBeginDocument{\AtBeginDocument}
\HyperFirstAtBeginDocument{\ifx\hyper@anchor\@undefined
\global\let\oldcontentsline\contentsline
\gdef\contentsline#1#2#3#4{\oldcontentsline{#1}{#2}{#3}}
\global\let\oldnewlabel\newlabel
\gdef\newlabel#1#2{\newlabelxx{#1}#2}
\gdef\newlabelxx#1#2#3#4#5#6{\oldnewlabel{#1}{{#2}{#3}}}
\AtEndDocument{\ifx\hyper@anchor\@undefined
\let\contentsline\oldcontentsline
\let\newlabel\oldnewlabel
\fi}
\fi}
\global\let\hyper@last\relax 
\gdef\HyperFirstAtBeginDocument#1{#1}
\providecommand\HyField@AuxAddToFields[1]{}
\providecommand\HyField@AuxAddToCoFields[2]{}
\babel@aux{italian}{}
\babel@aux{italian}{}
\@writefile{toc}{\contentsline {section}{\numberline {1}General interface between structural mesh and aerodynamic mesh}{1}{section.1}\protected@file@percent }
\@writefile{toc}{\contentsline {subsection}{\numberline {1.1}Kinematic variables: from MBDyn{} to \texttt  {dust}{}}{1}{subsection.1.1}\protected@file@percent }
\newlabel{sec:kinematics}{{1.1}{1}{Kinematic variables: from \mbdyn {} to \dust {}}{subsection.1.1}{}}
\@writefile{toc}{\contentsline {paragraph}{Position.}{1}{section*.2}\protected@file@percent }
\newlabel{eqn:pos}{{1}{2}{Position}{equation.1.1}{}}
\@writefile{toc}{\contentsline {paragraph}{Velocity.}{2}{section*.3}\protected@file@percent }
\newlabel{eqn:vel}{{2}{2}{Velocity}{equation.1.2}{}}
\@writefile{toc}{\contentsline {paragraph}{Angular velocity.}{2}{section*.4}\protected@file@percent }
\newlabel{eqn:ome}{{3}{2}{Angular velocity}{equation.1.3}{}}
\@writefile{toc}{\contentsline {subsection}{\numberline {1.2}Loads: from \texttt  {dust}{} to MBDyn{}}{2}{subsection.1.2}\protected@file@percent }
\newlabel{sec:loads}{{1.2}{2}{Loads: from \dust {} to \mbdyn {}}{subsection.1.2}{}}
\@writefile{toc}{\contentsline {paragraph}{Forces.}{2}{section*.5}\protected@file@percent }
\newlabel{eqn:for}{{4}{2}{Forces}{equation.1.4}{}}
\@writefile{toc}{\contentsline {paragraph}{Moments.}{2}{section*.6}\protected@file@percent }
\newlabel{eqn:mom}{{5}{2}{Moments}{equation.1.5}{}}
\@writefile{toc}{\contentsline {paragraph}{Consistency of kinematic and loads translation.}{3}{section*.7}\protected@file@percent }
\@writefile{toc}{\contentsline {subsection}{\numberline {1.3}Weight evaluation}{3}{subsection.1.3}\protected@file@percent }
\newlabel{sec:weights}{{1.3}{3}{Weight evaluation}{subsection.1.3}{}}
\@writefile{toc}{\contentsline {section}{\numberline {2}Aileron deflection}{3}{section.2}\protected@file@percent }
\@writefile{toc}{\contentsline {subsection}{\numberline {2.1}Two-dimensional example}{4}{subsection.2.1}\protected@file@percent }
\@writefile{toc}{\contentsline {subsection}{\numberline {2.2}Three-dimensional problems}{4}{subsection.2.2}\protected@file@percent }
\@writefile{toc}{\contentsline {subsubsection}{\numberline {2.2.1}Hinge input}{5}{subsubsection.2.2.1}\protected@file@percent }
\@writefile{toc}{\contentsline {subsubsection}{\numberline {2.2.2}Hinge connectivity}{5}{subsubsection.2.2.2}\protected@file@percent }
\@writefile{toc}{\contentsline {subsubsection}{\numberline {2.2.3}Hinge motion}{5}{subsubsection.2.2.3}\protected@file@percent }
\@writefile{toc}{\contentsline {paragraph}{Hinge nodes: position and orientation.}{6}{section*.8}\protected@file@percent }
\@writefile{toc}{\contentsline {paragraph}{Hinge nodes: rotation.}{6}{section*.9}\protected@file@percent }
\@writefile{toc}{\contentsline {paragraph}{Surface position due to hinge deflection.}{6}{section*.10}\protected@file@percent }
\newlabel{eqn:hinge_pos}{{13}{6}{Surface position due to hinge deflection}{equation.2.13}{}}
\@writefile{toc}{\contentsline {paragraph}{Surface velocity due to hinge deflection.}{7}{section*.11}\protected@file@percent }
