reference: OFFSET + CURR_BLADE_1 + BODY + 1, #gen ref
	reference, OFFSET + BLADE_1_MAIN, 0.6477000000000001, 0.0000000000000000, 0.0000000000000000,
	reference, OFFSET + BLADE_1_MAIN, 
		1, 1., 	0., 	0.,
		2, 0., 0.9025852843498606, 0.4305110968082951,
	reference, OFFSET + BLADE_1_MAIN, null,
	reference, OFFSET + BLADE_1_MAIN, null;

reference: OFFSET + CURR_BLADE_1 + BODY + 2, #gen ref
	reference, OFFSET + BLADE_1_MAIN, 0.6553200000000000, 0.0220230222480000, 0.0113746980024000,
	reference, OFFSET + BLADE_1_MAIN, 
		1, 1., 	0., 	0.,
		2, 0., 0.9025852843498606, 0.4305110968082951,
	reference, OFFSET + BLADE_1_MAIN, null,
	reference, OFFSET + BLADE_1_MAIN, null;

reference: OFFSET + CURR_BLADE_1 + BODY + 3, #gen ref
	reference, OFFSET + BLADE_1_MAIN, 0.6781800000000001, 0.0219468704064000, 0.0108106960824000,
	reference, OFFSET + BLADE_1_MAIN, 
		1, 1., 	0., 	0.,
		2, 0., 0.9025852843498606, 0.4305110968082951,
	reference, OFFSET + BLADE_1_MAIN, null,
	reference, OFFSET + BLADE_1_MAIN, null;

reference: OFFSET + CURR_BLADE_1 + BODY + 4, #gen ref
	reference, OFFSET + BLADE_1_MAIN, 0.6858000000000001, 0.0219014027808000, 0.0106612410600000,
	reference, OFFSET + BLADE_1_MAIN, 
		1, 1., 	0., 	0.,
		2, 0., 0.9025852843498606, 0.4305110968082951,
	reference, OFFSET + BLADE_1_MAIN, null,
	reference, OFFSET + BLADE_1_MAIN, null;

reference: OFFSET + CURR_BLADE_1 + BODY + 5, #gen ref
	reference, OFFSET + BLADE_1_MAIN, 0.7620000000000000, 0.0215447947056000, 0.0089582122080000,
	reference, OFFSET + BLADE_1_MAIN, 
		1, 1., 	0., 	0.,
		2, 0., 0.9025852843498606, 0.4305110968082951,
	reference, OFFSET + BLADE_1_MAIN, null,
	reference, OFFSET + BLADE_1_MAIN, null;

reference: OFFSET + CURR_BLADE_1 + BODY + 6, #gen ref
	reference, OFFSET + BLADE_1_MAIN, 0.8763000000000001, 0.0209407716312000, 0.0064983512400000,
	reference, OFFSET + BLADE_1_MAIN, 
		1, 1., 	0., 	0.,
		2, 0., 0.9025852843498606, 0.4305110968082951,
	reference, OFFSET + BLADE_1_MAIN, null,
	reference, OFFSET + BLADE_1_MAIN, null;

reference: OFFSET + CURR_BLADE_1 + BODY + 7, #gen ref
	reference, OFFSET + BLADE_1_MAIN, 0.9525000000000000, 0.0289230005232000, 0.0084122675544000,
	reference, OFFSET + BLADE_1_MAIN, 
		1, 1., 	0., 	0.,
		2, 0., 0.9351352096860117, 0.3542910379977158,
	reference, OFFSET + BLADE_1_MAIN, null,
	reference, OFFSET + BLADE_1_MAIN, null;

reference: OFFSET + CURR_BLADE_1 + BODY + 8, #gen ref
	reference, OFFSET + BLADE_1_MAIN, 1.0401300000000000, 0.0150384881856000, 0.0010367570832000,
	reference, OFFSET + BLADE_1_MAIN, 
		1, 1., 	0., 	0.,
		2, 0., 0.9351352096860117, 0.3542910379977158,
	reference, OFFSET + BLADE_1_MAIN, null,
	reference, OFFSET + BLADE_1_MAIN, null;

reference: OFFSET + CURR_BLADE_1 + BODY + 9, #gen ref
	reference, OFFSET + BLADE_1_MAIN, 1.1430000000000000, 0.0143963050656000, -0.0010506398088000,
	reference, OFFSET + BLADE_1_MAIN, 
		1, 1., 	0., 	0.,
		2, 0., 0.9476291475399599, 0.3193728209047992,
	reference, OFFSET + BLADE_1_MAIN, null,
	reference, OFFSET + BLADE_1_MAIN, null;

reference: OFFSET + CURR_BLADE_1 + BODY + 10, #gen ref
	reference, OFFSET + BLADE_1_MAIN, 1.2382500000000001, 0.0000916439112000, -0.0075500413896000,
	reference, OFFSET + BLADE_1_MAIN, 
		1, 1., 	0., 	0.,
		2, 0., 0.9476291475399599, 0.3193728209047992,
	reference, OFFSET + BLADE_1_MAIN, null,
	reference, OFFSET + BLADE_1_MAIN, null;

reference: OFFSET + CURR_BLADE_1 + BODY + 11, #gen ref
	reference, OFFSET + BLADE_1_MAIN, 1.5240000000000000, 0.0002449196016000, -0.0116732322288000,
	reference, OFFSET + BLADE_1_MAIN, 
		1, 1., 	0., 	0.,
		2, 0., 0.9618607552539928, 0.2735395538166621,
	reference, OFFSET + BLADE_1_MAIN, null,
	reference, OFFSET + BLADE_1_MAIN, null;

reference: OFFSET + CURR_BLADE_1 + BODY + 12, #gen ref
	reference, OFFSET + BLADE_1_MAIN, 1.9354800000000001, -0.0007728258864000, -0.0183794339040000,
	reference, OFFSET + BLADE_1_MAIN, 
		1, 1., 	0., 	0.,
		2, 0., 0.9876883405951378, 0.1564344650402309,
	reference, OFFSET + BLADE_1_MAIN, null,
	reference, OFFSET + BLADE_1_MAIN, null;

reference: OFFSET + CURR_BLADE_1 + BODY + 13, #gen ref
	reference, OFFSET + BLADE_1_MAIN, 2.0954999999999999, -0.0015589727520000, -0.0211055958888000,
	reference, OFFSET + BLADE_1_MAIN, 
		1, 1., 	0., 	0.,
		2, 0., 0.9876883405951378, 0.1564344650402309,
	reference, OFFSET + BLADE_1_MAIN, null,
	reference, OFFSET + BLADE_1_MAIN, null;

reference: OFFSET + CURR_BLADE_1 + BODY + 14, #gen ref
	reference, OFFSET + BLADE_1_MAIN, 2.2860000000000000, -0.0025542422880000, -0.0243683814384000,
	reference, OFFSET + BLADE_1_MAIN, 
		1, 1., 	0., 	0.,
		2, 0., 0.9928096670090550, 0.1197036553049625,
	reference, OFFSET + BLADE_1_MAIN, null,
	reference, OFFSET + BLADE_1_MAIN, null;

reference: OFFSET + CURR_BLADE_1 + BODY + 15, #gen ref
	reference, OFFSET + BLADE_1_MAIN, 2.5146000000000002, -0.0042018676440000, -0.0283636855128000,
	reference, OFFSET + BLADE_1_MAIN, 
		1, 1., 	0., 	0.,
		2, 0., 0.9987954562051724, 0.0490676743274180,
	reference, OFFSET + BLADE_1_MAIN, null,
	reference, OFFSET + BLADE_1_MAIN, null;

reference: OFFSET + CURR_BLADE_1 + BODY + 16, #gen ref
	reference, OFFSET + BLADE_1_MAIN, 2.6289000000000002, -0.0050318465784000, -0.0303866098896000,
	reference, OFFSET + BLADE_1_MAIN, 
		1, 1., 	0., 	0.,
		2, 0., 0.9987954562051724, 0.0490676743274180,
	reference, OFFSET + BLADE_1_MAIN, null,
	reference, OFFSET + BLADE_1_MAIN, null;

reference: OFFSET + CURR_BLADE_1 + BODY + 17, #gen ref
	reference, OFFSET + BLADE_1_MAIN, 2.9641800000000003, -0.0084434339640000, -0.0361782585552000,
	reference, OFFSET + BLADE_1_MAIN, 
		1, 1., 	0., 	0.,
		2, 0., 0.9998942403882349, -0.0145433159366962,
	reference, OFFSET + BLADE_1_MAIN, null,
	reference, OFFSET + BLADE_1_MAIN, null;

reference: OFFSET + CURR_BLADE_1 + BODY + 18, #gen ref
	reference, OFFSET + BLADE_1_MAIN, 3.2194500000000001, -0.0130202028648000, -0.0404136032976000,
	reference, OFFSET + BLADE_1_MAIN, 
		1, 1., 	0., 	0.,
		2, 0., 0.9978351142864910, -0.0657653761250206,
	reference, OFFSET + BLADE_1_MAIN, null,
	reference, OFFSET + BLADE_1_MAIN, null;

reference: OFFSET + CURR_BLADE_1 + BODY + 19, #gen ref
	reference, OFFSET + BLADE_1_MAIN, 3.2766000000000002, -0.0140149582032000, -0.0413212772760000,
	reference, OFFSET + BLADE_1_MAIN, 
		1, 1., 	0., 	0.,
		2, 0., 0.9978351142864910, -0.0657653761250206,
	reference, OFFSET + BLADE_1_MAIN, null,
	reference, OFFSET + BLADE_1_MAIN, null;

reference: OFFSET + CURR_BLADE_1 + BODY + 20, #gen ref
	reference, OFFSET + BLADE_1_MAIN, 3.2842200000000004, -0.0143119364256000, -0.0414247940616000,
	reference, OFFSET + BLADE_1_MAIN, 
		1, 1., 	0., 	0.,
		2, 0., 0.9978351142864910, -0.0657653761250206,
	reference, OFFSET + BLADE_1_MAIN, null,
	reference, OFFSET + BLADE_1_MAIN, null;

reference: OFFSET + CURR_BLADE_1 + BODY + 21, #gen ref
	reference, OFFSET + BLADE_1_MAIN, 3.2956500000000002, -0.0151696503312000, -0.0415783303560000,
	reference, OFFSET + BLADE_1_MAIN, 
		1, 1., 	0., 	0.,
		2, 0., 0.9978351142864910, -0.0657653761250206,
	reference, OFFSET + BLADE_1_MAIN, null,
	reference, OFFSET + BLADE_1_MAIN, null;

reference: OFFSET + CURR_BLADE_1 + BODY + 22, #gen ref
	reference, OFFSET + BLADE_1_MAIN, 3.3032700000000004, -0.0155844294864000, -0.0416732679360000,
	reference, OFFSET + BLADE_1_MAIN, 
		1, 1., 	0., 	0.,
		2, 0., 0.9978351142864910, -0.0657653761250206,
	reference, OFFSET + BLADE_1_MAIN, null,
	reference, OFFSET + BLADE_1_MAIN, null;

reference: OFFSET + CURR_BLADE_1 + BODY + 23, #gen ref
	reference, OFFSET + BLADE_1_MAIN, 3.3489900000000006, -0.0170384489304000, -0.0423557050776000,
	reference, OFFSET + BLADE_1_MAIN, 
		1, 1., 	0., 	0.,
		2, 0., 0.9978351142864910, -0.0657653761250206,
	reference, OFFSET + BLADE_1_MAIN, null,
	reference, OFFSET + BLADE_1_MAIN, null;

reference: OFFSET + CURR_BLADE_1 + BODY + 24, #gen ref
	reference, OFFSET + BLADE_1_MAIN, 3.3566099999999999, -0.0159774788400000, -0.0425647375272000,
	reference, OFFSET + BLADE_1_MAIN, 
		1, 1., 	0., 	0.,
		2, 0., 0.9958592090623494, -0.0909089419458395,
	reference, OFFSET + BLADE_1_MAIN, null,
	reference, OFFSET + BLADE_1_MAIN, null;

reference: OFFSET + CURR_BLADE_1 + BODY + 25, #gen ref
	reference, OFFSET + BLADE_1_MAIN, 3.3642300000000001, -0.0136886530392000, -0.0428814338712000,
	reference, OFFSET + BLADE_1_MAIN, 
		1, 1., 	0., 	0.,
		2, 0., 0.9958592090623494, -0.0909089419458395,
	reference, OFFSET + BLADE_1_MAIN, null,
	reference, OFFSET + BLADE_1_MAIN, null;

reference: OFFSET + CURR_BLADE_1 + BODY + 26, #gen ref
	reference, OFFSET + BLADE_1_MAIN, 3.3718500000000002, -0.0113895149400000, -0.0431885274912000,
	reference, OFFSET + BLADE_1_MAIN, 
		1, 1., 	0., 	0.,
		2, 0., 0.9958592090623494, -0.0909089419458395,
	reference, OFFSET + BLADE_1_MAIN, null,
	reference, OFFSET + BLADE_1_MAIN, null;

reference: OFFSET + CURR_BLADE_1 + BODY + 27, #gen ref
	reference, OFFSET + BLADE_1_MAIN, 3.4023300000000001, -0.0020967957048000, -0.0445478053416000,
	reference, OFFSET + BLADE_1_MAIN, 
		1, 1., 	0., 	0.,
		2, 0., 0.9958592090623494, -0.0909089419458395,
	reference, OFFSET + BLADE_1_MAIN, null,
	reference, OFFSET + BLADE_1_MAIN, null;

reference: OFFSET + CURR_BLADE_1 + BODY + 28, #gen ref
	reference, OFFSET + BLADE_1_MAIN, 3.4099500000000003, 0.0002561027136000, -0.0448749935112000,
	reference, OFFSET + BLADE_1_MAIN, 
		1, 1., 	0., 	0.,
		2, 0., 0.9958592090623494, -0.0909089419458395,
	reference, OFFSET + BLADE_1_MAIN, null,
	reference, OFFSET + BLADE_1_MAIN, null;

reference: OFFSET + CURR_BLADE_1 + BODY + 29, #gen ref
	reference, OFFSET + BLADE_1_MAIN, 3.4290000000000003, 0.0061847312424000, -0.0458172187032000,
	reference, OFFSET + BLADE_1_MAIN, 
		1, 1., 	0., 	0.,
		2, 0., 0.9958592090623494, -0.0909089419458395,
	reference, OFFSET + BLADE_1_MAIN, null,
	reference, OFFSET + BLADE_1_MAIN, null;

reference: OFFSET + CURR_BLADE_1 + BODY + 30, #gen ref
	reference, OFFSET + BLADE_1_MAIN, 3.4366200000000005, 0.0071857736904000, -0.0460337193624000,
	reference, OFFSET + BLADE_1_MAIN, 
		1, 1., 	0., 	0.,
		2, 0., 0.9958592090623494, -0.0909089419458395,
	reference, OFFSET + BLADE_1_MAIN, null,
	reference, OFFSET + BLADE_1_MAIN, null;

reference: OFFSET + CURR_BLADE_1 + BODY + 31, #gen ref
	reference, OFFSET + BLADE_1_MAIN, 3.4671000000000003, 0.0113382228912000, -0.0473432757984000,
	reference, OFFSET + BLADE_1_MAIN, 
		1, 1., 	0., 	0.,
		2, 0., 0.9958592090623494, -0.0909089419458395,
	reference, OFFSET + BLADE_1_MAIN, null,
	reference, OFFSET + BLADE_1_MAIN, null;

reference: OFFSET + CURR_BLADE_1 + BODY + 32, #gen ref
	reference, OFFSET + BLADE_1_MAIN, 3.4747200000000005, 0.0131718838416000, -0.0476574618096000,
	reference, OFFSET + BLADE_1_MAIN, 
		1, 1., 	0., 	0.,
		2, 0., 0.9958592090623494, -0.0909089419458395,
	reference, OFFSET + BLADE_1_MAIN, null,
	reference, OFFSET + BLADE_1_MAIN, null;

reference: OFFSET + CURR_BLADE_1 + BODY + 33, #gen ref
	reference, OFFSET + BLADE_1_MAIN, 3.5242500000000003, 0.0188126232840000, -0.0492879159528000,
	reference, OFFSET + BLADE_1_MAIN, 
		1, 1., 	0., 	0.,
		2, 0., 0.9935718556765875, -0.1132032137679067,
	reference, OFFSET + BLADE_1_MAIN, null,
	reference, OFFSET + BLADE_1_MAIN, null;

reference: OFFSET + CURR_BLADE_1 + BODY + 34, #gen ref
	reference, OFFSET + BLADE_1_MAIN, 3.5623500000000003, 0.0224952760152000, -0.0505499455344000,
	reference, OFFSET + BLADE_1_MAIN, 
		1, 1., 	0., 	0.,
		2, 0., 0.9935718556765875, -0.1132032137679067,
	reference, OFFSET + BLADE_1_MAIN, null,
	reference, OFFSET + BLADE_1_MAIN, null;

reference: OFFSET + CURR_BLADE_1 + BODY + 35, #gen ref
	reference, OFFSET + BLADE_1_MAIN, 3.5814000000000004, 0.0243727708632000, -0.0511963684224000,
	reference, OFFSET + BLADE_1_MAIN, 
		1, 1., 	0., 	0.,
		2, 0., 0.9935718556765875, -0.1132032137679067,
	reference, OFFSET + BLADE_1_MAIN, null,
	reference, OFFSET + BLADE_1_MAIN, null;

reference: OFFSET + CURR_BLADE_1 + BODY + 36, #gen ref
	reference, OFFSET + BLADE_1_MAIN, 3.6195000000000004, 0.0162019631256000, -0.0511346607480000,
	reference, OFFSET + BLADE_1_MAIN, 
		1, 1., 	0., 	0.,
		2, 0., 0.9915866534680597, -0.1294446162032782,
	reference, OFFSET + BLADE_1_MAIN, null,
	reference, OFFSET + BLADE_1_MAIN, null;

reference: OFFSET + CURR_BLADE_1 + BODY + 37, #gen ref
	reference, OFFSET + BLADE_1_MAIN, 3.6576000000000004, 0.0080419501848000, -0.0509717024760000,
	reference, OFFSET + BLADE_1_MAIN, 
		1, 1., 	0., 	0.,
		2, 0., 0.9915866534680597, -0.1294446162032782,
	reference, OFFSET + BLADE_1_MAIN, null,
	reference, OFFSET + BLADE_1_MAIN, null;

reference: OFFSET + CURR_BLADE_1 + BODY + 38, #gen ref
	reference, OFFSET + BLADE_1_MAIN, 3.6957000000000000, -0.0000691210200000, -0.0507170097672000,
	reference, OFFSET + BLADE_1_MAIN, 
		1, 1., 	0., 	0.,
		2, 0., 0.9902680687415704, -0.1391731009600654,
	reference, OFFSET + BLADE_1_MAIN, null,
	reference, OFFSET + BLADE_1_MAIN, null;

reference: OFFSET + CURR_BLADE_1 + BODY + 39, #gen ref
	reference, OFFSET + BLADE_1_MAIN, 3.7147500000000000, -0.0002328098976000, -0.0510898487472000,
	reference, OFFSET + BLADE_1_MAIN, 
		1, 1., 	0., 	0.,
		2, 0., 0.9902680687415704, -0.1391731009600654,
	reference, OFFSET + BLADE_1_MAIN, null,
	reference, OFFSET + BLADE_1_MAIN, null;

reference: OFFSET + CURR_BLADE_1 + BODY + 40, #gen ref
	reference, OFFSET + BLADE_1_MAIN, 3.7528500000000000, -0.0005596673592000, -0.0518269151928000,
	reference, OFFSET + BLADE_1_MAIN, 
		1, 1., 	0., 	0.,
		2, 0., 0.9893994377513348, -0.1452196700772404,
	reference, OFFSET + BLADE_1_MAIN, null,
	reference, OFFSET + BLADE_1_MAIN, null;

reference: OFFSET + CURR_BLADE_1 + BODY + 41, #gen ref
	reference, OFFSET + BLADE_1_MAIN, 3.8100000000000001, -0.0010515667056000, -0.0529322790984000,
	reference, OFFSET + BLADE_1_MAIN, 
		1, 1., 	0., 	0.,
		2, 0., 0.9884938868086836, -0.1512608202472192,
	reference, OFFSET + BLADE_1_MAIN, null,
	reference, OFFSET + BLADE_1_MAIN, null;

reference: OFFSET + CURR_BLADE_1 + AERO, #gen ref
	reference, OFFSET + BLADE_1_MAIN, 2.2288500000000000, 0.0000000000000000, 0.0000000000000000,
	reference, OFFSET + BLADE_1_MAIN, 
		1, 1., 	0., 	0.,
		2, 0., 1.0000000000000000, 0.0000000000000000,
	reference, OFFSET + BLADE_1_MAIN, null,
	reference, OFFSET + BLADE_1_MAIN, null;

