reference: OFFSET + CURR_BLADE_3 + FEATH + 1, #gen ref
	reference, OFFSET + BLADE_3_MAIN, 0.6477000000000001, 0., 0.,
	reference, OFFSET + BLADE_3_MAIN, 
		1, 1., 	0., 	0.,
		2, 0., 0.9025852843498606, 0.4305110968082951,
	reference, OFFSET + BLADE_3_MAIN, null,
	reference, OFFSET + BLADE_3_MAIN, null;

reference: OFFSET + CURR_BLADE_3 + FEATH + 4, #gen ref
	reference, OFFSET + BLADE_3_MAIN, 0.6858000000000001, 0., 0.,
	reference, OFFSET + BLADE_3_MAIN, 
		1, 1., 	0., 	0.,
		2, 0., 0.9025852843498606, 0.4305110968082951,
	reference, OFFSET + BLADE_3_MAIN, null,
	reference, OFFSET + BLADE_3_MAIN, null;

reference: OFFSET + CURR_BLADE_3 + FEATH + 6, #gen ref
	reference, OFFSET + BLADE_3_MAIN, 0.8763000000000001, 0., 0.,
	reference, OFFSET + BLADE_3_MAIN, 
		1, 1., 	0., 	0.,
		2, 0., 0.9025852843498606, 0.4305110968082951,
	reference, OFFSET + BLADE_3_MAIN, null,
	reference, OFFSET + BLADE_3_MAIN, null;

reference: OFFSET + CURR_BLADE_3 + FEATH + 13, #gen ref
	reference, OFFSET + BLADE_3_MAIN, 2.0954999999999999, 0., 0.,
	reference, OFFSET + BLADE_3_MAIN, 
		1, 1., 	0., 	0.,
		2, 0., 0.9928096670090550, 0.1197036553049625,
	reference, OFFSET + BLADE_3_MAIN, null,
	reference, OFFSET + BLADE_3_MAIN, null;

reference: OFFSET + CURR_BLADE_3 + FEATH + 20, #gen ref
	reference, OFFSET + BLADE_3_MAIN, 3.2842200000000004, 0., 0.,
	reference, OFFSET + BLADE_3_MAIN, 
		1, 1., 	0., 	0.,
		2, 0., 0.9978351142864910, -0.0657653761250206,
	reference, OFFSET + BLADE_3_MAIN, null,
	reference, OFFSET + BLADE_3_MAIN, null;

reference: OFFSET + CURR_BLADE_3 + FEATH + 27, #gen ref
	reference, OFFSET + BLADE_3_MAIN, 3.4023300000000001, 0., 0.,
	reference, OFFSET + BLADE_3_MAIN, 
		1, 1., 	0., 	0.,
		2, 0., 0.9958592090623494, -0.0909089419458395,
	reference, OFFSET + BLADE_3_MAIN, null,
	reference, OFFSET + BLADE_3_MAIN, null;

reference: OFFSET + CURR_BLADE_3 + FEATH + 34, #gen ref
	reference, OFFSET + BLADE_3_MAIN, 3.5623500000000003, 0., 0.,
	reference, OFFSET + BLADE_3_MAIN, 
		1, 1., 	0., 	0.,
		2, 0., 0.9935718556765875, -0.1132032137679067,
	reference, OFFSET + BLADE_3_MAIN, null,
	reference, OFFSET + BLADE_3_MAIN, null;

reference: OFFSET + CURR_BLADE_3 + FEATH + 41, #gen ref
	reference, OFFSET + BLADE_3_MAIN, 3.8100000000000001, 0., 0.,
	reference, OFFSET + BLADE_3_MAIN, 
		1, 1., 	0., 	0.,
		2, 0., 0.9884938868086836, -0.1512608202472192,
	reference, OFFSET + BLADE_3_MAIN, null,
	reference, OFFSET + BLADE_3_MAIN, null;

reference: OFFSET + CURR_BLADE_3 + FEATH + 1 + 100, #gen ref
	reference, OFFSET + BLADE_3_MAIN, 0.6667500000000001, 0., 0.,
	reference, OFFSET + BLADE_3_MAIN,
		1, 1., 	0., 	0.,
		2, 0., 0.9025852843498606, 0.4305110968082951,
	reference, OFFSET + BLADE_3_MAIN, null,
	reference, OFFSET + BLADE_3_MAIN, null;

reference: OFFSET + CURR_BLADE_3 + FEATH + 4 + 100, #gen ref
	reference, OFFSET + BLADE_3_MAIN, 0.7810500000000000, 0., 0.,
	reference, OFFSET + BLADE_3_MAIN,
		1, 1., 	0., 	0.,
		2, 0., 0.9025852843498606, 0.4305110968082951,
	reference, OFFSET + BLADE_3_MAIN, null,
	reference, OFFSET + BLADE_3_MAIN, null;

reference: OFFSET + CURR_BLADE_3 + FEATH + 6 + 100, #gen ref
	reference, OFFSET + BLADE_3_MAIN, 1.4859000000000000, 0., 0.,
	reference, OFFSET + BLADE_3_MAIN,
		1, 1., 	0., 	0.,
		2, 0., 0.9603545292404667, 0.2787815958188804,
	reference, OFFSET + BLADE_3_MAIN, null,
	reference, OFFSET + BLADE_3_MAIN, null;

reference: OFFSET + CURR_BLADE_3 + FEATH + 13 + 100, #gen ref
	reference, OFFSET + BLADE_3_MAIN, 2.6898600000000004, 0., 0.,
	reference, OFFSET + BLADE_3_MAIN,
		1, 1., 	0., 	0.,
		2, 0., 0.9996331085601817, 0.0270859423005350,
	reference, OFFSET + BLADE_3_MAIN, null,
	reference, OFFSET + BLADE_3_MAIN, null;

reference: OFFSET + CURR_BLADE_3 + FEATH + 20 + 100, #gen ref
	reference, OFFSET + BLADE_3_MAIN, 3.3432750000000002, 0., 0.,
	reference, OFFSET + BLADE_3_MAIN,
		1, 1., 	0., 	0.,
		2, 0., 0.9969264333258969, -0.0783433885921841,
	reference, OFFSET + BLADE_3_MAIN, null,
	reference, OFFSET + BLADE_3_MAIN, null;

reference: OFFSET + CURR_BLADE_3 + FEATH + 27 + 100, #gen ref
	reference, OFFSET + BLADE_3_MAIN, 3.4823400000000002, 0., 0.,
	reference, OFFSET + BLADE_3_MAIN,
		1, 1., 	0., 	0.,
		2, 0., 0.9947779897927447, -0.1020624858795140,
	reference, OFFSET + BLADE_3_MAIN, null,
	reference, OFFSET + BLADE_3_MAIN, null;

reference: OFFSET + CURR_BLADE_3 + FEATH + 34 + 100, #gen ref
	reference, OFFSET + BLADE_3_MAIN, 3.6861750000000004, 0., 0.,
	reference, OFFSET + BLADE_3_MAIN,
		1, 1., 	0., 	0.,
		2, 0., 0.9912155402515417, -0.1322563902571224,
	reference, OFFSET + BLADE_3_MAIN, null,
	reference, OFFSET + BLADE_3_MAIN, null;

reference: OFFSET + CURR_BLADE_3 + NEUTR + 1, #gen ref
	reference, OFFSET + CURR_BLADE_3 + FEATH + 1, 0., 0.0000000000000000, 0.0000000000000000,
	reference, OFFSET + CURR_BLADE_3 + FEATH + 1, eye,
	reference, OFFSET + CURR_BLADE_3 + FEATH + 1, null,
	reference, OFFSET + CURR_BLADE_3 + FEATH + 1, null;

reference: OFFSET + CURR_BLADE_3 + NEUTR + 4, #gen ref
	reference, OFFSET + CURR_BLADE_3 + FEATH + 4, 0., -0.0003061642848000, -0.0005923248504000,
	reference, OFFSET + CURR_BLADE_3 + FEATH + 4, eye,
	reference, OFFSET + CURR_BLADE_3 + FEATH + 4, null,
	reference, OFFSET + CURR_BLADE_3 + FEATH + 4, null;

reference: OFFSET + CURR_BLADE_3 + NEUTR + 6, #gen ref
	reference, OFFSET + CURR_BLADE_3 + FEATH + 6, 0., -0.0018369863184000, -0.0035539494072000,
	reference, OFFSET + CURR_BLADE_3 + FEATH + 6, eye,
	reference, OFFSET + CURR_BLADE_3 + FEATH + 6, null,
	reference, OFFSET + CURR_BLADE_3 + FEATH + 6, null;

reference: OFFSET + CURR_BLADE_3 + NEUTR + 13, #gen ref
	reference, OFFSET + CURR_BLADE_3 + FEATH + 13, 0., -0.0169737636648000, -0.0232526930424000,
	reference, OFFSET + CURR_BLADE_3 + FEATH + 13, eye,
	reference, OFFSET + CURR_BLADE_3 + FEATH + 13, null,
	reference, OFFSET + CURR_BLADE_3 + FEATH + 13, null;

reference: OFFSET + CURR_BLADE_3 + NEUTR + 20, #gen ref
	reference, OFFSET + CURR_BLADE_3 + FEATH + 20, 0., -0.0352400396544000, -0.0400966420824000,
	reference, OFFSET + CURR_BLADE_3 + FEATH + 20, eye,
	reference, OFFSET + CURR_BLADE_3 + FEATH + 20, null,
	reference, OFFSET + CURR_BLADE_3 + FEATH + 20, null;

reference: OFFSET + CURR_BLADE_3 + NEUTR + 27, #gen ref
	reference, OFFSET + CURR_BLADE_3 + FEATH + 27, 0., -0.0155572806456000, -0.0433913456784000,
	reference, OFFSET + CURR_BLADE_3 + FEATH + 27, eye,
	reference, OFFSET + CURR_BLADE_3 + FEATH + 27, null,
	reference, OFFSET + CURR_BLADE_3 + FEATH + 27, null;

reference: OFFSET + CURR_BLADE_3 + NEUTR + 34, #gen ref
	reference, OFFSET + CURR_BLADE_3 + FEATH + 34, 0., -0.0135530481288000, -0.0464398476840000,
	reference, OFFSET + CURR_BLADE_3 + FEATH + 34, eye,
	reference, OFFSET + CURR_BLADE_3 + FEATH + 34, null,
	reference, OFFSET + CURR_BLADE_3 + FEATH + 34, null;

reference: OFFSET + CURR_BLADE_3 + NEUTR + 41, #gen ref
	reference, OFFSET + CURR_BLADE_3 + FEATH + 41, 0., -0.0010515667056000, -0.0529370428176000,
	reference, OFFSET + CURR_BLADE_3 + FEATH + 41, eye,
	reference, OFFSET + CURR_BLADE_3 + FEATH + 41, null,
	reference, OFFSET + CURR_BLADE_3 + FEATH + 41, null;

reference: OFFSET + CURR_BLADE_3 + NEUTR + 100 + 1, #gen ref
	reference, OFFSET + CURR_BLADE_3 + FEATH + 1 + 100, 0., -0.0001530821424000, -0.0002961624252000,
	reference, OFFSET + CURR_BLADE_3 + FEATH + 1 + 100, eye, 
	reference, OFFSET + CURR_BLADE_3 + FEATH + 1 + 100, null,
	reference, OFFSET + CURR_BLADE_3 + FEATH + 1 + 100, null;

reference: OFFSET + CURR_BLADE_3 + NEUTR + 100 + 4, #gen ref
	reference, OFFSET + CURR_BLADE_3 + FEATH + 4 + 100, 0., -0.0010715753016000, -0.0020731371288000,
	reference, OFFSET + CURR_BLADE_3 + FEATH + 4 + 100, eye, 
	reference, OFFSET + CURR_BLADE_3 + FEATH + 4 + 100, null,
	reference, OFFSET + CURR_BLADE_3 + FEATH + 4 + 100, null;

reference: OFFSET + CURR_BLADE_3 + NEUTR + 100 + 6, #gen ref
	reference, OFFSET + CURR_BLADE_3 + FEATH + 6 + 100, 0., -0.0094053749916000, -0.0134033212248000,
	reference, OFFSET + CURR_BLADE_3 + FEATH + 6 + 100, eye, 
	reference, OFFSET + CURR_BLADE_3 + FEATH + 6 + 100, null,
	reference, OFFSET + CURR_BLADE_3 + FEATH + 6 + 100, null;

reference: OFFSET + CURR_BLADE_3 + NEUTR + 100 + 13, #gen ref
	reference, OFFSET + CURR_BLADE_3 + FEATH + 13 + 100, 0., -0.0261069016596000, -0.0316746675624000,
	reference, OFFSET + CURR_BLADE_3 + FEATH + 13 + 100, eye, 
	reference, OFFSET + CURR_BLADE_3 + FEATH + 13 + 100, null,
	reference, OFFSET + CURR_BLADE_3 + FEATH + 13 + 100, null;

reference: OFFSET + CURR_BLADE_3 + NEUTR + 100 + 20, #gen ref
	reference, OFFSET + CURR_BLADE_3 + FEATH + 20 + 100, 0., -0.0253986601500000, -0.0417439938804000,
	reference, OFFSET + CURR_BLADE_3 + FEATH + 20 + 100, eye, 
	reference, OFFSET + CURR_BLADE_3 + FEATH + 20 + 100, null,
	reference, OFFSET + CURR_BLADE_3 + FEATH + 20 + 100, null;

reference: OFFSET + CURR_BLADE_3 + NEUTR + 100 + 27, #gen ref
	reference, OFFSET + CURR_BLADE_3 + FEATH + 27 + 100, 0., -0.0145551643872000, -0.0449155966812000,
	reference, OFFSET + CURR_BLADE_3 + FEATH + 27 + 100, eye, 
	reference, OFFSET + CURR_BLADE_3 + FEATH + 27 + 100, null,
	reference, OFFSET + CURR_BLADE_3 + FEATH + 27 + 100, null;

reference: OFFSET + CURR_BLADE_3 + NEUTR + 100 + 34, #gen ref
	reference, OFFSET + CURR_BLADE_3 + FEATH + 34 + 100, 0., -0.0073023074172000, -0.0496884452508000,
	reference, OFFSET + CURR_BLADE_3 + FEATH + 34 + 100, eye, 
	reference, OFFSET + CURR_BLADE_3 + FEATH + 34 + 100, null,
	reference, OFFSET + CURR_BLADE_3 + FEATH + 34 + 100, null;

reference: OFFSET + CURR_BLADE_3 + BODY + 1, #gen ref
	reference, OFFSET + CURR_BLADE_3 + FEATH + 1, 0., 0.0000000000000000, 0.0000000000000000,
	reference, OFFSET + CURR_BLADE_3 + FEATH + 1, 
		1, 1., 	0., 	0.,
		2, 0., 0.9964464447951354, 0.0842287519504776,
	reference, OFFSET + CURR_BLADE_3 + FEATH + 1, null,
	reference, OFFSET + CURR_BLADE_3 + FEATH + 1, null;

reference: OFFSET + CURR_BLADE_3 + BODY + 4, #gen ref
	reference, OFFSET + CURR_BLADE_3 + FEATH + 4, 0., 0.0219014027808000, 0.0106612410600000,
	reference, OFFSET + CURR_BLADE_3 + FEATH + 4, 
		1, 1., 	0., 	0.,
		2, 0., 0.0066549425423218, 0.9999778556246925,
	reference, OFFSET + CURR_BLADE_3 + FEATH + 4, null,
	reference, OFFSET + CURR_BLADE_3 + FEATH + 4, null;

reference: OFFSET + CURR_BLADE_3 + BODY + 6, #gen ref
	reference, OFFSET + CURR_BLADE_3 + FEATH + 6, 0., 0.0209407716312000, 0.0064983512400000,
	reference, OFFSET + CURR_BLADE_3 + FEATH + 6, 
		1, 1., 	0., 	0.,
		2, 0., 0.0008723783073259, 0.9999996194779720,
	reference, OFFSET + CURR_BLADE_3 + FEATH + 6, null,
	reference, OFFSET + CURR_BLADE_3 + FEATH + 6, null;

reference: OFFSET + CURR_BLADE_3 + BODY + 13, #gen ref
	reference, OFFSET + CURR_BLADE_3 + FEATH + 13, 0., -0.0015589727520000, -0.0211055958888000,
	reference, OFFSET + CURR_BLADE_3 + FEATH + 13, 
		1, 1., 	0., 	0.,
		2, 0., -0.0000343943261552, 0.9999999994085151,
	reference, OFFSET + CURR_BLADE_3 + FEATH + 13, null,
	reference, OFFSET + CURR_BLADE_3 + FEATH + 13, null;

reference: OFFSET + CURR_BLADE_3 + BODY + 20, #gen ref
	reference, OFFSET + CURR_BLADE_3 + FEATH + 20, 0., -0.0143119364256000, -0.0414247940616000,
	reference, OFFSET + CURR_BLADE_3 + FEATH + 20, 
		1, 1., 	0., 	0.,
		2, 0., -0.0002317150967593, 0.9999999731540566,
	reference, OFFSET + CURR_BLADE_3 + FEATH + 20, null,
	reference, OFFSET + CURR_BLADE_3 + FEATH + 20, null;

reference: OFFSET + CURR_BLADE_3 + BODY + 27, #gen ref
	reference, OFFSET + CURR_BLADE_3 + FEATH + 27, 0., -0.0020967957048000, -0.0445478053416000,
	reference, OFFSET + CURR_BLADE_3 + FEATH + 27, 
		1, 1., 	0., 	0.,
		2, 0., -0.0012194983058598, 0.9999992564116645,
	reference, OFFSET + CURR_BLADE_3 + FEATH + 27, null,
	reference, OFFSET + CURR_BLADE_3 + FEATH + 27, null;

reference: OFFSET + CURR_BLADE_3 + BODY + 34, #gen ref
	reference, OFFSET + CURR_BLADE_3 + FEATH + 34, 0., 0.0224952760152000, -0.0505499455344000,
	reference, OFFSET + CURR_BLADE_3 + FEATH + 34, 
		1, 1., 	0., 	0.,
		2, 0., 0.0004818301024476, 0.9999998839198695,
	reference, OFFSET + CURR_BLADE_3 + FEATH + 34, null,
	reference, OFFSET + CURR_BLADE_3 + FEATH + 34, null;

reference: OFFSET + CURR_BLADE_3 + BODY + 41, #gen ref
	reference, OFFSET + CURR_BLADE_3 + FEATH + 41, 0., -0.0010515667056000, -0.0529322790984000,
	reference, OFFSET + CURR_BLADE_3 + FEATH + 41, 
		1, 1., 	0., 	0.,
		2, 0., -0.0000660307168840, 0.9999999978199722,
	reference, OFFSET + CURR_BLADE_3 + FEATH + 41, null,
	reference, OFFSET + CURR_BLADE_3 + FEATH + 41, null;

reference: OFFSET + CURR_BLADE_3 + BODY + 100 + 1, #gen ref
	reference, OFFSET + CURR_BLADE_3 + FEATH + 1 + 100, 0., 0.0109507013904000, 0.0053306205300000,
	reference, OFFSET + CURR_BLADE_3 + FEATH + 1 + 100, 
		1, 1., 	0., 	0.,
		2, 0., 0.6791186962082658, 0.7340284711510754,
	reference, OFFSET + CURR_BLADE_3 + FEATH + 1 + 100, null,
	reference, OFFSET + CURR_BLADE_3 + FEATH + 1 + 100, null;

reference: OFFSET + CURR_BLADE_3 + BODY + 100 + 4, #gen ref
	reference, OFFSET + CURR_BLADE_3 + FEATH + 4 + 100, 0., 0.0214210872060000, 0.0085797961500000,
	reference, OFFSET + CURR_BLADE_3 + FEATH + 4 + 100, 
		1, 1., 	0., 	0.,
		2, 0., 0.0037636761563282, 0.9999929173458132,
	reference, OFFSET + CURR_BLADE_3 + FEATH + 4 + 100, null,
	reference, OFFSET + CURR_BLADE_3 + FEATH + 4 + 100, null;

reference: OFFSET + CURR_BLADE_3 + BODY + 100 + 6, #gen ref
	reference, OFFSET + CURR_BLADE_3 + FEATH + 6 + 100, 0., 0.0096908994396000, -0.0073036223244000,
	reference, OFFSET + CURR_BLADE_3 + FEATH + 6 + 100, 
		1, 1., 	0., 	0.,
		2, 0., 0.0004189920336491, 0.9999999122228340,
	reference, OFFSET + CURR_BLADE_3 + FEATH + 6 + 100, null,
	reference, OFFSET + CURR_BLADE_3 + FEATH + 6 + 100, null;

reference: OFFSET + CURR_BLADE_3 + BODY + 100 + 13, #gen ref
	reference, OFFSET + CURR_BLADE_3 + FEATH + 13 + 100, 0., -0.0079354545888000, -0.0312651949752000,
	reference, OFFSET + CURR_BLADE_3 + FEATH + 13 + 100, 
		1, 1., 	0., 	0.,
		2, 0., -0.0001330547121049, 0.9999999911482218,
	reference, OFFSET + CURR_BLADE_3 + FEATH + 13 + 100, null,
	reference, OFFSET + CURR_BLADE_3 + FEATH + 13 + 100, null;

reference: OFFSET + CURR_BLADE_3 + BODY + 100 + 20, #gen ref
	reference, OFFSET + CURR_BLADE_3 + FEATH + 20 + 100, 0., -0.0082043660652000, -0.0429862997016000,
	reference, OFFSET + CURR_BLADE_3 + FEATH + 20 + 100, 
		1, 1., 	0., 	0.,
		2, 0., -0.0007256067898077, 0.9999997367473586,
	reference, OFFSET + CURR_BLADE_3 + FEATH + 20 + 100, null,
	reference, OFFSET + CURR_BLADE_3 + FEATH + 20 + 100, null;

reference: OFFSET + CURR_BLADE_3 + BODY + 100 + 27, #gen ref
	reference, OFFSET + CURR_BLADE_3 + FEATH + 27 + 100, 0., 0.0101992401552000, -0.0475488754380000,
	reference, OFFSET + CURR_BLADE_3 + FEATH + 27 + 100, 
		1, 1., 	0., 	0.,
		2, 0., -0.0003688342351560, 0.9999999319806512,
	reference, OFFSET + CURR_BLADE_3 + FEATH + 27 + 100, null,
	reference, OFFSET + CURR_BLADE_3 + FEATH + 27 + 100, null;

reference: OFFSET + CURR_BLADE_3 + BODY + 100 + 34, #gen ref
	reference, OFFSET + CURR_BLADE_3 + FEATH + 34 + 100, 0., 0.0107218546548000, -0.0517411123164000,
	reference, OFFSET + CURR_BLADE_3 + FEATH + 34 + 100, 
		1, 1., 	0., 	0.,
		2, 0., 0.0002078997005820, 0.9999999783888570,
	reference, OFFSET + CURR_BLADE_3 + FEATH + 34 + 100, null,
	reference, OFFSET + CURR_BLADE_3 + FEATH + 34 + 100, null;

