\relax 
\providecommand\hyper@newdestlabel[2]{}
\providecommand\HyperFirstAtBeginDocument{\AtBeginDocument}
\HyperFirstAtBeginDocument{\ifx\hyper@anchor\@undefined
\global\let\oldcontentsline\contentsline
\gdef\contentsline#1#2#3#4{\oldcontentsline{#1}{#2}{#3}}
\global\let\oldnewlabel\newlabel
\gdef\newlabel#1#2{\newlabelxx{#1}#2}
\gdef\newlabelxx#1#2#3#4#5#6{\oldnewlabel{#1}{{#2}{#3}}}
\AtEndDocument{\ifx\hyper@anchor\@undefined
\let\contentsline\oldcontentsline
\let\newlabel\oldnewlabel
\fi}
\fi}
\global\let\hyper@last\relax 
\gdef\HyperFirstAtBeginDocument#1{#1}
\providecommand\HyField@AuxAddToFields[1]{}
\providecommand\HyField@AuxAddToCoFields[2]{}
\@writefile{toc}{\contentsline {chapter}{\numberline {1}Introduction}{2}{chapter.1}\protected@file@percent }
\@writefile{lof}{\addvspace {10\p@ }}
\@writefile{lot}{\addvspace {10\p@ }}
\newlabel{sec:intro}{{1}{2}{Introduction}{chapter.1}{}}
\@writefile{toc}{\contentsline {section}{\numberline {1.1}\texttt  {dust}}{2}{section.1.1}\protected@file@percent }
\newlabel{sec:intro:dust}{{1.1}{2}{\dust }{section.1.1}{}}
\@writefile{toc}{\contentsline {section}{\numberline {1.2}MBDyn}{2}{section.1.2}\protected@file@percent }
\newlabel{sec:intro:mbdyn}{{1.2}{2}{\mbdyn }{section.1.2}{}}
\@writefile{toc}{\contentsline {section}{\numberline {1.3}preCICE}{3}{section.1.3}\protected@file@percent }
\newlabel{sec:intro:precice}{{1.3}{3}{\precice }{section.1.3}{}}
\@writefile{toc}{\contentsline {chapter}{\numberline {2}\texttt  {dust}{}-MBDyn{} coupling}{4}{chapter.2}\protected@file@percent }
\@writefile{lof}{\addvspace {10\p@ }}
\@writefile{lot}{\addvspace {10\p@ }}
\newlabel{sec:coupling}{{2}{4}{\dust {}-\mbdyn {} coupling}{chapter.2}{}}
\@writefile{toc}{\contentsline {section}{\numberline {2.1}Coupling implementation}{4}{section.2.1}\protected@file@percent }
\@writefile{toc}{\contentsline {section}{\numberline {2.2}Coupling methods}{4}{section.2.2}\protected@file@percent }
\@writefile{lof}{\contentsline {figure}{\numberline {2.1}{\ignorespaces }}{5}{figure.2.1}\protected@file@percent }
\newlabel{fig:communication}{{2.1}{5}{}{figure.2.1}{}}
\@writefile{toc}{\contentsline {chapter}{\numberline {3}MBDyn{} adapter for preCICE{}}{6}{chapter.3}\protected@file@percent }
\@writefile{lof}{\addvspace {10\p@ }}
\@writefile{lot}{\addvspace {10\p@ }}
\newlabel{sec:mbdyn}{{3}{6}{\mbdyn {} adapter for \precice {}}{chapter.3}{}}
\@writefile{toc}{\contentsline {section}{\numberline {3.1}Case-dependent Python{} script}{6}{section.3.1}\protected@file@percent }
\@writefile{toc}{\contentsline {section}{\numberline {3.2}\texttt  {mbdynInterface.py}}{7}{section.3.2}\protected@file@percent }
\@writefile{toc}{\contentsline {section}{\numberline {3.3}\texttt  {mbdynAdapter.py}}{8}{section.3.3}\protected@file@percent }
\@writefile{toc}{\contentsline {chapter}{\numberline {4}\texttt  {dust}{} updates}{10}{chapter.4}\protected@file@percent }
\@writefile{lof}{\addvspace {10\p@ }}
\@writefile{lot}{\addvspace {10\p@ }}
\newlabel{sec:dust}{{4}{10}{\dust {} updates}{chapter.4}{}}
\@writefile{toc}{\contentsline {section}{\numberline {4.1}Coupling through preCICE{}}{10}{section.4.1}\protected@file@percent }
\@writefile{toc}{\contentsline {subsection}{\numberline {4.1.1}Software update in \texttt  {dust} solver}{10}{subsection.4.1.1}\protected@file@percent }
\newlabel{sec:dust:time}{{4.1.1}{10}{Software update in \texttt {dust} solver}{subsection.4.1.1}{}}
\@writefile{toc}{\contentsline {subsection}{\numberline {4.1.2}Coupling with structural elements}{13}{subsection.4.1.2}\protected@file@percent }
\newlabel{sec:dust:coupling}{{4.1.2}{13}{Coupling with structural elements}{subsection.4.1.2}{}}
\@writefile{toc}{\contentsline {subsubsection}{\texttt  {ll} coupling}{13}{section*.2}\protected@file@percent }
\@writefile{toc}{\contentsline {subsubsection}{\texttt  {rigid} coupling}{14}{section*.3}\protected@file@percent }
\@writefile{toc}{\contentsline {paragraph}{Kinematic variables.}{14}{section*.4}\protected@file@percent }
\newlabel{eqn:rigid:pos}{{4.3}{14}{Kinematic variables}{equation.4.1.3}{}}
\@writefile{toc}{\contentsline {paragraph}{Force and moment.}{15}{section*.5}\protected@file@percent }
\@writefile{toc}{\contentsline {paragraph}{Consistency of kinematic and dynamic fields.}{15}{section*.6}\protected@file@percent }
\@writefile{toc}{\contentsline {subsubsection}{\texttt  {rbf} coupling}{15}{section*.7}\protected@file@percent }
\@writefile{toc}{\contentsline {paragraph}{Kinematic variables.}{16}{section*.8}\protected@file@percent }
\@writefile{toc}{\contentsline {paragraph}{Forces and moments.}{16}{section*.9}\protected@file@percent }
\@writefile{toc}{\contentsline {section}{\numberline {4.2}Hinged control surface}{17}{section.4.2}\protected@file@percent }
\@writefile{toc}{\contentsline {subsection}{\numberline {4.2.1}Two-dimensional example}{17}{subsection.4.2.1}\protected@file@percent }
\@writefile{toc}{\contentsline {subsection}{\numberline {4.2.2}Three-dimensional problems}{18}{subsection.4.2.2}\protected@file@percent }
\@writefile{toc}{\contentsline {subsubsection}{Hinge input}{19}{section*.10}\protected@file@percent }
\@writefile{toc}{\contentsline {subsubsection}{Hinge connectivity}{19}{section*.11}\protected@file@percent }
\@writefile{toc}{\contentsline {subsubsection}{Hinge motion}{20}{section*.12}\protected@file@percent }
\@writefile{toc}{\contentsline {paragraph}{Hinge nodes: position and orientation.}{20}{section*.13}\protected@file@percent }
\@writefile{toc}{\contentsline {paragraph}{Hinge nodes: rotation.}{20}{section*.14}\protected@file@percent }
\@writefile{toc}{\contentsline {paragraph}{Surface position due to hinge deflection.}{20}{section*.15}\protected@file@percent }
\newlabel{eqn:hinge_pos}{{4.19}{20}{Surface position due to hinge deflection}{equation.4.2.19}{}}
\@writefile{toc}{\contentsline {paragraph}{Surface velocity due to hinge deflection.}{21}{section*.16}\protected@file@percent }
