\contentsline {chapter}{\numberline {1}Introduction}{2}{chapter.1}%
\contentsline {chapter}{\numberline {2}Tutorial n.\nobreakspace {}1}{3}{chapter.2}%
\contentsline {chapter}{\numberline {3}Tutorial n.\nobreakspace {}2}{4}{chapter.3}%
