reference: OFFSET + CURR_YOKE_1 + BODY + 1, #gen ref
	reference, OFFSET + BLADE_1_MAIN, 0.0000000000000000, 0.0000000000000000, 0.0000000000000000,
	reference, OFFSET + BLADE_1_MAIN, 
		1, 1., 	0., 	0.,
		2, 0., 1.0000000000000000, 0.0000000000000000,
	reference, OFFSET + BLADE_1_MAIN, null,
	reference, OFFSET + BLADE_1_MAIN, null;

reference: OFFSET + CURR_YOKE_1 + BODY + 2, #gen ref
	reference, OFFSET + BLADE_1_MAIN, 0.1905000039624000, 0.0000000000000000, 0.0000000000000000,
	reference, OFFSET + BLADE_1_MAIN, 
		1, 1., 	0., 	0.,
		2, 0., 1.0000000000000000, 0.0000000000000000,
	reference, OFFSET + BLADE_1_MAIN, null,
	reference, OFFSET + BLADE_1_MAIN, null;

reference: OFFSET + CURR_YOKE_1 + BODY + 3, #gen ref
	reference, OFFSET + BLADE_1_MAIN, 0.1981200039624000, 0.0000000000000000, 0.0000000000000000,
	reference, OFFSET + BLADE_1_MAIN, 
		1, 1., 	0., 	0.,
		2, 0., 1.0000000000000000, 0.0000000000000000,
	reference, OFFSET + BLADE_1_MAIN, null,
	reference, OFFSET + BLADE_1_MAIN, null;

reference: OFFSET + CURR_YOKE_1 + BODY + 4, #gen ref
	reference, OFFSET + BLADE_1_MAIN, 0.3810000000000000, 0.0000000000000000, 0.0000000000000000,
	reference, OFFSET + BLADE_1_MAIN, 
		1, 1., 	0., 	0.,
		2, 0., 1.0000000000000000, 0.0000000000000000,
	reference, OFFSET + BLADE_1_MAIN, null,
	reference, OFFSET + BLADE_1_MAIN, null;

reference: OFFSET + CURR_YOKE_1 + BODY + 5, #gen ref
	reference, OFFSET + BLADE_1_MAIN, 0.3886200000000000, 0.0000000000000000, 0.0000000000000000,
	reference, OFFSET + BLADE_1_MAIN, 
		1, 1., 	0., 	0.,
		2, 0., 1.0000000000000000, 0.0000000000000000,
	reference, OFFSET + BLADE_1_MAIN, null,
	reference, OFFSET + BLADE_1_MAIN, null;

reference: OFFSET + CURR_YOKE_1 + BODY + 6, #gen ref
	reference, OFFSET + BLADE_1_MAIN, 0.4572000000000001, 0.0000000000000000, 0.0000000000000000,
	reference, OFFSET + BLADE_1_MAIN, 
		1, 1., 	0., 	0.,
		2, 0., 1.0000000000000000, 0.0000000000000000,
	reference, OFFSET + BLADE_1_MAIN, null,
	reference, OFFSET + BLADE_1_MAIN, null;

reference: OFFSET + CURR_YOKE_1 + BODY + 7, #gen ref
	reference, OFFSET + BLADE_1_MAIN, 0.4648200000000000, 0.0000000000000000, 0.0000000000000000,
	reference, OFFSET + BLADE_1_MAIN, 
		1, 1., 	0., 	0.,
		2, 0., 1.0000000000000000, 0.0000000000000000,
	reference, OFFSET + BLADE_1_MAIN, null,
	reference, OFFSET + BLADE_1_MAIN, null;

reference: OFFSET + CURR_YOKE_1 + BODY + 8, #gen ref
	reference, OFFSET + BLADE_1_MAIN, 0.4953000000000000, 0.0000000000000000, 0.0000000000000000,
	reference, OFFSET + BLADE_1_MAIN, 
		1, 1., 	0., 	0.,
		2, 0., 1.0000000000000000, 0.0000000000000000,
	reference, OFFSET + BLADE_1_MAIN, null,
	reference, OFFSET + BLADE_1_MAIN, null;

reference: OFFSET + CURR_YOKE_1 + BODY + 9, #gen ref
	reference, OFFSET + BLADE_1_MAIN, 0.5029200000000000, 0.0000000000000000, 0.0000000000000000,
	reference, OFFSET + BLADE_1_MAIN, 
		1, 1., 	0., 	0.,
		2, 0., 1.0000000000000000, 0.0000000000000000,
	reference, OFFSET + BLADE_1_MAIN, null,
	reference, OFFSET + BLADE_1_MAIN, null;

reference: OFFSET + CURR_YOKE_1 + BODY + 10, #gen ref
	reference, OFFSET + BLADE_1_MAIN, 0.6096000000000000, 0.0000000000000000, 0.0000000000000000,
	reference, OFFSET + BLADE_1_MAIN, 
		1, 1., 	0., 	0.,
		2, 0., 1.0000000000000000, 0.0000000000000000,
	reference, OFFSET + BLADE_1_MAIN, null,
	reference, OFFSET + BLADE_1_MAIN, null;

reference: OFFSET + CURR_YOKE_1 + AERO, #gen ref
	reference, OFFSET + BLADE_1_MAIN, 0.3048000000000000, 0.0000000000000000, 0.0000000000000000,
	reference, OFFSET + BLADE_1_MAIN, 
		1, 1., 	0., 	0.,
		2, 0., 1.0000000000000000, 0.0000000000000000,
	reference, OFFSET + BLADE_1_MAIN, null,
	reference, OFFSET + BLADE_1_MAIN, null;

