3 0 2
0.2 0.8 1
0.18 0.132 0.114
COMMENT#1
750000 0.200
Propfoil1                     096409640964
        0.00    0.10    0.20    0.30    0.40    0.50    0.60    0.70    1.00    
-180.0  0.000   0.000   0.000   0.000   0.000   0.000   0.000   0.000   0.000   
-165.0  0.500   0.500   0.500   0.500   0.500   0.500   0.500   0.500   0.500   
-150.0  0.866   0.866   0.866   0.866   0.866   0.866   0.866   0.866   0.866   
-135.0  1.000   1.000   1.000   1.000   1.000   1.000   1.000   1.000   1.000   
-120.0  0.866   0.866   0.866   0.866   0.866   0.866   0.866   0.866   0.866   
-105.0  0.500   0.500   0.500   0.500   0.500   0.500   0.500   0.500   0.500   
-90.0  -0.000   -0.000   -0.000   -0.000   -0.000   -0.000   -0.000   -0.000   -0.000   
-75.0  -0.500   -0.500   -0.500   -0.500   -0.500   -0.500   -0.500   -0.500   -0.500   
-60.0  -0.866   -0.866   -0.866   -0.866   -0.866   -0.866   -0.866   -0.866   -0.866   
-45.0  -1.000   -1.000   -1.000   -1.000   -1.000   -1.000   -1.000   -1.000   -1.000   
-30.0  -0.866   -0.866   -0.866   -0.866   -0.866   -0.866   -0.866   -0.866   -0.866   
-25.0  -0.766   -0.766   -0.766   -0.766   -0.766   -0.766   -0.766   -0.766   -0.766   
-20.0  -0.768   -0.754   -0.723   -0.650   -0.526   -0.643   -0.643   -0.643   -0.643   
-18.0  -0.882   -0.869   -0.828   -0.720   -0.501   -0.588   -0.588   -0.569   -0.569   
-16.0  -0.990   -0.987   -0.948   -0.834   -0.616   -0.494   -0.460   -0.451   -0.451   
-14.0  -1.008   -1.001   -0.963   -0.892   -0.691   -0.438   -0.366   -0.303   -0.303   
-12.0  -0.946   -0.934   -0.914   -0.888   -0.760   -0.481   -0.307   -0.195   -0.195   
-10.0  -0.801   -0.803   -0.804   -0.808   -0.760   -0.577   -0.329   -0.142   -0.142   
-8.0  -0.612   -0.615   -0.623   -0.636   -0.654   -0.594   -0.464   -0.149   -0.149   
-7.0  -0.507   -0.509   -0.517   -0.530   -0.550   -0.564   -0.510   -0.161   -0.161   
-6.0  -0.400   -0.402   -0.408   -0.420   -0.438   -0.464   -0.460   -0.192   -0.192   
-5.0  -0.291   -0.293   -0.298   -0.307   -0.322   -0.345   -0.371   -0.260   -0.260   
-4.0  -0.182   -0.183   -0.186   -0.193   -0.204   -0.222   -0.250   -0.272   -0.272   
-3.0  -0.071   -0.072   -0.074   -0.078   -0.085   -0.097   -0.117   -0.163   -0.163   
-2.0  0.039   0.039   0.038   0.037   0.034   0.028   0.017   -0.013   -0.013   
-1.0  0.150   0.150   0.151   0.152   0.153   0.153   0.150   0.145   0.145   
0.0  0.260   0.261   0.263   0.266   0.271   0.277   0.282   0.301   0.301   
1.0  0.370   0.371   0.374   0.380   0.388   0.399   0.409   0.373   0.373   
2.0  0.478   0.480   0.484   0.492   0.504   0.518   0.525   0.382   0.382   
3.0  0.586   0.588   0.593   0.603   0.616   0.631   0.633   0.383   0.383   
4.0  0.691   0.693   0.700   0.711   0.725   0.733   0.740   0.391   0.391   
5.0  0.794   0.797   0.804   0.815   0.825   0.830   0.839   0.405   0.405   
6.0  0.894   0.897   0.903   0.912   0.917   0.922   0.859   0.428   0.428   
7.0  0.990   0.992   0.996   1.000   1.004   1.005   0.823   0.455   0.455   
8.0  1.076   1.077   1.079   1.083   1.086   1.078   0.783   0.484   0.484   
9.0  1.156   1.157   1.159   1.161   1.159   1.127   0.760   0.515   0.515   
10.0  1.232   1.233   1.233   1.232   1.224   1.157   0.750   0.546   0.546   
11.0  1.302   1.302   1.300   1.295   1.278   1.169   0.748   0.577   0.577   
12.0  1.365   1.364   1.360   1.349   1.322   1.157   0.751   0.608   0.608   
13.0  1.421   1.419   1.411   1.393   1.352   1.128   0.757   0.639   0.639   
14.0  1.468   1.465   1.453   1.427   1.366   1.093   0.763   0.667   0.667   
15.0  1.506   1.501   1.485   1.448   1.361   1.061   0.763   0.689   0.689   
16.0  1.372   1.362   1.343   1.454   1.335   1.026   0.769   0.706   0.706   
17.0  1.236   1.221   1.202   1.442   1.292   0.989   0.781   0.728   0.728   
18.0  1.098   1.081   1.065   1.412   1.244   0.969   0.794   0.750   0.750   
19.0  0.958   0.943   0.931   1.239   1.201   0.954   0.804   0.769   0.769   
20.0  0.815   0.806   0.799   1.090   1.166   0.939   0.811   0.788   0.788   
22.0  0.695   0.695   0.695   0.868   1.119   0.837   0.809   0.817   0.817   
24.0  0.743   0.743   0.743   0.743   0.968   0.788   0.799   0.813   0.813   
26.0  0.788   0.788   0.788   0.788   0.873   0.788   0.803   0.818   0.818   
28.0  0.829   0.829   0.829   0.829   0.829   0.829   0.829   0.829   0.829   
30.0  0.866   0.866   0.866   0.866   0.866   0.866   0.866   0.866   0.866   
35.0  0.940   0.940   0.940   0.940   0.940   0.940   0.940   0.940   0.940   
40.0  0.985   0.985   0.985   0.985   0.985   0.985   0.985   0.985   0.985   
50.0  0.985   0.985   0.985   0.985   0.985   0.985   0.985   0.985   0.985   
60.0  0.866   0.866   0.866   0.866   0.866   0.866   0.866   0.866   0.866   
75.0  0.500   0.500   0.500   0.500   0.500   0.500   0.500   0.500   0.500   
90.0  0.000   0.000   0.000   0.000   0.000   0.000   0.000   0.000   0.000   
105.0  -0.500   -0.500   -0.500   -0.500   -0.500   -0.500   -0.500   -0.500   -0.500   
120.0  -0.866   -0.866   -0.866   -0.866   -0.866   -0.866   -0.866   -0.866   -0.866   
135.0  -1.000   -1.000   -1.000   -1.000   -1.000   -1.000   -1.000   -1.000   -1.000   
150.0  -0.866   -0.866   -0.866   -0.866   -0.866   -0.866   -0.866   -0.866   -0.866   
165.0  -0.500   -0.500   -0.500   -0.500   -0.500   -0.500   -0.500   -0.500   -0.500   
180.0  -0.000   -0.000   -0.000   -0.000   -0.000   -0.000   -0.000   -0.000   -0.000   
        0.00    0.10    0.20    0.30    0.40    0.50    0.60    0.70    1.00    
-180.0  0.0200  0.0200  0.0200  0.0200  0.0200  0.0200  0.0200  0.0200  0.0200  
-165.0  0.1406  0.1406  0.1406  0.1406  0.1406  0.1406  0.1406  0.1406  0.1406  
-150.0  0.4700  0.4700  0.4700  0.4700  0.4700  0.4700  0.4700  0.4700  0.4700  
-135.0  0.9200  0.9200  0.9200  0.9200  0.9200  0.9200  0.9200  0.9200  0.9200  
-120.0  1.3700  1.3700  1.3700  1.3700  1.3700  1.3700  1.3700  1.3700  1.3700  
-105.0  1.6994  1.6994  1.6994  1.6994  1.6994  1.6994  1.6994  1.6994  1.6994  
-90.0  1.8200  1.8200  1.8200  1.8200  1.8200  1.8200  1.8200  1.8200  1.8200  
-75.0  1.6994  1.6994  1.6994  1.6994  1.6994  1.6994  1.6994  1.6994  1.6994  
-60.0  1.3700  1.3700  1.3700  1.3700  1.3700  1.3700  1.3700  1.3700  1.3700  
-45.0  0.9200  0.9200  0.9200  0.9200  0.9200  0.9200  0.9200  0.9200  0.9200  
-30.0  0.4700  0.4700  0.4700  0.4700  0.4700  0.4700  0.4700  0.4700  0.4700  
-25.0  0.3415  0.3415  0.3415  0.3415  0.3415  0.3415  0.3415  0.3415  0.3415  
-20.0  0.1745  0.1777  0.1859  0.2046  0.2460  0.2306  0.2306  0.2306  0.2306  
-18.0  0.1046  0.1076  0.1171  0.1406  0.1991  0.1919  0.1919  0.2008  0.2008  
-16.0  0.0565  0.0577  0.0644  0.0835  0.1245  0.1554  0.1659  0.1849  0.1849  
-14.0  0.0355  0.0365  0.0409  0.0502  0.0769  0.1192  0.1433  0.1718  0.1718  
-12.0  0.0257  0.0265  0.0284  0.0317  0.0443  0.0809  0.1203  0.1450  0.1450  
-10.0  0.0209  0.0211  0.0219  0.0231  0.0270  0.0438  0.0853  0.1118  0.1118  
-8.0  0.0177  0.0178  0.0180  0.0185  0.0196  0.0250  0.0465  0.0808  0.0808  
-7.0  0.0170  0.0170  0.0172  0.0175  0.0181  0.0202  0.0348  0.0670  0.0670  
-6.0  0.0164  0.0165  0.0166  0.0168  0.0172  0.0181  0.0249  0.0541  0.0541  
-5.0  0.0160  0.0160  0.0161  0.0163  0.0166  0.0172  0.0195  0.0428  0.0428  
-4.0  0.0157  0.0158  0.0158  0.0160  0.0162  0.0167  0.0176  0.0316  0.0316  
-3.0  0.0156  0.0156  0.0156  0.0158  0.0160  0.0164  0.0171  0.0217  0.0217  
-2.0  0.0155  0.0155  0.0156  0.0157  0.0159  0.0163  0.0169  0.0185  0.0185  
-1.0  0.0156  0.0156  0.0156  0.0158  0.0160  0.0163  0.0170  0.0187  0.0187  
0.0  0.0157  0.0157  0.0158  0.0159  0.0162  0.0165  0.0173  0.0229  0.0229  
1.0  0.0159  0.0160  0.0160  0.0162  0.0165  0.0169  0.0179  0.0309  0.0309  
2.0  0.0163  0.0163  0.0164  0.0166  0.0169  0.0175  0.0188  0.0405  0.0405  
3.0  0.0167  0.0167  0.0169  0.0171  0.0175  0.0183  0.0202  0.0520  0.0520  
4.0  0.0172  0.0173  0.0174  0.0177  0.0183  0.0193  0.0237  0.0634  0.0634  
5.0  0.0179  0.0179  0.0181  0.0185  0.0192  0.0207  0.0310  0.0753  0.0753  
6.0  0.0187  0.0187  0.0190  0.0194  0.0204  0.0225  0.0413  0.0881  0.0881  
7.0  0.0196  0.0197  0.0200  0.0206  0.0219  0.0249  0.0542  0.1018  0.1018  
8.0  0.0206  0.0207  0.0212  0.0220  0.0239  0.0283  0.0704  0.1165  0.1165  
9.0  0.0219  0.0221  0.0227  0.0239  0.0265  0.0339  0.0881  0.1321  0.1321  
10.0  0.0235  0.0237  0.0245  0.0262  0.0299  0.0418  0.1054  0.1488  0.1488  
11.0  0.0255  0.0258  0.0269  0.0293  0.0345  0.0524  0.1230  0.1665  0.1665  
12.0  0.0280  0.0285  0.0300  0.0333  0.0404  0.0666  0.1413  0.1853  0.1853  
13.0  0.0313  0.0318  0.0339  0.0384  0.0480  0.0845  0.1603  0.2051  0.2051  
14.0  0.0354  0.0362  0.0390  0.0450  0.0581  0.1053  0.1805  0.2259  0.2259  
15.0  0.0406  0.0417  0.0454  0.0534  0.0716  0.1278  0.2031  0.2479  0.2479  
16.0  0.0649  0.0666  0.0706  0.0644  0.0895  0.1524  0.2260  0.2710  0.2710  
17.0  0.0929  0.0952  0.0992  0.0788  0.1117  0.1796  0.2486  0.2937  0.2937  
18.0  0.1251  0.1276  0.1311  0.0976  0.1369  0.2057  0.2709  0.3157  0.3157  
19.0  0.1619  0.1641  0.1667  0.1358  0.1631  0.2313  0.2936  0.3371  0.3371  
20.0  0.2038  0.2051  0.2066  0.1732  0.1897  0.2586  0.3186  0.3575  0.3575  
22.0  0.2726  0.2726  0.2726  0.2457  0.2412  0.2995  0.3465  0.3972  0.3972  
24.0  0.3178  0.3178  0.3178  0.3178  0.3012  0.3343  0.3603  0.3943  0.3943  
26.0  0.3659  0.3659  0.3659  0.3659  0.3587  0.3659  0.3790  0.3999  0.3999  
28.0  0.4167  0.4167  0.4167  0.4167  0.4167  0.4167  0.4167  0.4167  0.4167  
30.0  0.4700  0.4700  0.4700  0.4700  0.4700  0.4700  0.4700  0.4700  0.4700  
35.0  0.6122  0.6122  0.6122  0.6122  0.6122  0.6122  0.6122  0.6122  0.6122  
40.0  0.7637  0.7637  0.7637  0.7637  0.7637  0.7637  0.7637  0.7637  0.7637  
50.0  1.0763  1.0763  1.0763  1.0763  1.0763  1.0763  1.0763  1.0763  1.0763  
60.0  1.3700  1.3700  1.3700  1.3700  1.3700  1.3700  1.3700  1.3700  1.3700  
75.0  1.6994  1.6994  1.6994  1.6994  1.6994  1.6994  1.6994  1.6994  1.6994  
90.0  1.8200  1.8200  1.8200  1.8200  1.8200  1.8200  1.8200  1.8200  1.8200  
105.0  1.6994  1.6994  1.6994  1.6994  1.6994  1.6994  1.6994  1.6994  1.6994  
120.0  1.3700  1.3700  1.3700  1.3700  1.3700  1.3700  1.3700  1.3700  1.3700  
135.0  0.9200  0.9200  0.9200  0.9200  0.9200  0.9200  0.9200  0.9200  0.9200  
150.0  0.4700  0.4700  0.4700  0.4700  0.4700  0.4700  0.4700  0.4700  0.4700  
165.0  0.1406  0.1406  0.1406  0.1406  0.1406  0.1406  0.1406  0.1406  0.1406  
180.0  0.0200  0.0200  0.0200  0.0200  0.0200  0.0200  0.0200  0.0200  0.0200  
        0.00    0.10    0.20    0.30    0.40    0.50    0.60    0.70    1.00    
-180.0  0.0000  0.0000  0.0000  0.0000  0.0000  0.0000  0.0000  0.0000  0.0000  
-165.0  0.1035  0.1035  0.1035  0.1035  0.1035  0.1035  0.1035  0.1035  0.1035  
-150.0  0.2000  0.2000  0.2000  0.2000  0.2000  0.2000  0.2000  0.2000  0.2000  
-135.0  0.2828  0.2828  0.2828  0.2828  0.2828  0.2828  0.2828  0.2828  0.2828  
-120.0  0.3464  0.3464  0.3464  0.3464  0.3464  0.3464  0.3464  0.3464  0.3464  
-105.0  0.3864  0.3864  0.3864  0.3864  0.3864  0.3864  0.3864  0.3864  0.3864  
-90.0  0.4000  0.4000  0.4000  0.4000  0.4000  0.4000  0.4000  0.4000  0.4000  
-75.0  0.3864  0.3864  0.3864  0.3864  0.3864  0.3864  0.3864  0.3864  0.3864  
-60.0  0.3464  0.3464  0.3464  0.3464  0.3464  0.3464  0.3464  0.3464  0.3464  
-45.0  0.2828  0.2828  0.2828  0.2828  0.2828  0.2828  0.2828  0.2828  0.2828  
-30.0  0.2000  0.2000  0.2000  0.2000  0.2000  0.2000  0.2000  0.2000  0.2000  
-25.0  0.1690  0.1690  0.1690  0.1690  0.1690  0.1690  0.1690  0.1690  0.1690  
-20.0  0.0477  0.0439  0.0478  0.0547  0.0647  0.1368  0.1368  0.1368  0.1368  
-18.0  -0.0271  -0.0293  -0.0262  -0.0190  -0.0022  0.1236  0.1236  0.0946  0.0946  
-16.0  -0.0703  -0.0705  -0.0705  -0.0669  -0.0545  0.0830  0.0567  0.0254  0.0254  
-14.0  -0.0716  -0.0725  -0.0752  -0.0784  -0.0750  0.0141  -0.0087  -0.0409  -0.0409  
-12.0  -0.0643  -0.0664  -0.0707  -0.0770  -0.0854  -0.0557  -0.0725  -0.0809  -0.0809  
-10.0  -0.0575  -0.0582  -0.0610  -0.0662  -0.0793  -0.0950  -0.0855  -0.0926  -0.0926  
-8.0  -0.0547  -0.0552  -0.0567  -0.0596  -0.0653  -0.0837  -0.1034  -0.1021  -0.1021  
-7.0  -0.0544  -0.0547  -0.0560  -0.0583  -0.0625  -0.0723  -0.0958  -0.1034  -0.1034  
-6.0  -0.0542  -0.0546  -0.0556  -0.0575  -0.0608  -0.0670  -0.0858  -0.1019  -0.1019  
-5.0  -0.0542  -0.0545  -0.0554  -0.0570  -0.0596  -0.0641  -0.0752  -0.0930  -0.0930  
-4.0  -0.0543  -0.0546  -0.0553  -0.0566  -0.0588  -0.0622  -0.0687  -0.0818  -0.0818  
-3.0  -0.0545  -0.0547  -0.0553  -0.0565  -0.0582  -0.0608  -0.0651  -0.0753  -0.0753  
-2.0  -0.0547  -0.0549  -0.0554  -0.0563  -0.0577  -0.0597  -0.0623  -0.0671  -0.0671  
-1.0  -0.0548  -0.0550  -0.0554  -0.0562  -0.0573  -0.0586  -0.0599  -0.0609  -0.0609  
0.0  -0.0550  -0.0551  -0.0554  -0.0560  -0.0568  -0.0575  -0.0572  -0.0587  -0.0587  
1.0  -0.0550  -0.0551  -0.0553  -0.0557  -0.0561  -0.0559  -0.0537  -0.0493  -0.0493  
2.0  -0.0549  -0.0549  -0.0551  -0.0552  -0.0550  -0.0538  -0.0480  -0.0376  -0.0376  
3.0  -0.0546  -0.0546  -0.0546  -0.0544  -0.0535  -0.0508  -0.0407  -0.0308  -0.0308  
4.0  -0.0541  -0.0541  -0.0538  -0.0532  -0.0514  -0.0456  -0.0336  -0.0260  -0.0260  
5.0  -0.0533  -0.0532  -0.0527  -0.0514  -0.0478  -0.0400  -0.0277  -0.0237  -0.0237  
6.0  -0.0521  -0.0519  -0.0509  -0.0485  -0.0429  -0.0342  -0.0188  -0.0235  -0.0235  
7.0  -0.0503  -0.0499  -0.0480  -0.0441  -0.0380  -0.0279  -0.0129  -0.0248  -0.0248  
8.0  -0.0470  -0.0462  -0.0439  -0.0397  -0.0329  -0.0213  -0.0134  -0.0270  -0.0270  
9.0  -0.0431  -0.0423  -0.0398  -0.0352  -0.0276  -0.0144  -0.0166  -0.0303  -0.0303  
10.0  -0.0392  -0.0383  -0.0356  -0.0305  -0.0224  -0.0081  -0.0201  -0.0342  -0.0342  
11.0  -0.0352  -0.0343  -0.0312  -0.0259  -0.0177  -0.0035  -0.0241  -0.0385  -0.0385  
12.0  -0.0311  -0.0301  -0.0270  -0.0216  -0.0136  -0.0023  -0.0284  -0.0433  -0.0433  
13.0  -0.0273  -0.0263  -0.0232  -0.0179  -0.0105  -0.0053  -0.0332  -0.0483  -0.0483  
14.0  -0.0238  -0.0228  -0.0199  -0.0150  -0.0088  -0.0110  -0.0386  -0.0536  -0.0536  
15.0  -0.0209  -0.0200  -0.0172  -0.0130  -0.0092  -0.0184  -0.0447  -0.0590  -0.0590  
16.0  -0.0338  -0.0331  -0.0312  -0.0125  -0.0122  -0.0268  -0.0507  -0.0650  -0.0650  
17.0  -0.0497  -0.0492  -0.0481  -0.0140  -0.0180  -0.0356  -0.0562  -0.0702  -0.0702  
18.0  -0.0687  -0.0683  -0.0678  -0.0180  -0.0256  -0.0437  -0.0613  -0.0753  -0.0753  
19.0  -0.0906  -0.0904  -0.0903  -0.0417  -0.0332  -0.0509  -0.0662  -0.0801  -0.0801  
20.0  -0.1155  -0.1154  -0.1155  -0.0658  -0.0413  -0.0576  -0.0715  -0.0846  -0.0846  
22.0  -0.1498  -0.1498  -0.1498  -0.1142  -0.0556  -0.0985  -0.0922  -0.0944  -0.0944  
24.0  -0.1627  -0.1627  -0.1627  -0.1627  -0.0998  -0.1378  -0.1261  -0.1235  -0.1235  
26.0  -0.1753  -0.1753  -0.1753  -0.1753  -0.1439  -0.1753  -0.1625  -0.1547  -0.1547  
28.0  -0.1878  -0.1878  -0.1878  -0.1878  -0.1878  -0.1878  -0.1878  -0.1878  -0.1878  
30.0  -0.2000  -0.2000  -0.2000  -0.2000  -0.2000  -0.2000  -0.2000  -0.2000  -0.2000  
35.0  -0.2294  -0.2294  -0.2294  -0.2294  -0.2294  -0.2294  -0.2294  -0.2294  -0.2294  
40.0  -0.2571  -0.2571  -0.2571  -0.2571  -0.2571  -0.2571  -0.2571  -0.2571  -0.2571  
50.0  -0.3064  -0.3064  -0.3064  -0.3064  -0.3064  -0.3064  -0.3064  -0.3064  -0.3064  
60.0  -0.3464  -0.3464  -0.3464  -0.3464  -0.3464  -0.3464  -0.3464  -0.3464  -0.3464  
75.0  -0.3864  -0.3864  -0.3864  -0.3864  -0.3864  -0.3864  -0.3864  -0.3864  -0.3864  
90.0  -0.4000  -0.4000  -0.4000  -0.4000  -0.4000  -0.4000  -0.4000  -0.4000  -0.4000  
105.0  -0.3864  -0.3864  -0.3864  -0.3864  -0.3864  -0.3864  -0.3864  -0.3864  -0.3864  
120.0  -0.3464  -0.3464  -0.3464  -0.3464  -0.3464  -0.3464  -0.3464  -0.3464  -0.3464  
135.0  -0.2828  -0.2828  -0.2828  -0.2828  -0.2828  -0.2828  -0.2828  -0.2828  -0.2828  
150.0  -0.2000  -0.2000  -0.2000  -0.2000  -0.2000  -0.2000  -0.2000  -0.2000  -0.2000  
165.0  -0.1035  -0.1035  -0.1035  -0.1035  -0.1035  -0.1035  -0.1035  -0.1035  -0.1035  
180.0  -0.0000  -0.0000  -0.0000  -0.0000  -0.0000  -0.0000  -0.0000  -0.0000  -0.0000  
COMMENT#1
1100000 0.200
Propfoil2                     106410641064
        0.00    0.10    0.20    0.30    0.40    0.50    0.60    0.70    0.80    1.00    
-180.0  0.000   0.000   0.000   0.000   0.000   0.000   0.000   0.000   0.000   0.000   
-165.0  0.500   0.500   0.500   0.500   0.500   0.500   0.500   0.500   0.500   0.500   
-150.0  0.866   0.866   0.866   0.866   0.866   0.866   0.866   0.866   0.866   0.866   
-135.0  1.000   1.000   1.000   1.000   1.000   1.000   1.000   1.000   1.000   1.000   
-120.0  0.866   0.866   0.866   0.866   0.866   0.866   0.866   0.866   0.866   0.866   
-105.0  0.500   0.500   0.500   0.500   0.500   0.500   0.500   0.500   0.500   0.500   
-90.0  -0.000   -0.000   -0.000   -0.000   -0.000   -0.000   -0.000   -0.000   -0.000   -0.000   
-75.0  -0.500   -0.500   -0.500   -0.500   -0.500   -0.500   -0.500   -0.500   -0.500   -0.500   
-60.0  -0.866   -0.866   -0.866   -0.866   -0.866   -0.866   -0.866   -0.866   -0.866   -0.866   
-45.0  -1.000   -1.000   -1.000   -1.000   -1.000   -1.000   -1.000   -1.000   -1.000   -1.000   
-30.0  -0.866   -0.866   -0.866   -0.866   -0.866   -0.866   -0.866   -0.866   -0.866   -0.866   
-25.0  -0.766   -0.766   -0.766   -0.766   -0.766   -0.766   -0.766   -0.766   -0.766   -0.766   
-20.0  -0.601   -0.591   -0.525   -0.575   -0.562   -0.643   -0.643   -0.643   -0.643   -0.643   
-18.0  -0.641   -0.632   -0.564   -0.527   -0.481   -0.588   -0.588   -0.588   -0.569   -0.569   
-16.0  -0.746   -0.739   -0.702   -0.554   -0.437   -0.530   -0.530   -0.508   -0.482   -0.482   
-14.0  -0.853   -0.848   -0.840   -0.653   -0.499   -0.469   -0.469   -0.414   -0.385   -0.385   
-12.0  -0.937   -0.941   -0.940   -0.824   -0.575   -0.375   -0.367   -0.334   -0.286   -0.286   
-10.0  -0.785   -0.788   -0.795   -0.803   -0.663   -0.411   -0.345   -0.283   -0.192   -0.192   
-8.0  -0.585   -0.588   -0.597   -0.613   -0.627   -0.568   -0.423   -0.262   -0.108   -0.108   
-7.0  -0.478   -0.480   -0.489   -0.503   -0.526   -0.530   -0.485   -0.288   -0.072   -0.072   
-6.0  -0.368   -0.370   -0.377   -0.389   -0.409   -0.436   -0.460   -0.322   -0.045   -0.045   
-5.0  -0.257   -0.258   -0.263   -0.273   -0.288   -0.312   -0.348   -0.352   -0.027   -0.027   
-4.0  -0.144   -0.145   -0.148   -0.155   -0.164   -0.180   -0.208   -0.254   -0.027   -0.027   
-3.0  -0.031   -0.032   -0.033   -0.036   -0.041   -0.049   -0.063   -0.093   -0.049   -0.049   
-2.0  0.082   0.082   0.082   0.082   0.083   0.083   0.082   0.077   -0.009   -0.009   
-1.0  0.195   0.195   0.197   0.201   0.206   0.214   0.226   0.247   0.082   0.082   
0.0  0.307   0.308   0.312   0.318   0.329   0.344   0.368   0.417   0.157   0.157   
1.0  0.419   0.421   0.426   0.436   0.451   0.473   0.509   0.593   0.230   0.230   
2.0  0.530   0.533   0.540   0.552   0.572   0.602   0.650   0.718   0.300   0.300   
3.0  0.641   0.644   0.652   0.668   0.692   0.729   0.788   0.739   0.367   0.367   
4.0  0.750   0.753   0.764   0.782   0.810   0.853   0.923   0.721   0.436   0.436   
5.0  0.858   0.862   0.874   0.894   0.927   0.976   1.048   0.719   0.502   0.502   
6.0  0.965   0.969   0.982   1.005   1.041   1.094   1.141   0.726   0.564   0.564   
7.0  1.069   1.074   1.088   1.113   1.151   1.205   1.129   0.737   0.622   0.622   
8.0  1.171   1.176   1.191   1.217   1.256   1.290   1.069   0.753   0.673   0.673   
9.0  1.270   1.275   1.290   1.316   1.352   1.332   1.010   0.766   0.721   0.721   
10.0  1.364   1.369   1.383   1.406   1.423   1.336   0.968   0.783   0.763   0.763   
11.0  1.444   1.447   1.458   1.466   1.444   1.311   0.940   0.799   0.799   0.799   
12.0  1.506   1.508   1.512   1.508   1.436   1.243   0.917   0.814   0.829   0.829   
13.0  1.556   1.555   1.545   1.539   1.389   1.148   0.890   0.828   0.856   0.856   
14.0  1.592   1.588   1.567   1.542   1.316   1.083   0.886   0.832   0.878   0.878   
15.0  1.610   1.605   1.562   1.512   1.250   1.022   0.879   0.848   0.895   0.895   
16.0  1.436   1.428   1.542   1.450   1.182   0.897   0.817   0.862   0.910   0.910   
17.0  1.268   1.260   1.351   1.361   1.125   0.799   0.768   0.872   0.915   0.915   
18.0  1.108   1.100   1.180   1.248   1.082   0.728   0.729   0.829   0.930   0.930   
19.0  0.956   0.949   1.029   1.181   1.043   0.683   0.699   0.795   0.944   0.944   
20.0  0.809   0.805   0.898   1.128   1.010   0.663   0.680   0.768   0.957   0.957   
22.0  0.695   0.695   0.695   0.993   0.907   0.695   0.695   0.730   0.886   0.886   
24.0  0.743   0.743   0.743   0.861   0.817   0.743   0.743   0.743   0.831   0.831   
26.0  0.788   0.788   0.788   0.808   0.796   0.788   0.788   0.788   0.788   0.788   
28.0  0.829   0.829   0.829   0.829   0.829   0.829   0.829   0.829   0.829   0.829   
30.0  0.866   0.866   0.866   0.866   0.866   0.866   0.866   0.866   0.866   0.866   
35.0  0.940   0.940   0.940   0.940   0.940   0.940   0.940   0.940   0.940   0.940   
40.0  0.985   0.985   0.985   0.985   0.985   0.985   0.985   0.985   0.985   0.985   
50.0  0.985   0.985   0.985   0.985   0.985   0.985   0.985   0.985   0.985   0.985   
60.0  0.866   0.866   0.866   0.866   0.866   0.866   0.866   0.866   0.866   0.866   
75.0  0.500   0.500   0.500   0.500   0.500   0.500   0.500   0.500   0.500   0.500   
90.0  0.000   0.000   0.000   0.000   0.000   0.000   0.000   0.000   0.000   0.000   
105.0  -0.500   -0.500   -0.500   -0.500   -0.500   -0.500   -0.500   -0.500   -0.500   -0.500   
120.0  -0.866   -0.866   -0.866   -0.866   -0.866   -0.866   -0.866   -0.866   -0.866   -0.866   
135.0  -1.000   -1.000   -1.000   -1.000   -1.000   -1.000   -1.000   -1.000   -1.000   -1.000   
150.0  -0.866   -0.866   -0.866   -0.866   -0.866   -0.866   -0.866   -0.866   -0.866   -0.866   
165.0  -0.500   -0.500   -0.500   -0.500   -0.500   -0.500   -0.500   -0.500   -0.500   -0.500   
180.0  -0.000   -0.000   -0.000   -0.000   -0.000   -0.000   -0.000   -0.000   -0.000   -0.000   
        0.00    0.10    0.20    0.30    0.40    0.50    0.60    0.70    0.80    1.00    
-180.0  0.0200  0.0200  0.0200  0.0200  0.0200  0.0200  0.0200  0.0200  0.0200  0.0200  
-165.0  0.1406  0.1406  0.1406  0.1406  0.1406  0.1406  0.1406  0.1406  0.1406  0.1406  
-150.0  0.4700  0.4700  0.4700  0.4700  0.4700  0.4700  0.4700  0.4700  0.4700  0.4700  
-135.0  0.9200  0.9200  0.9200  0.9200  0.9200  0.9200  0.9200  0.9200  0.9200  0.9200  
-120.0  1.3700  1.3700  1.3700  1.3700  1.3700  1.3700  1.3700  1.3700  1.3700  1.3700  
-105.0  1.6994  1.6994  1.6994  1.6994  1.6994  1.6994  1.6994  1.6994  1.6994  1.6994  
-90.0  1.8200  1.8200  1.8200  1.8200  1.8200  1.8200  1.8200  1.8200  1.8200  1.8200  
-75.0  1.6994  1.6994  1.6994  1.6994  1.6994  1.6994  1.6994  1.6994  1.6994  1.6994  
-60.0  1.3700  1.3700  1.3700  1.3700  1.3700  1.3700  1.3700  1.3700  1.3700  1.3700  
-45.0  0.9200  0.9200  0.9200  0.9200  0.9200  0.9200  0.9200  0.9200  0.9200  0.9200  
-30.0  0.4700  0.4700  0.4700  0.4700  0.4700  0.4700  0.4700  0.4700  0.4700  0.4700  
-25.0  0.3415  0.3415  0.3415  0.3415  0.3415  0.3415  0.3415  0.3415  0.3415  0.3415  
-20.0  0.2276  0.2344  0.2459  0.2431  0.2601  0.2306  0.2306  0.2306  0.2306  0.2306  
-18.0  0.1688  0.1748  0.1905  0.2066  0.2360  0.1919  0.1919  0.1919  0.2282  0.2282  
-16.0  0.1055  0.1081  0.1214  0.1600  0.2002  0.1568  0.1568  0.1660  0.2246  0.2246  
-14.0  0.0585  0.0600  0.0648  0.1007  0.1351  0.1253  0.1253  0.1527  0.2162  0.2162  
-12.0  0.0291  0.0292  0.0309  0.0438  0.0830  0.0957  0.1064  0.1396  0.1779  0.1779  
-10.0  0.0204  0.0207  0.0217  0.0241  0.0381  0.0655  0.0865  0.1152  0.1384  0.1384  
-8.0  0.0162  0.0162  0.0166  0.0173  0.0192  0.0321  0.0597  0.0842  0.1060  0.1060  
-7.0  0.0149  0.0149  0.0151  0.0155  0.0162  0.0213  0.0417  0.0698  0.0926  0.0926  
-6.0  0.0139  0.0140  0.0141  0.0143  0.0147  0.0159  0.0259  0.0565  0.0807  0.0807  
-5.0  0.0135  0.0135  0.0135  0.0136  0.0138  0.0142  0.0170  0.0409  0.0700  0.0700  
-4.0  0.0132  0.0132  0.0132  0.0133  0.0135  0.0137  0.0142  0.0246  0.0606  0.0606  
-3.0  0.0131  0.0131  0.0131  0.0132  0.0133  0.0134  0.0138  0.0158  0.0521  0.0521  
-2.0  0.0130  0.0130  0.0131  0.0131  0.0132  0.0134  0.0137  0.0143  0.0431  0.0431  
-1.0  0.0131  0.0131  0.0131  0.0132  0.0133  0.0134  0.0137  0.0144  0.0402  0.0402  
0.0  0.0132  0.0132  0.0132  0.0133  0.0134  0.0136  0.0140  0.0151  0.0431  0.0431  
1.0  0.0134  0.0134  0.0134  0.0135  0.0137  0.0139  0.0144  0.0198  0.0499  0.0499  
2.0  0.0137  0.0137  0.0137  0.0138  0.0140  0.0143  0.0149  0.0302  0.0598  0.0598  
3.0  0.0140  0.0140  0.0141  0.0142  0.0145  0.0149  0.0157  0.0414  0.0714  0.0714  
4.0  0.0145  0.0145  0.0146  0.0147  0.0150  0.0156  0.0171  0.0531  0.0844  0.0844  
5.0  0.0150  0.0150  0.0151  0.0153  0.0157  0.0164  0.0221  0.0655  0.0988  0.0988  
6.0  0.0156  0.0156  0.0158  0.0161  0.0165  0.0175  0.0334  0.0791  0.1147  0.1147  
7.0  0.0163  0.0164  0.0166  0.0169  0.0175  0.0189  0.0459  0.0936  0.1316  0.1316  
8.0  0.0172  0.0173  0.0175  0.0179  0.0188  0.0216  0.0603  0.1093  0.1495  0.1495  
9.0  0.0182  0.0183  0.0186  0.0192  0.0203  0.0277  0.0799  0.1262  0.1683  0.1683  
10.0  0.0194  0.0196  0.0200  0.0208  0.0227  0.0376  0.0998  0.1441  0.1882  0.1882  
11.0  0.0215  0.0218  0.0222  0.0236  0.0278  0.0518  0.1202  0.1632  0.2087  0.2087  
12.0  0.0240  0.0242  0.0250  0.0274  0.0365  0.0710  0.1415  0.1838  0.2302  0.2302  
13.0  0.0270  0.0274  0.0294  0.0326  0.0513  0.0976  0.1652  0.2057  0.2522  0.2522  
14.0  0.0311  0.0319  0.0352  0.0409  0.0731  0.1247  0.1873  0.2295  0.2743  0.2743  
15.0  0.0371  0.0382  0.0444  0.0546  0.0987  0.1516  0.2109  0.2531  0.2969  0.2969  
16.0  0.0631  0.0648  0.0571  0.0754  0.1269  0.1719  0.2220  0.2763  0.3193  0.3193  
17.0  0.0924  0.0943  0.0896  0.1050  0.1578  0.1901  0.2295  0.3002  0.3416  0.3416  
18.0  0.1254  0.1273  0.1228  0.1436  0.1890  0.2067  0.2358  0.3018  0.3633  0.3633  
19.0  0.1626  0.1641  0.1573  0.1776  0.2212  0.2221  0.2412  0.3012  0.3839  0.3839  
20.0  0.2044  0.2053  0.1935  0.2113  0.2541  0.2368  0.2462  0.2997  0.4036  0.4036  
22.0  0.2726  0.2726  0.2726  0.2767  0.3144  0.2726  0.2726  0.2962  0.3885  0.3885  
24.0  0.3178  0.3178  0.3178  0.3312  0.3548  0.3178  0.3178  0.3178  0.3749  0.3749  
26.0  0.3659  0.3659  0.3659  0.3736  0.3817  0.3659  0.3659  0.3659  0.3659  0.3659  
28.0  0.4167  0.4167  0.4167  0.4167  0.4167  0.4167  0.4167  0.4167  0.4167  0.4167  
30.0  0.4700  0.4700  0.4700  0.4700  0.4700  0.4700  0.4700  0.4700  0.4700  0.4700  
35.0  0.6122  0.6122  0.6122  0.6122  0.6122  0.6122  0.6122  0.6122  0.6122  0.6122  
40.0  0.7637  0.7637  0.7637  0.7637  0.7637  0.7637  0.7637  0.7637  0.7637  0.7637  
50.0  1.0763  1.0763  1.0763  1.0763  1.0763  1.0763  1.0763  1.0763  1.0763  1.0763  
60.0  1.3700  1.3700  1.3700  1.3700  1.3700  1.3700  1.3700  1.3700  1.3700  1.3700  
75.0  1.6994  1.6994  1.6994  1.6994  1.6994  1.6994  1.6994  1.6994  1.6994  1.6994  
90.0  1.8200  1.8200  1.8200  1.8200  1.8200  1.8200  1.8200  1.8200  1.8200  1.8200  
105.0  1.6994  1.6994  1.6994  1.6994  1.6994  1.6994  1.6994  1.6994  1.6994  1.6994  
120.0  1.3700  1.3700  1.3700  1.3700  1.3700  1.3700  1.3700  1.3700  1.3700  1.3700  
135.0  0.9200  0.9200  0.9200  0.9200  0.9200  0.9200  0.9200  0.9200  0.9200  0.9200  
150.0  0.4700  0.4700  0.4700  0.4700  0.4700  0.4700  0.4700  0.4700  0.4700  0.4700  
165.0  0.1406  0.1406  0.1406  0.1406  0.1406  0.1406  0.1406  0.1406  0.1406  0.1406  
180.0  0.0200  0.0200  0.0200  0.0200  0.0200  0.0200  0.0200  0.0200  0.0200  0.0200  
        0.00    0.10    0.20    0.30    0.40    0.50    0.60    0.70    0.80    1.00    
-180.0  0.0000  0.0000  0.0000  0.0000  0.0000  0.0000  0.0000  0.0000  0.0000  0.0000  
-165.0  0.1035  0.1035  0.1035  0.1035  0.1035  0.1035  0.1035  0.1035  0.1035  0.1035  
-150.0  0.2000  0.2000  0.2000  0.2000  0.2000  0.2000  0.2000  0.2000  0.2000  0.2000  
-135.0  0.2828  0.2828  0.2828  0.2828  0.2828  0.2828  0.2828  0.2828  0.2828  0.2828  
-120.0  0.3464  0.3464  0.3464  0.3464  0.3464  0.3464  0.3464  0.3464  0.3464  0.3464  
-105.0  0.3864  0.3864  0.3864  0.3864  0.3864  0.3864  0.3864  0.3864  0.3864  0.3864  
-90.0  0.4000  0.4000  0.4000  0.4000  0.4000  0.4000  0.4000  0.4000  0.4000  0.4000  
-75.0  0.3864  0.3864  0.3864  0.3864  0.3864  0.3864  0.3864  0.3864  0.3864  0.3864  
-60.0  0.3464  0.3464  0.3464  0.3464  0.3464  0.3464  0.3464  0.3464  0.3464  0.3464  
-45.0  0.2828  0.2828  0.2828  0.2828  0.2828  0.2828  0.2828  0.2828  0.2828  0.2828  
-30.0  0.2000  0.2000  0.2000  0.2000  0.2000  0.2000  0.2000  0.2000  0.2000  0.2000  
-25.0  0.1690  0.1690  0.1690  0.1690  0.1690  0.1690  0.1690  0.1690  0.1690  0.1690  
-20.0  0.0702  0.0734  0.0737  0.0938  0.0696  0.1368  0.1368  0.1368  0.1368  0.1368  
-18.0  0.0035  0.0064  0.0094  0.0351  0.0134  0.1236  0.1236  0.1236  0.0764  0.0764  
-16.0  -0.0442  -0.0434  -0.0378  -0.0262  -0.0199  0.1103  0.1103  0.0842  0.0098  0.0098  
-14.0  -0.0664  -0.0660  -0.0638  -0.0481  -0.0381  0.0968  0.0968  0.0209  -0.0629  -0.0629  
-12.0  -0.0715  -0.0722  -0.0750  -0.0773  -0.0589  0.0336  0.0366  -0.0394  -0.0898  -0.0898  
-10.0  -0.0693  -0.0699  -0.0719  -0.0760  -0.0838  -0.0302  -0.0236  -0.0744  -0.1191  -0.1191  
-8.0  -0.0691  -0.0696  -0.0709  -0.0736  -0.0792  -0.0903  -0.0866  -0.0845  -0.1321  -0.1321  
-7.0  -0.0694  -0.0698  -0.0710  -0.0733  -0.0774  -0.0864  -0.0973  -0.0896  -0.1338  -0.1338  
-6.0  -0.0698  -0.0701  -0.0712  -0.0733  -0.0767  -0.0829  -0.0974  -0.0914  -0.1318  -0.1318  
-5.0  -0.0703  -0.0706  -0.0716  -0.0734  -0.0764  -0.0813  -0.0915  -0.0994  -0.1254  -0.1254  
-4.0  -0.0707  -0.0710  -0.0720  -0.0737  -0.0764  -0.0806  -0.0879  -0.1032  -0.1128  -0.1128  
-3.0  -0.0712  -0.0715  -0.0724  -0.0740  -0.0766  -0.0804  -0.0863  -0.0988  -0.0940  -0.0940  
-2.0  -0.0717  -0.0720  -0.0728  -0.0744  -0.0768  -0.0803  -0.0856  -0.0946  -0.0948  -0.0948  
-1.0  -0.0721  -0.0724  -0.0732  -0.0747  -0.0770  -0.0803  -0.0852  -0.0927  -0.0999  -0.0999  
0.0  -0.0724  -0.0727  -0.0735  -0.0750  -0.0771  -0.0803  -0.0847  -0.0908  -0.0949  -0.0949  
1.0  -0.0727  -0.0730  -0.0737  -0.0751  -0.0771  -0.0800  -0.0836  -0.0916  -0.0881  -0.0881  
2.0  -0.0729  -0.0731  -0.0739  -0.0751  -0.0769  -0.0793  -0.0818  -0.0904  -0.0823  -0.0823  
3.0  -0.0730  -0.0732  -0.0738  -0.0749  -0.0764  -0.0780  -0.0784  -0.0784  -0.0790  -0.0790  
4.0  -0.0729  -0.0731  -0.0736  -0.0744  -0.0755  -0.0761  -0.0724  -0.0681  -0.0785  -0.0785  
5.0  -0.0726  -0.0727  -0.0731  -0.0736  -0.0740  -0.0731  -0.0641  -0.0624  -0.0793  -0.0793  
6.0  -0.0721  -0.0722  -0.0724  -0.0725  -0.0720  -0.0687  -0.0556  -0.0597  -0.0810  -0.0810  
7.0  -0.0714  -0.0714  -0.0713  -0.0709  -0.0691  -0.0623  -0.0407  -0.0590  -0.0835  -0.0835  
8.0  -0.0703  -0.0702  -0.0698  -0.0686  -0.0651  -0.0511  -0.0331  -0.0602  -0.0862  -0.0862  
9.0  -0.0689  -0.0686  -0.0677  -0.0655  -0.0594  -0.0362  -0.0372  -0.0624  -0.0895  -0.0895  
10.0  -0.0668  -0.0663  -0.0648  -0.0609  -0.0500  -0.0226  -0.0421  -0.0658  -0.0928  -0.0928  
11.0  -0.0627  -0.0619  -0.0592  -0.0521  -0.0368  -0.0148  -0.0472  -0.0698  -0.0966  -0.0966  
12.0  -0.0561  -0.0549  -0.0509  -0.0426  -0.0263  -0.0163  -0.0536  -0.0743  -0.1004  -0.1004  
13.0  -0.0486  -0.0471  -0.0418  -0.0341  -0.0221  -0.0278  -0.0610  -0.0796  -0.1046  -0.1046  
14.0  -0.0410  -0.0394  -0.0341  -0.0273  -0.0257  -0.0391  -0.0669  -0.0857  -0.1090  -0.1090  
15.0  -0.0342  -0.0329  -0.0285  -0.0246  -0.0333  -0.0488  -0.0724  -0.0907  -0.1133  -0.1133  
16.0  -0.0417  -0.0415  -0.0267  -0.0274  -0.0425  -0.0649  -0.0837  -0.0951  -0.1183  -0.1183  
17.0  -0.0534  -0.0541  -0.0417  -0.0363  -0.0533  -0.0808  -0.0942  -0.0991  -0.1243  -0.1243  
18.0  -0.0695  -0.0706  -0.0590  -0.0497  -0.0630  -0.0967  -0.1054  -0.1072  -0.1290  -0.1290  
19.0  -0.0899  -0.0909  -0.0785  -0.0607  -0.0724  -0.1124  -0.1174  -0.1151  -0.1333  -0.1333  
20.0  -0.1145  -0.1152  -0.1001  -0.0706  -0.0811  -0.1280  -0.1300  -0.1239  -0.1373  -0.1373  
22.0  -0.1498  -0.1498  -0.1498  -0.0980  -0.1061  -0.1498  -0.1498  -0.1446  -0.1475  -0.1475  
24.0  -0.1627  -0.1627  -0.1627  -0.1330  -0.1380  -0.1627  -0.1627  -0.1627  -0.1602  -0.1602  
26.0  -0.1753  -0.1753  -0.1753  -0.1660  -0.1677  -0.1753  -0.1753  -0.1753  -0.1753  -0.1753  
28.0  -0.1878  -0.1878  -0.1878  -0.1878  -0.1878  -0.1878  -0.1878  -0.1878  -0.1878  -0.1878  
30.0  -0.2000  -0.2000  -0.2000  -0.2000  -0.2000  -0.2000  -0.2000  -0.2000  -0.2000  -0.2000  
35.0  -0.2294  -0.2294  -0.2294  -0.2294  -0.2294  -0.2294  -0.2294  -0.2294  -0.2294  -0.2294  
40.0  -0.2571  -0.2571  -0.2571  -0.2571  -0.2571  -0.2571  -0.2571  -0.2571  -0.2571  -0.2571  
50.0  -0.3064  -0.3064  -0.3064  -0.3064  -0.3064  -0.3064  -0.3064  -0.3064  -0.3064  -0.3064  
60.0  -0.3464  -0.3464  -0.3464  -0.3464  -0.3464  -0.3464  -0.3464  -0.3464  -0.3464  -0.3464  
75.0  -0.3864  -0.3864  -0.3864  -0.3864  -0.3864  -0.3864  -0.3864  -0.3864  -0.3864  -0.3864  
90.0  -0.4000  -0.4000  -0.4000  -0.4000  -0.4000  -0.4000  -0.4000  -0.4000  -0.4000  -0.4000  
105.0  -0.3864  -0.3864  -0.3864  -0.3864  -0.3864  -0.3864  -0.3864  -0.3864  -0.3864  -0.3864  
120.0  -0.3464  -0.3464  -0.3464  -0.3464  -0.3464  -0.3464  -0.3464  -0.3464  -0.3464  -0.3464  
135.0  -0.2828  -0.2828  -0.2828  -0.2828  -0.2828  -0.2828  -0.2828  -0.2828  -0.2828  -0.2828  
150.0  -0.2000  -0.2000  -0.2000  -0.2000  -0.2000  -0.2000  -0.2000  -0.2000  -0.2000  -0.2000  
165.0  -0.1035  -0.1035  -0.1035  -0.1035  -0.1035  -0.1035  -0.1035  -0.1035  -0.1035  -0.1035  
180.0  -0.0000  -0.0000  -0.0000  -0.0000  -0.0000  -0.0000  -0.0000  -0.0000  -0.0000  -0.0000  
COMMENT#1
1000000 0.200
Propfoil3                     106410641064
        0.00    0.10    0.20    0.30    0.40    0.50    0.60    0.70    0.80    1.00    
-180.0  0.000   0.000   0.000   0.000   0.000   0.000   0.000   0.000   0.000   0.000   
-165.0  0.500   0.500   0.500   0.500   0.500   0.500   0.500   0.500   0.500   0.500   
-150.0  0.866   0.866   0.866   0.866   0.866   0.866   0.866   0.866   0.866   0.866   
-135.0  1.000   1.000   1.000   1.000   1.000   1.000   1.000   1.000   1.000   1.000   
-120.0  0.866   0.866   0.866   0.866   0.866   0.866   0.866   0.866   0.866   0.866   
-105.0  0.500   0.500   0.500   0.500   0.500   0.500   0.500   0.500   0.500   0.500   
-90.0  -0.000   -0.000   -0.000   -0.000   -0.000   -0.000   -0.000   -0.000   -0.000   -0.000   
-75.0  -0.500   -0.500   -0.500   -0.500   -0.500   -0.500   -0.500   -0.500   -0.500   -0.500   
-60.0  -0.866   -0.866   -0.866   -0.866   -0.866   -0.866   -0.866   -0.866   -0.866   -0.866   
-45.0  -1.000   -1.000   -1.000   -1.000   -1.000   -1.000   -1.000   -1.000   -1.000   -1.000   
-30.0  -0.866   -0.866   -0.866   -0.866   -0.866   -0.866   -0.866   -0.866   -0.866   -0.866   
-25.0  -0.766   -0.766   -0.766   -0.766   -0.766   -0.766   -0.766   -0.766   -0.766   -0.766   
-20.0  -0.573   -0.643   -0.643   -0.643   -0.586   -0.624   -0.643   -0.643   -0.643   -0.643   
-18.0  -0.487   -0.541   -0.554   -0.542   -0.504   -0.538   -0.588   -0.588   -0.588   -0.588   
-16.0  -0.545   -0.549   -0.504   -0.466   -0.454   -0.459   -0.530   -0.530   -0.530   -0.530   
-14.0  -0.674   -0.666   -0.551   -0.490   -0.435   -0.408   -0.440   -0.453   -0.469   -0.469   
-12.0  -0.778   -0.773   -0.659   -0.593   -0.438   -0.390   -0.361   -0.376   -0.407   -0.407   
-10.0  -0.719   -0.721   -0.726   -0.718   -0.534   -0.411   -0.336   -0.322   -0.342   -0.342   
-8.0  -0.556   -0.559   -0.567   -0.579   -0.580   -0.521   -0.380   -0.290   -0.218   -0.218   
-7.0  -0.451   -0.454   -0.461   -0.475   -0.495   -0.497   -0.453   -0.298   -0.173   -0.173   
-6.0  -0.344   -0.346   -0.353   -0.365   -0.383   -0.407   -0.430   -0.340   -0.140   -0.140   
-5.0  -0.234   -0.235   -0.240   -0.249   -0.263   -0.285   -0.321   -0.341   -0.119   -0.119   
-4.0  -0.121   -0.122   -0.125   -0.131   -0.140   -0.154   -0.180   -0.226   -0.118   -0.118   
-3.0  -0.009   -0.009   -0.011   -0.013   -0.017   -0.023   -0.034   -0.061   -0.091   -0.091   
-2.0  0.104   0.104   0.104   0.105   0.107   0.108   0.110   0.110   0.076   0.076   
-1.0  0.216   0.217   0.219   0.223   0.230   0.239   0.253   0.277   0.216   0.216   
0.0  0.328   0.329   0.333   0.341   0.352   0.368   0.395   0.443   0.301   0.301   
1.0  0.440   0.441   0.447   0.457   0.473   0.497   0.535   0.614   0.375   0.375   
2.0  0.550   0.553   0.560   0.573   0.594   0.625   0.675   0.787   0.441   0.441   
3.0  0.660   0.663   0.672   0.688   0.714   0.752   0.813   0.890   0.507   0.507   
4.0  0.769   0.772   0.783   0.802   0.832   0.877   0.950   0.888   0.571   0.571   
5.0  0.877   0.880   0.892   0.914   0.948   0.999   1.074   0.867   0.633   0.633   
6.0  0.982   0.987   1.000   1.024   1.061   1.118   1.195   0.859   0.691   0.691   
7.0  1.086   1.091   1.105   1.131   1.171   1.221   1.236   0.858   0.744   0.744   
8.0  1.185   1.189   1.204   1.229   1.266   1.269   1.169   0.859   0.791   0.791   
9.0  1.274   1.278   1.291   1.315   1.329   1.275   1.074   0.861   0.833   0.833   
10.0  1.355   1.359   1.372   1.385   1.339   1.250   1.009   0.865   0.869   0.869   
11.0  1.425   1.428   1.433   1.427   1.313   1.181   0.947   0.870   0.895   0.895   
12.0  1.481   1.480   1.462   1.447   1.264   0.955   0.923   0.864   0.916   0.916   
13.0  1.499   1.501   1.494   1.423   1.204   0.773   0.903   0.871   0.934   0.934   
14.0  1.477   1.478   1.470   1.375   1.137   0.642   0.881   0.881   0.944   0.944   
15.0  1.432   1.427   1.423   1.305   1.025   0.564   0.846   0.890   0.948   0.948   
16.0  1.366   1.359   1.349   1.225   0.926   0.536   0.821   0.838   0.952   0.952   
17.0  1.291   1.283   1.265   1.151   0.842   0.559   0.801   0.792   0.962   0.962   
18.0  1.223   1.215   1.187   1.089   0.771   0.588   0.784   0.752   0.909   0.909   
19.0  1.167   1.161   1.127   1.040   0.713   0.616   0.772   0.719   0.860   0.860   
20.0  1.123   1.114   1.076   0.937   0.669   0.643   0.765   0.692   0.817   0.817   
22.0  0.982   0.975   0.883   0.801   0.621   0.695   0.761   0.695   0.747   0.747   
24.0  0.850   0.845   0.788   0.756   0.624   0.743   0.771   0.743   0.743   0.743   
26.0  0.802   0.800   0.788   0.788   0.678   0.788   0.794   0.788   0.788   0.788   
28.0  0.829   0.829   0.829   0.829   0.780   0.829   0.827   0.829   0.829   0.829   
30.0  0.866   0.866   0.866   0.866   0.866   0.866   0.866   0.866   0.866   0.866   
35.0  0.940   0.940   0.940   0.940   0.940   0.940   0.940   0.940   0.940   0.940   
40.0  0.985   0.985   0.985   0.985   0.985   0.985   0.985   0.985   0.985   0.985   
50.0  0.985   0.985   0.985   0.985   0.985   0.985   0.985   0.985   0.985   0.985   
60.0  0.866   0.866   0.866   0.866   0.866   0.866   0.866   0.866   0.866   0.866   
75.0  0.500   0.500   0.500   0.500   0.500   0.500   0.500   0.500   0.500   0.500   
90.0  0.000   0.000   0.000   0.000   0.000   0.000   0.000   0.000   0.000   0.000   
105.0  -0.500   -0.500   -0.500   -0.500   -0.500   -0.500   -0.500   -0.500   -0.500   -0.500   
120.0  -0.866   -0.866   -0.866   -0.866   -0.866   -0.866   -0.866   -0.866   -0.866   -0.866   
135.0  -1.000   -1.000   -1.000   -1.000   -1.000   -1.000   -1.000   -1.000   -1.000   -1.000   
150.0  -0.866   -0.866   -0.866   -0.866   -0.866   -0.866   -0.866   -0.866   -0.866   -0.866   
165.0  -0.500   -0.500   -0.500   -0.500   -0.500   -0.500   -0.500   -0.500   -0.500   -0.500   
180.0  -0.000   -0.000   -0.000   -0.000   -0.000   -0.000   -0.000   -0.000   -0.000   -0.000   
        0.00    0.10    0.20    0.30    0.40    0.50    0.60    0.70    0.80    1.00    
-180.0  0.0200  0.0200  0.0200  0.0200  0.0200  0.0200  0.0200  0.0200  0.0200  0.0200  
-165.0  0.1406  0.1406  0.1406  0.1406  0.1406  0.1406  0.1406  0.1406  0.1406  0.1406  
-150.0  0.4700  0.4700  0.4700  0.4700  0.4700  0.4700  0.4700  0.4700  0.4700  0.4700  
-135.0  0.9200  0.9200  0.9200  0.9200  0.9200  0.9200  0.9200  0.9200  0.9200  0.9200  
-120.0  1.3700  1.3700  1.3700  1.3700  1.3700  1.3700  1.3700  1.3700  1.3700  1.3700  
-105.0  1.6994  1.6994  1.6994  1.6994  1.6994  1.6994  1.6994  1.6994  1.6994  1.6994  
-90.0  1.8200  1.8200  1.8200  1.8200  1.8200  1.8200  1.8200  1.8200  1.8200  1.8200  
-75.0  1.6994  1.6994  1.6994  1.6994  1.6994  1.6994  1.6994  1.6994  1.6994  1.6994  
-60.0  1.3700  1.3700  1.3700  1.3700  1.3700  1.3700  1.3700  1.3700  1.3700  1.3700  
-45.0  0.9200  0.9200  0.9200  0.9200  0.9200  0.9200  0.9200  0.9200  0.9200  0.9200  
-30.0  0.4700  0.4700  0.4700  0.4700  0.4700  0.4700  0.4700  0.4700  0.4700  0.4700  
-25.0  0.3415  0.3415  0.3415  0.3415  0.3415  0.3415  0.3415  0.3415  0.3415  0.3415  
-20.0  0.2383  0.2306  0.2306  0.2306  0.2617  0.2405  0.2306  0.2306  0.2306  0.2306  
-18.0  0.2038  0.1965  0.1999  0.2004  0.2393  0.2223  0.1919  0.1919  0.1919  0.1919  
-16.0  0.1546  0.1535  0.1682  0.1737  0.2053  0.2054  0.1568  0.1568  0.1568  0.1568  
-14.0  0.0941  0.0982  0.1204  0.1362  0.1625  0.1755  0.1316  0.1326  0.1253  0.1253  
-12.0  0.0474  0.0485  0.0666  0.0851  0.1213  0.1337  0.1152  0.1193  0.0978  0.0978  
-10.0  0.0301  0.0304  0.0314  0.0362  0.0654  0.0894  0.0975  0.1061  0.0743  0.0743  
-8.0  0.0183  0.0185  0.0191  0.0207  0.0254  0.0371  0.0677  0.0861  0.0691  0.0691  
-7.0  0.0164  0.0165  0.0168  0.0174  0.0186  0.0233  0.0466  0.0715  0.0668  0.0668  
-6.0  0.0143  0.0143  0.0144  0.0147  0.0152  0.0173  0.0283  0.0582  0.0641  0.0641  
-5.0  0.0132  0.0133  0.0133  0.0134  0.0136  0.0142  0.0172  0.0406  0.0604  0.0604  
-4.0  0.0130  0.0130  0.0130  0.0131  0.0132  0.0134  0.0138  0.0232  0.0556  0.0556  
-3.0  0.0128  0.0128  0.0129  0.0129  0.0130  0.0131  0.0134  0.0149  0.0436  0.0436  
-2.0  0.0128  0.0128  0.0128  0.0129  0.0129  0.0131  0.0133  0.0138  0.0304  0.0304  
-1.0  0.0128  0.0128  0.0129  0.0129  0.0130  0.0131  0.0134  0.0139  0.0294  0.0294  
0.0  0.0129  0.0130  0.0130  0.0130  0.0131  0.0133  0.0136  0.0143  0.0354  0.0354  
1.0  0.0132  0.0132  0.0132  0.0133  0.0134  0.0136  0.0140  0.0154  0.0441  0.0441  
2.0  0.0134  0.0135  0.0135  0.0136  0.0137  0.0140  0.0145  0.0218  0.0543  0.0543  
3.0  0.0138  0.0138  0.0139  0.0140  0.0142  0.0145  0.0153  0.0339  0.0660  0.0660  
4.0  0.0142  0.0143  0.0143  0.0145  0.0147  0.0152  0.0163  0.0463  0.0792  0.0792  
5.0  0.0148  0.0148  0.0149  0.0151  0.0155  0.0161  0.0197  0.0599  0.0942  0.0942  
6.0  0.0154  0.0155  0.0156  0.0159  0.0163  0.0172  0.0296  0.0745  0.1110  0.1110  
7.0  0.0162  0.0163  0.0165  0.0168  0.0174  0.0193  0.0448  0.0901  0.1290  0.1290  
8.0  0.0175  0.0176  0.0179  0.0185  0.0197  0.0246  0.0589  0.1068  0.1480  0.1480  
9.0  0.0195  0.0196  0.0202  0.0210  0.0232  0.0341  0.0786  0.1247  0.1677  0.1677  
10.0  0.0220  0.0221  0.0227  0.0241  0.0291  0.0481  0.1022  0.1439  0.1886  0.1886  
11.0  0.0249  0.0251  0.0258  0.0281  0.0392  0.0670  0.1269  0.1643  0.2096  0.2096  
12.0  0.0278  0.0282  0.0306  0.0339  0.0552  0.0937  0.1494  0.1867  0.2315  0.2315  
13.0  0.0332  0.0335  0.0355  0.0446  0.0775  0.1168  0.1722  0.2102  0.2540  0.2540  
14.0  0.0428  0.0433  0.0462  0.0615  0.1052  0.1360  0.1996  0.2338  0.2770  0.2770  
15.0  0.0577  0.0592  0.0629  0.0863  0.1369  0.1515  0.2211  0.2581  0.3000  0.3000  
16.0  0.0796  0.0820  0.0879  0.1177  0.1675  0.1640  0.2382  0.2608  0.3233  0.3233  
17.0  0.1078  0.1108  0.1199  0.1522  0.1961  0.1739  0.2545  0.2614  0.3457  0.3457  
18.0  0.1387  0.1421  0.1550  0.1875  0.2229  0.1919  0.2701  0.2603  0.3383  0.3383  
19.0  0.1705  0.1742  0.1902  0.2234  0.2480  0.2108  0.2852  0.2579  0.3297  0.3297  
20.0  0.2027  0.2072  0.2263  0.2552  0.2717  0.2306  0.3000  0.2548  0.3207  0.3207  
22.0  0.2722  0.2776  0.2902  0.3031  0.3154  0.2726  0.3293  0.2726  0.3029  0.3029  
24.0  0.3303  0.3347  0.3357  0.3326  0.3549  0.3178  0.3591  0.3178  0.3178  0.3178  
26.0  0.3738  0.3757  0.3659  0.3659  0.3916  0.3659  0.3906  0.3659  0.3659  0.3659  
28.0  0.4167  0.4167  0.4167  0.4167  0.4262  0.4167  0.4248  0.4167  0.4167  0.4167  
30.0  0.4700  0.4700  0.4700  0.4700  0.4700  0.4700  0.4700  0.4700  0.4700  0.4700  
35.0  0.6122  0.6122  0.6122  0.6122  0.6122  0.6122  0.6122  0.6122  0.6122  0.6122  
40.0  0.7637  0.7637  0.7637  0.7637  0.7637  0.7637  0.7637  0.7637  0.7637  0.7637  
50.0  1.0763  1.0763  1.0763  1.0763  1.0763  1.0763  1.0763  1.0763  1.0763  1.0763  
60.0  1.3700  1.3700  1.3700  1.3700  1.3700  1.3700  1.3700  1.3700  1.3700  1.3700  
75.0  1.6994  1.6994  1.6994  1.6994  1.6994  1.6994  1.6994  1.6994  1.6994  1.6994  
90.0  1.8200  1.8200  1.8200  1.8200  1.8200  1.8200  1.8200  1.8200  1.8200  1.8200  
105.0  1.6994  1.6994  1.6994  1.6994  1.6994  1.6994  1.6994  1.6994  1.6994  1.6994  
120.0  1.3700  1.3700  1.3700  1.3700  1.3700  1.3700  1.3700  1.3700  1.3700  1.3700  
135.0  0.9200  0.9200  0.9200  0.9200  0.9200  0.9200  0.9200  0.9200  0.9200  0.9200  
150.0  0.4700  0.4700  0.4700  0.4700  0.4700  0.4700  0.4700  0.4700  0.4700  0.4700  
165.0  0.1406  0.1406  0.1406  0.1406  0.1406  0.1406  0.1406  0.1406  0.1406  0.1406  
180.0  0.0200  0.0200  0.0200  0.0200  0.0200  0.0200  0.0200  0.0200  0.0200  0.0200  
        0.00    0.10    0.20    0.30    0.40    0.50    0.60    0.70    0.80    1.00    
-180.0  0.0000  0.0000  0.0000  0.0000  0.0000  0.0000  0.0000  0.0000  0.0000  0.0000  
-165.0  0.1035  0.1035  0.1035  0.1035  0.1035  0.1035  0.1035  0.1035  0.1035  0.1035  
-150.0  0.2000  0.2000  0.2000  0.2000  0.2000  0.2000  0.2000  0.2000  0.2000  0.2000  
-135.0  0.2828  0.2828  0.2828  0.2828  0.2828  0.2828  0.2828  0.2828  0.2828  0.2828  
-120.0  0.3464  0.3464  0.3464  0.3464  0.3464  0.3464  0.3464  0.3464  0.3464  0.3464  
-105.0  0.3864  0.3864  0.3864  0.3864  0.3864  0.3864  0.3864  0.3864  0.3864  0.3864  
-90.0  0.4000  0.4000  0.4000  0.4000  0.4000  0.4000  0.4000  0.4000  0.4000  0.4000  
-75.0  0.3864  0.3864  0.3864  0.3864  0.3864  0.3864  0.3864  0.3864  0.3864  0.3864  
-60.0  0.3464  0.3464  0.3464  0.3464  0.3464  0.3464  0.3464  0.3464  0.3464  0.3464  
-45.0  0.2828  0.2828  0.2828  0.2828  0.2828  0.2828  0.2828  0.2828  0.2828  0.2828  
-30.0  0.2000  0.2000  0.2000  0.2000  0.2000  0.2000  0.2000  0.2000  0.2000  0.2000  
-25.0  0.1690  0.1690  0.1690  0.1690  0.1690  0.1690  0.1690  0.1690  0.1690  0.1690  
-20.0  0.1165  0.1368  0.1368  0.1368  0.0726  0.1137  0.1368  0.1368  0.1368  0.1368  
-18.0  0.0594  0.0810  0.1050  0.1032  0.0159  0.0564  0.1236  0.1236  0.1236  0.1236  
-16.0  -0.0019  0.0207  0.0487  0.0472  -0.0181  0.0019  0.1103  0.1103  0.1103  0.1103  
-14.0  -0.0476  -0.0450  -0.0155  -0.0113  -0.0295  -0.0299  0.0740  0.0710  0.0968  0.0968  
-12.0  -0.0742  -0.0737  -0.0634  -0.0531  -0.0425  -0.0426  0.0160  0.0087  0.0832  0.0832  
-10.0  -0.0776  -0.0781  -0.0795  -0.0817  -0.0653  -0.0588  -0.0403  -0.0498  0.0695  0.0695  
-8.0  -0.0780  -0.0784  -0.0798  -0.0824  -0.0871  -0.0919  -0.0778  -0.0820  -0.0131  -0.0131  
-7.0  -0.0785  -0.0789  -0.0802  -0.0825  -0.0866  -0.0944  -0.0972  -0.0869  -0.0451  -0.0451  
-6.0  -0.0793  -0.0797  -0.0809  -0.0830  -0.0866  -0.0926  -0.1048  -0.0904  -0.0709  -0.0709  
-5.0  -0.0800  -0.0804  -0.0815  -0.0836  -0.0868  -0.0920  -0.1023  -0.1068  -0.0906  -0.0906  
-4.0  -0.0805  -0.0809  -0.0820  -0.0839  -0.0870  -0.0917  -0.0996  -0.1152  -0.1016  -0.1016  
-3.0  -0.0810  -0.0813  -0.0824  -0.0843  -0.0872  -0.0916  -0.0984  -0.1116  -0.1015  -0.1015  
-2.0  -0.0814  -0.0818  -0.0828  -0.0846  -0.0875  -0.0916  -0.0980  -0.1086  -0.1289  -0.1289  
-1.0  -0.0818  -0.0821  -0.0831  -0.0849  -0.0877  -0.0917  -0.0978  -0.1074  -0.1315  -0.1315  
0.0  -0.0821  -0.0824  -0.0834  -0.0851  -0.0878  -0.0917  -0.0974  -0.1062  -0.1221  -0.1221  
1.0  -0.0823  -0.0826  -0.0835  -0.0852  -0.0878  -0.0914  -0.0966  -0.1042  -0.1129  -0.1129  
2.0  -0.0824  -0.0827  -0.0836  -0.0851  -0.0875  -0.0907  -0.0949  -0.1049  -0.1062  -0.1062  
3.0  -0.0823  -0.0826  -0.0834  -0.0848  -0.0869  -0.0895  -0.0918  -0.1010  -0.1020  -0.1020  
4.0  -0.0821  -0.0824  -0.0831  -0.0843  -0.0859  -0.0874  -0.0862  -0.0866  -0.0999  -0.0999  
5.0  -0.0817  -0.0819  -0.0824  -0.0833  -0.0842  -0.0843  -0.0760  -0.0776  -0.0995  -0.0995  
6.0  -0.0810  -0.0812  -0.0815  -0.0820  -0.0820  -0.0796  -0.0664  -0.0726  -0.1001  -0.1001  
7.0  -0.0801  -0.0802  -0.0802  -0.0801  -0.0787  -0.0714  -0.0543  -0.0708  -0.1014  -0.1014  
8.0  -0.0784  -0.0783  -0.0779  -0.0767  -0.0730  -0.0554  -0.0398  -0.0710  -0.1030  -0.1030  
9.0  -0.0754  -0.0752  -0.0740  -0.0716  -0.0625  -0.0386  -0.0422  -0.0734  -0.1052  -0.1052  
10.0  -0.0715  -0.0710  -0.0693  -0.0643  -0.0469  -0.0277  -0.0510  -0.0767  -0.1075  -0.1075  
11.0  -0.0661  -0.0653  -0.0618  -0.0534  -0.0347  -0.0269  -0.0609  -0.0814  -0.1102  -0.1102  
12.0  -0.0586  -0.0572  -0.0509  -0.0427  -0.0309  -0.0453  -0.0671  -0.0876  -0.1133  -0.1133  
13.0  -0.0480  -0.0470  -0.0428  -0.0340  -0.0355  -0.0631  -0.0735  -0.0934  -0.1172  -0.1172  
14.0  -0.0382  -0.0375  -0.0350  -0.0326  -0.0455  -0.0792  -0.0822  -0.0978  -0.1212  -0.1212  
15.0  -0.0346  -0.0345  -0.0338  -0.0390  -0.0600  -0.0936  -0.0906  -0.1024  -0.1267  -0.1267  
16.0  -0.0380  -0.0388  -0.0399  -0.0496  -0.0744  -0.1062  -0.0968  -0.1062  -0.1324  -0.1324  
17.0  -0.0465  -0.0473  -0.0506  -0.0616  -0.0881  -0.1169  -0.1031  -0.1112  -0.1362  -0.1362  
18.0  -0.0568  -0.0578  -0.0621  -0.0725  -0.1011  -0.1236  -0.1097  -0.1175  -0.1374  -0.1374  
19.0  -0.0666  -0.0682  -0.0734  -0.0830  -0.1133  -0.1302  -0.1165  -0.1250  -0.1392  -0.1392  
20.0  -0.0764  -0.0775  -0.0833  -0.0995  -0.1249  -0.1368  -0.1235  -0.1336  -0.1421  -0.1421  
22.0  -0.1040  -0.1062  -0.1183  -0.1297  -0.1457  -0.1498  -0.1381  -0.1498  -0.1506  -0.1506  
24.0  -0.1379  -0.1401  -0.1490  -0.1568  -0.1634  -0.1627  -0.1534  -0.1627  -0.1627  -0.1627  
26.0  -0.1681  -0.1690  -0.1753  -0.1753  -0.1781  -0.1753  -0.1692  -0.1753  -0.1753  -0.1753  
28.0  -0.1878  -0.1878  -0.1878  -0.1878  -0.1895  -0.1878  -0.1856  -0.1878  -0.1878  -0.1878  
30.0  -0.2000  -0.2000  -0.2000  -0.2000  -0.2000  -0.2000  -0.2000  -0.2000  -0.2000  -0.2000  
35.0  -0.2294  -0.2294  -0.2294  -0.2294  -0.2294  -0.2294  -0.2294  -0.2294  -0.2294  -0.2294  
40.0  -0.2571  -0.2571  -0.2571  -0.2571  -0.2571  -0.2571  -0.2571  -0.2571  -0.2571  -0.2571  
50.0  -0.3064  -0.3064  -0.3064  -0.3064  -0.3064  -0.3064  -0.3064  -0.3064  -0.3064  -0.3064  
60.0  -0.3464  -0.3464  -0.3464  -0.3464  -0.3464  -0.3464  -0.3464  -0.3464  -0.3464  -0.3464  
75.0  -0.3864  -0.3864  -0.3864  -0.3864  -0.3864  -0.3864  -0.3864  -0.3864  -0.3864  -0.3864  
90.0  -0.4000  -0.4000  -0.4000  -0.4000  -0.4000  -0.4000  -0.4000  -0.4000  -0.4000  -0.4000  
105.0  -0.3864  -0.3864  -0.3864  -0.3864  -0.3864  -0.3864  -0.3864  -0.3864  -0.3864  -0.3864  
120.0  -0.3464  -0.3464  -0.3464  -0.3464  -0.3464  -0.3464  -0.3464  -0.3464  -0.3464  -0.3464  
135.0  -0.2828  -0.2828  -0.2828  -0.2828  -0.2828  -0.2828  -0.2828  -0.2828  -0.2828  -0.2828  
150.0  -0.2000  -0.2000  -0.2000  -0.2000  -0.2000  -0.2000  -0.2000  -0.2000  -0.2000  -0.2000  
165.0  -0.1035  -0.1035  -0.1035  -0.1035  -0.1035  -0.1035  -0.1035  -0.1035  -0.1035  -0.1035  
180.0  -0.0000  -0.0000  -0.0000  -0.0000  -0.0000  -0.0000  -0.0000  -0.0000  -0.0000  -0.0000  
