1 0 0
0 1
0.158 0.158
COMMENT#1
2500000 0.200
Vahana4                       066106610661
        0.00    0.10    0.20    0.30    0.40    1.00    
-180.0  0.000   0.000   0.000   0.000   0.000   0.000   
-165.0  0.500   0.500   0.500   0.500   0.500   0.500   
-150.0  0.866   0.866   0.866   0.866   0.866   0.866   
-135.0  1.000   1.000   1.000   1.000   1.000   1.000   
-120.0  0.866   0.866   0.866   0.866   0.866   0.866   
-105.0  0.500   0.500   0.500   0.500   0.500   0.500   
-90.0  -0.000   -0.000   -0.000   -0.000   -0.000   -0.000   
-75.0  -0.500   -0.500   -0.500   -0.500   -0.500   -0.500   
-60.0  -0.866   -0.866   -0.866   -0.866   -0.866   -0.866   
-45.0  -1.000   -1.000   -1.000   -1.000   -1.000   -1.000   
-30.0  -0.866   -0.866   -0.866   -0.866   -0.866   -0.866   
-25.0  -0.766   -0.766   -0.766   -0.766   -0.766   -0.766   
-20.0  -0.643   -0.643   -0.643   -0.643   -0.643   -0.643   
-15.0  -0.500   -0.500   -0.500   -0.500   -0.500   -0.500   
-10.0  -0.553   -0.535   -0.573   -0.388   -0.274   -0.274   
-8.0  -0.417   -0.409   -0.416   -0.411   -0.351   -0.351   
-7.0  -0.316   -0.316   -0.319   -0.327   -0.292   -0.292   
-6.0  -0.211   -0.212   -0.215   -0.221   -0.219   -0.219   
-5.0  -0.104   -0.105   -0.107   -0.110   -0.116   -0.116   
-4.0  0.005   0.005   0.005   0.004   0.003   0.003   
-3.0  0.116   0.116   0.117   0.119   0.123   0.123   
-2.0  0.226   0.227   0.230   0.235   0.243   0.243   
-1.0  0.337   0.338   0.343   0.350   0.363   0.363   
0.0  0.447   0.449   0.455   0.465   0.482   0.482   
1.0  0.556   0.558   0.566   0.579   0.600   0.600   
2.0  0.664   0.667   0.676   0.692   0.715   0.715   
3.0  0.771   0.774   0.784   0.802   0.828   0.828   
4.0  0.876   0.880   0.891   0.909   0.936   0.936   
5.0  0.979   0.983   0.994   1.013   1.035   1.035   
6.0  1.078   1.082   1.093   1.109   1.115   1.115   
7.0  1.172   1.175   1.182   1.187   1.179   1.179   
8.0  1.253   1.254   1.256   1.252   1.228   1.228   
9.0  1.320   1.319   1.315   1.301   1.267   1.267   
10.0  1.373   1.371   1.361   1.340   1.301   1.301   
11.0  1.415   1.411   1.398   1.373   1.332   1.332   
12.0  1.449   1.444   1.428   1.401   1.361   1.361   
13.0  1.476   1.471   1.454   1.427   1.389   1.389   
14.0  1.500   1.495   1.478   1.450   1.414   1.414   
15.0  1.520   1.514   1.497   1.473   1.351   1.351   
16.0  1.538   1.533   1.518   1.394   1.288   1.288   
17.0  1.555   1.549   1.530   1.318   1.227   1.227   
18.0  1.560   1.556   1.539   1.244   1.167   1.167   
19.0  1.560   1.556   1.537   1.171   1.108   1.108   
20.0  1.528   1.534   1.529   1.101   1.050   1.050   
22.0  1.408   1.411   1.429   0.964   0.936   0.936   
24.0  1.189   1.191   1.204   0.832   0.823   0.823   
26.0  0.991   0.986   0.982   0.788   0.788   0.788   
28.0  0.886   0.880   0.870   0.829   0.829   0.829   
30.0  0.866   0.866   0.866   0.866   0.866   0.866   
35.0  0.940   0.940   0.940   0.940   0.940   0.940   
40.0  0.985   0.985   0.985   0.985   0.985   0.985   
50.0  0.985   0.985   0.985   0.985   0.985   0.985   
60.0  0.866   0.866   0.866   0.866   0.866   0.866   
75.0  0.500   0.500   0.500   0.500   0.500   0.500   
90.0  0.000   0.000   0.000   0.000   0.000   0.000   
105.0  -0.500   -0.500   -0.500   -0.500   -0.500   -0.500   
120.0  -0.866   -0.866   -0.866   -0.866   -0.866   -0.866   
135.0  -1.000   -1.000   -1.000   -1.000   -1.000   -1.000   
150.0  -0.866   -0.866   -0.866   -0.866   -0.866   -0.866   
165.0  -0.500   -0.500   -0.500   -0.500   -0.500   -0.500   
180.0  -0.000   -0.000   -0.000   -0.000   -0.000   -0.000   
        0.00    0.10    0.20    0.30    0.40    1.00    
-180.0  0.0000  0.0000  0.0000  0.0000  0.0000  0.0000  
-165.0  0.1206  0.1206  0.1206  0.1206  0.1206  0.1206  
-150.0  0.4500  0.4500  0.4500  0.4500  0.4500  0.4500  
-135.0  0.9000  0.9000  0.9000  0.9000  0.9000  0.9000  
-120.0  1.3500  1.3500  1.3500  1.3500  1.3500  1.3500  
-105.0  1.6794  1.6794  1.6794  1.6794  1.6794  1.6794  
-90.0  1.8000  1.8000  1.8000  1.8000  1.8000  1.8000  
-75.0  1.6794  1.6794  1.6794  1.6794  1.6794  1.6794  
-60.0  1.3500  1.3500  1.3500  1.3500  1.3500  1.3500  
-45.0  0.9000  0.9000  0.9000  0.9000  0.9000  0.9000  
-30.0  0.4500  0.4500  0.4500  0.4500  0.4500  0.4500  
-25.0  0.3215  0.3215  0.3215  0.3215  0.3215  0.3215  
-20.0  0.2106  0.2106  0.2106  0.2106  0.2106  0.2106  
-15.0  0.1206  0.1206  0.1206  0.1206  0.1206  0.1206  
-10.0  0.0253  0.0283  0.0242  0.0525  0.0666  0.0666  
-8.0  0.0138  0.0153  0.0152  0.0179  0.0318  0.0318  
-7.0  0.0122  0.0124  0.0127  0.0131  0.0178  0.0178  
-6.0  0.0112  0.0113  0.0114  0.0116  0.0121  0.0121  
-5.0  0.0105  0.0105  0.0106  0.0107  0.0109  0.0109  
-4.0  0.0102  0.0102  0.0102  0.0103  0.0104  0.0104  
-3.0  0.0101  0.0101  0.0101  0.0102  0.0103  0.0103  
-2.0  0.0101  0.0101  0.0101  0.0102  0.0103  0.0103  
-1.0  0.0102  0.0102  0.0102  0.0103  0.0104  0.0104  
0.0  0.0103  0.0103  0.0104  0.0105  0.0107  0.0107  
1.0  0.0106  0.0106  0.0107  0.0108  0.0110  0.0110  
2.0  0.0109  0.0109  0.0110  0.0112  0.0115  0.0115  
3.0  0.0113  0.0114  0.0115  0.0117  0.0121  0.0121  
4.0  0.0118  0.0119  0.0120  0.0123  0.0128  0.0128  
5.0  0.0124  0.0125  0.0127  0.0130  0.0138  0.0138  
6.0  0.0132  0.0132  0.0135  0.0140  0.0152  0.0152  
7.0  0.0141  0.0141  0.0145  0.0153  0.0176  0.0176  
8.0  0.0152  0.0153  0.0158  0.0173  0.0213  0.0213  
9.0  0.0167  0.0169  0.0179  0.0204  0.0260  0.0260  
10.0  0.0190  0.0194  0.0211  0.0246  0.0313  0.0313  
11.0  0.0224  0.0230  0.0252  0.0296  0.0370  0.0370  
12.0  0.0267  0.0275  0.0302  0.0351  0.0434  0.0434  
13.0  0.0318  0.0327  0.0357  0.0412  0.0504  0.0504  
14.0  0.0373  0.0384  0.0418  0.0480  0.0583  0.0583  
15.0  0.0436  0.0448  0.0486  0.0555  0.0718  0.0718  
16.0  0.0506  0.0519  0.0561  0.0712  0.0870  0.0870  
17.0  0.0583  0.0598  0.0648  0.0886  0.1037  0.1037  
18.0  0.0677  0.0692  0.0746  0.1081  0.1222  0.1222  
19.0  0.0787  0.0804  0.0866  0.1298  0.1428  0.1428  
20.0  0.0945  0.0951  0.1002  0.1541  0.1656  0.1656  
22.0  0.1410  0.1420  0.1440  0.2112  0.2191  0.2191  
24.0  0.2170  0.2178  0.2196  0.2811  0.2841  0.2841  
26.0  0.3014  0.3036  0.3075  0.3459  0.3459  0.3459  
28.0  0.3781  0.3802  0.3838  0.3967  0.3967  0.3967  
30.0  0.4500  0.4500  0.4500  0.4500  0.4500  0.4500  
35.0  0.5922  0.5922  0.5922  0.5922  0.5922  0.5922  
40.0  0.7437  0.7437  0.7437  0.7437  0.7437  0.7437  
50.0  1.0563  1.0563  1.0563  1.0563  1.0563  1.0563  
60.0  1.3500  1.3500  1.3500  1.3500  1.3500  1.3500  
75.0  1.6794  1.6794  1.6794  1.6794  1.6794  1.6794  
90.0  1.8000  1.8000  1.8000  1.8000  1.8000  1.8000  
105.0  1.6794  1.6794  1.6794  1.6794  1.6794  1.6794  
120.0  1.3500  1.3500  1.3500  1.3500  1.3500  1.3500  
135.0  0.9000  0.9000  0.9000  0.9000  0.9000  0.9000  
150.0  0.4500  0.4500  0.4500  0.4500  0.4500  0.4500  
165.0  0.1206  0.1206  0.1206  0.1206  0.1206  0.1206  
180.0  0.0000  0.0000  0.0000  0.0000  0.0000  0.0000  
        0.00    0.10    0.20    0.30    0.40    1.00    
-180.0  0.0000  0.0000  0.0000  0.0000  0.0000  0.0000  
-165.0  0.1035  0.1035  0.1035  0.1035  0.1035  0.1035  
-150.0  0.2000  0.2000  0.2000  0.2000  0.2000  0.2000  
-135.0  0.2828  0.2828  0.2828  0.2828  0.2828  0.2828  
-120.0  0.3464  0.3464  0.3464  0.3464  0.3464  0.3464  
-105.0  0.3864  0.3864  0.3864  0.3864  0.3864  0.3864  
-90.0  0.4000  0.4000  0.4000  0.4000  0.4000  0.4000  
-75.0  0.3864  0.3864  0.3864  0.3864  0.3864  0.3864  
-60.0  0.3464  0.3464  0.3464  0.3464  0.3464  0.3464  
-45.0  0.2828  0.2828  0.2828  0.2828  0.2828  0.2828  
-30.0  0.2000  0.2000  0.2000  0.2000  0.2000  0.2000  
-25.0  0.1690  0.1690  0.1690  0.1690  0.1690  0.1690  
-20.0  0.1368  0.1368  0.1368  0.1368  0.1368  0.1368  
-15.0  0.1035  0.1035  0.1035  0.1035  0.1035  0.1035  
-10.0  -0.0216  -0.0243  -0.0394  -0.0364  -0.0198  -0.0198  
-8.0  -0.0630  -0.0646  -0.0853  -0.0899  -0.0969  -0.0969  
-7.0  -0.0817  -0.0824  -0.0841  -0.0872  -0.0963  -0.0963  
-6.0  -0.0815  -0.0819  -0.0834  -0.0861  -0.0920  -0.0920  
-5.0  -0.0814  -0.0818  -0.0831  -0.0856  -0.0894  -0.0894  
-4.0  -0.0816  -0.0820  -0.0832  -0.0854  -0.0889  -0.0889  
-3.0  -0.0820  -0.0824  -0.0835  -0.0856  -0.0888  -0.0888  
-2.0  -0.0825  -0.0828  -0.0839  -0.0859  -0.0889  -0.0889  
-1.0  -0.0830  -0.0833  -0.0844  -0.0862  -0.0891  -0.0891  
0.0  -0.0835  -0.0838  -0.0848  -0.0866  -0.0893  -0.0893  
1.0  -0.0839  -0.0842  -0.0852  -0.0868  -0.0893  -0.0893  
2.0  -0.0843  -0.0846  -0.0855  -0.0870  -0.0891  -0.0891  
3.0  -0.0846  -0.0849  -0.0856  -0.0869  -0.0886  -0.0886  
4.0  -0.0847  -0.0849  -0.0855  -0.0865  -0.0873  -0.0873  
5.0  -0.0846  -0.0847  -0.0851  -0.0855  -0.0846  -0.0846  
6.0  -0.0841  -0.0841  -0.0841  -0.0834  -0.0796  -0.0796  
7.0  -0.0829  -0.0828  -0.0817  -0.0789  -0.0742  -0.0742  
8.0  -0.0798  -0.0793  -0.0774  -0.0739  -0.0692  -0.0692  
9.0  -0.0756  -0.0749  -0.0726  -0.0690  -0.0644  -0.0644  
10.0  -0.0709  -0.0701  -0.0679  -0.0646  -0.0600  -0.0600  
11.0  -0.0666  -0.0659  -0.0638  -0.0605  -0.0560  -0.0560  
12.0  -0.0628  -0.0622  -0.0601  -0.0568  -0.0526  -0.0526  
13.0  -0.0594  -0.0588  -0.0568  -0.0538  -0.0501  -0.0501  
14.0  -0.0566  -0.0560  -0.0541  -0.0515  -0.0483  -0.0483  
15.0  -0.0544  -0.0538  -0.0523  -0.0501  -0.0522  -0.0522  
16.0  -0.0530  -0.0525  -0.0513  -0.0553  -0.0576  -0.0576  
17.0  -0.0524  -0.0521  -0.0510  -0.0621  -0.0644  -0.0644  
18.0  -0.0525  -0.0523  -0.0516  -0.0704  -0.0726  -0.0726  
19.0  -0.0536  -0.0534  -0.0530  -0.0802  -0.0823  -0.0823  
20.0  -0.0558  -0.0558  -0.0556  -0.0914  -0.0933  -0.0933  
22.0  -0.0663  -0.0663  -0.0662  -0.1182  -0.1195  -0.1195  
24.0  -0.0950  -0.0948  -0.0948  -0.1507  -0.1512  -0.1512  
26.0  -0.1342  -0.1354  -0.1340  -0.1753  -0.1753  -0.1753  
28.0  -0.1694  -0.1706  -0.1690  -0.1878  -0.1878  -0.1878  
30.0  -0.2000  -0.2000  -0.2000  -0.2000  -0.2000  -0.2000  
35.0  -0.2294  -0.2294  -0.2294  -0.2294  -0.2294  -0.2294  
40.0  -0.2571  -0.2571  -0.2571  -0.2571  -0.2571  -0.2571  
50.0  -0.3064  -0.3064  -0.3064  -0.3064  -0.3064  -0.3064  
60.0  -0.3464  -0.3464  -0.3464  -0.3464  -0.3464  -0.3464  
75.0  -0.3864  -0.3864  -0.3864  -0.3864  -0.3864  -0.3864  
90.0  -0.4000  -0.4000  -0.4000  -0.4000  -0.4000  -0.4000  
105.0  -0.3864  -0.3864  -0.3864  -0.3864  -0.3864  -0.3864  
120.0  -0.3464  -0.3464  -0.3464  -0.3464  -0.3464  -0.3464  
135.0  -0.2828  -0.2828  -0.2828  -0.2828  -0.2828  -0.2828  
150.0  -0.2000  -0.2000  -0.2000  -0.2000  -0.2000  -0.2000  
165.0  -0.1035  -0.1035  -0.1035  -0.1035  -0.1035  -0.1035  
180.0  -0.0000  -0.0000  -0.0000  -0.0000  -0.0000  -0.0000  
