reference: curr_blade,
  reference, Hub, -0.2*sin(curr_phi*pi/180.), 0.2*cos(curr_phi*pi/180.), 0.,
  reference, Hub, euler313, degrees, curr_phi, 0., 0.,
  reference, Hub, null,
  reference, Hub, 0., 0., 0.;

