# Derivatives solution step at time 0 performed in 0 iterations with 6.54614e-17 error
# Key for lines starting with "Step":
# Step Time TStep NIter ResErr SolErr SolConv Out
Step 0 0 0 0 6.54614e-17 0 0 1
Step 1 0.001 0.001 2 2.35514e-06 0 0 1
Step 2 0.002 0.001 13 6.351285173034884e-07 0 0 1
Step 3 0.003 0.001 2 1.287994528578139e-06 0 0 1
Step 4 0.004 0.001 3 7.761375569318945e-07 0 0 1
Step 5 0.005 0.001 2 8.369441834117305e-07 0 0 1
Step 6 0.006 0.001 3 6.934755465651486e-07 0 0 1
Step 7 0.007 0.001 2 6.810286189043866e-07 0 0 1
Step 8 0.008 0.001 3 7.068488441390803e-07 0 0 1
Step 9 0.009000000000000001 0.001 2 6.279766680649099e-07 0 0 1
Step 10 0.01 0.001 8 1.272360421496317e-06 0 0 1
Step 11 0.011 0.001 2 9.339735139485507e-07 0 0 1
Step 12 0.012 0.001 8 1.08027865305642e-06 0 0 1
Step 13 0.013 0.001 2 7.214563925498253e-07 0 0 1
Step 14 0.01400000000000001 0.001 3 9.961033282928865e-07 0 0 1
Step 15 0.01500000000000001 0.001 2 7.915294067140648e-07 0 0 1
Step 16 0.01600000000000001 0.001 3 6.996072149372816e-07 0 0 1
Step 17 0.01700000000000001 0.001 2 4.966040048329255e-07 0 0 1
Step 18 0.01800000000000001 0.001 6 1.237046036149738e-06 0 0 1
Step 19 0.01900000000000001 0.001 2 7.187158883047148e-07 0 0 1
Step 20 0.02000000000000001 0.001 3 6.564148714655807e-07 0 0 1
Step 21 0.02100000000000001 0.001 2 6.219875104679069e-07 0 0 1
Step 22 0.02200000000000001 0.001 2 1.126499046503045e-06 0 0 1
Step 23 0.02300000000000001 0.001 2 8.030017420145262e-07 0 0 1
Step 24 0.02400000000000001 0.001 2 8.060256285207472e-07 0 0 1
Step 25 0.02500000000000002 0.001 2 7.432025583509148e-07 0 0 1
Step 26 0.02600000000000002 0.001 4 8.190149034446944e-07 0 0 1
Step 27 0.02700000000000002 0.001 2 6.516569089125684e-07 0 0 1
Step 28 0.02800000000000002 0.001 2 5.035950151429598e-07 0 0 1
Step 29 0.02900000000000002 0.001 2 8.289182415413337e-07 0 0 1
Step 30 0.03000000000000002 0.001 2 7.375494641484457e-07 0 0 1
Step 31 0.03100000000000002 0.001 2 5.04465858723445e-07 0 0 1
Step 32 0.03200000000000002 0.001 2 6.712717735210737e-07 0 0 1
Step 33 0.03300000000000002 0.001 2 9.147614479280932e-07 0 0 1
Step 34 0.03400000000000002 0.001 2 6.81358150674213e-07 0 0 1
Step 35 0.03500000000000002 0.001 2 6.916271177237539e-07 0 0 1
Step 36 0.03600000000000003 0.001 2 7.700238894291577e-07 0 0 1
Step 37 0.03700000000000003 0.001 2 6.349882517887095e-07 0 0 1
Step 38 0.03800000000000003 0.001 2 8.19551910450145e-07 0 0 1
Step 39 0.03900000000000003 0.001 2 5.66546148822229e-07 0 0 1
Step 40 0.04000000000000003 0.001 2 6.019259709981938e-07 0 0 1
Step 41 0.04100000000000003 0.001 2 8.839630731614856e-07 0 0 1
Step 42 0.04200000000000003 0.001 2 9.261852687014045e-07 0 0 1
Step 43 0.04300000000000003 0.001 2 1.136504144769083e-06 0 0 1
Step 44 0.04400000000000003 0.001 2 7.845245599209172e-07 0 0 1
Step 45 0.04500000000000003 0.001 2 6.405074364393596e-07 0 0 1
Step 46 0.04600000000000003 0.001 2 7.529124211138769e-07 0 0 1
Step 47 0.04700000000000003 0.001 2 6.976681749484256e-07 0 0 1
Step 48 0.04800000000000004 0.001 2 4.483323605714321e-07 0 0 1
Step 49 0.04900000000000004 0.001 2 8.888956122690644e-07 0 0 1
Step 50 0.05000000000000004 0.001 2 1.052327169919228e-06 0 0 1
Step 51 0.05100000000000004 0.001 2 7.142734210075975e-07 0 0 1
Step 52 0.05200000000000004 0.001 2 8.900623491565232e-07 0 0 1
Step 53 0.05300000000000004 0.001 2 6.990787176140438e-07 0 0 1
Step 54 0.05400000000000004 0.001 2 6.762003578990472e-07 0 0 1
Step 55 0.05500000000000004 0.001 2 8.193023087758047e-07 0 0 1
Step 56 0.05600000000000004 0.001 2 6.473415524202283e-07 0 0 1
Step 57 0.05700000000000004 0.001 2 7.127562998247467e-07 0 0 1
Step 58 0.05800000000000004 0.001 2 7.046739798048308e-07 0 0 1
Step 59 0.05900000000000005 0.001 2 9.523122056732183e-07 0 0 1
Step 60 0.06000000000000005 0.001 2 5.403967118665709e-07 0 0 1
Step 61 0.06100000000000005 0.001 2 7.38991908862411e-07 0 0 1
Step 62 0.06200000000000005 0.001 2 6.28594185534923e-07 0 0 1
Step 63 0.06300000000000004 0.001 2 5.612681201695624e-07 0 0 1
Step 64 0.06400000000000004 0.001 2 7.815189028293503e-07 0 0 1
Step 65 0.06500000000000004 0.001 2 5.896055139077622e-07 0 0 1
Step 66 0.06600000000000004 0.001 2 6.962227180063166e-07 0 0 1
Step 67 0.06700000000000005 0.001 2 6.960906020206481e-07 0 0 1
Step 68 0.06800000000000005 0.001 2 8.297672385265101e-07 0 0 1
Step 69 0.06900000000000005 0.001 2 6.708807344393359e-07 0 0 1
Step 70 0.07000000000000005 0.001 2 6.505515939016538e-07 0 0 1
Step 71 0.07100000000000005 0.001 2 8.061647817238677e-07 0 0 1
Step 72 0.07200000000000005 0.001 2 8.192265867635794e-07 0 0 1
Step 73 0.07300000000000005 0.001 2 7.223393395519281e-07 0 0 1
Step 74 0.07400000000000005 0.001 2 5.678130466856395e-07 0 0 1
Step 75 0.07500000000000005 0.001 2 7.627040328327929e-07 0 0 1
Step 76 0.07600000000000005 0.001 2 6.973726591910224e-07 0 0 1
Step 77 0.07700000000000005 0.001 2 5.919453978673626e-07 0 0 1
Step 78 0.07800000000000006 0.001 2 6.411662851195323e-07 0 0 1
Step 79 0.07900000000000006 0.001 2 8.252320439501992e-07 0 0 1
Step 80 0.08000000000000006 0.001 2 6.81673410705294e-07 0 0 1
Step 81 0.08100000000000006 0.001 2 5.214627363669429e-07 0 0 1
Step 82 0.08200000000000006 0.001 2 6.575460158900949e-07 0 0 1
Step 83 0.08300000000000006 0.001 2 6.084580418365852e-07 0 0 1
Step 84 0.08400000000000006 0.001 2 8.629239631761592e-07 0 0 1
Step 85 0.08500000000000006 0.001 2 6.299621113518388e-07 0 0 1
Step 86 0.08600000000000006 0.001 2 6.816556374392011e-07 0 0 1
Step 87 0.08700000000000006 0.001 2 6.227535394997122e-07 0 0 1
Step 88 0.08800000000000006 0.001 2 7.893765037959414e-07 0 0 1
Step 89 0.08900000000000007 0.001 2 5.937191911866436e-07 0 0 1
Step 90 0.09000000000000007 0.001 2 6.875017812149664e-07 0 0 1
Step 91 0.09100000000000007 0.001 2 5.269931622217645e-07 0 0 1
Step 92 0.09200000000000007 0.001 2 5.624182258612012e-07 0 0 1
Step 93 0.09300000000000007 0.001 2 4.705989180934807e-07 0 0 1
Step 94 0.09400000000000007 0.001 2 5.724800098973563e-07 0 0 1
Step 95 0.09500000000000007 0.001 2 7.358469598439449e-07 0 0 1
Step 96 0.09600000000000007 0.001 2 6.814831728363792e-07 0 0 1
Step 97 0.09700000000000007 0.001 2 5.8810165003176e-07 0 0 1
Step 98 0.09800000000000007 0.001 2 9.528140826124356e-07 0 0 1
Step 99 0.09900000000000007 0.001 2 4.903214464433589e-07 0 0 1
Step 100 0.1000000000000001 0.001 2 6.843358780371286e-07 0 0 1
Step 101 0.1010000000000001 0.001 2 8.222546085705442e-07 0 0 1
Step 102 0.1020000000000001 0.001 2 7.618941915945647e-07 0 0 1
Step 103 0.1030000000000001 0.001 2 9.96069650122142e-07 0 0 1
Step 104 0.1040000000000001 0.001 2 6.835987452936328e-07 0 0 1
Step 105 0.1050000000000001 0.001 2 5.401555693820716e-07 0 0 1
Step 106 0.1060000000000001 0.001 2 6.710765863194234e-07 0 0 1
Step 107 0.1070000000000001 0.001 2 7.760328684171015e-07 0 0 1
Step 108 0.1080000000000001 0.001 2 8.326241703623396e-07 0 0 1
Step 109 0.1090000000000001 0.001 2 6.858236970213525e-07 0 0 1
Step 110 0.1100000000000001 0.001 2 8.530173603666251e-07 0 0 1
Step 111 0.1110000000000001 0.001 2 7.930044382391277e-07 0 0 1
Step 112 0.1120000000000001 0.001 2 8.149300366963929e-07 0 0 1
Step 113 0.1130000000000001 0.001 2 4.207934778107759e-07 0 0 1
Step 114 0.1140000000000001 0.001 2 7.768841956677819e-07 0 0 1
Step 115 0.1150000000000001 0.001 2 9.022033380106523e-07 0 0 1
Step 116 0.1160000000000001 0.001 2 7.281020757274797e-07 0 0 1
Step 117 0.1170000000000001 0.001 2 7.129568338603216e-07 0 0 1
Step 118 0.1180000000000001 0.001 2 8.08866627940403e-07 0 0 1
Step 119 0.1190000000000001 0.001 2 4.421474016915789e-07 0 0 1
Step 120 0.1200000000000001 0.001 2 9.023472709664075e-07 0 0 1
Step 121 0.1210000000000001 0.001 2 7.048671122889597e-07 0 0 1
Step 122 0.1220000000000001 0.001 2 6.783192654167928e-07 0 0 1
Step 123 0.1230000000000001 0.001 2 7.339464474818901e-07 0 0 1
Step 124 0.1240000000000001 0.001 2 5.224474071581814e-07 0 0 1
Step 125 0.1250000000000001 0.001 2 7.126649333259707e-07 0 0 1
Step 126 0.1260000000000001 0.001 2 6.193911635332894e-07 0 0 1
Step 127 0.1270000000000001 0.001 2 9.210692708545051e-07 0 0 1
Step 128 0.1280000000000001 0.001 2 7.358366094717556e-07 0 0 1
Step 129 0.1290000000000001 0.001 2 7.564268687472366e-07 0 0 1
Step 130 0.1300000000000001 0.001 2 7.50393689291007e-07 0 0 1
Step 131 0.1310000000000001 0.001 2 7.028413372565649e-07 0 0 1
Step 132 0.1320000000000001 0.001 2 5.453067153036771e-07 0 0 1
Step 133 0.1330000000000001 0.001 2 6.706854794344991e-07 0 0 1
Step 134 0.1340000000000001 0.001 2 5.426445465935092e-07 0 0 1
Step 135 0.1350000000000001 0.001 2 7.117340139827996e-07 0 0 1
Step 136 0.1360000000000001 0.001 2 6.511168945248191e-07 0 0 1
Step 137 0.1370000000000001 0.001 2 8.097418555669924e-07 0 0 1
Step 138 0.1380000000000001 0.001 2 8.697956620919783e-07 0 0 1
Step 139 0.1390000000000001 0.001 2 6.585782239715617e-07 0 0 1
Step 140 0.1400000000000001 0.001 2 1.089529482177661e-06 0 0 1
Step 141 0.1410000000000001 0.001 2 5.709147235785319e-07 0 0 1
Step 142 0.1420000000000001 0.001 2 8.457673784693267e-07 0 0 1
Step 143 0.1430000000000001 0.001 2 9.206763673464431e-07 0 0 1
Step 144 0.1440000000000001 0.001 2 7.336129529836628e-07 0 0 1
Step 145 0.1450000000000001 0.001 2 7.216551474873525e-07 0 0 1
Step 146 0.1460000000000001 0.001 2 8.335499496632564e-07 0 0 1
Step 147 0.1470000000000001 0.001 2 6.533285412109223e-07 0 0 1
Step 148 0.1480000000000001 0.001 2 6.988031025425669e-07 0 0 1
Step 149 0.1490000000000001 0.001 2 6.782932393641591e-07 0 0 1
Step 150 0.1500000000000001 0.001 2 8.632282312256311e-07 0 0 1
Step 151 0.1510000000000001 0.001 2 6.236310190033569e-07 0 0 1
Step 152 0.1520000000000001 0.001 2 8.517969751005956e-07 0 0 1
Step 153 0.1530000000000001 0.001 2 6.371728261555808e-07 0 0 1
Step 154 0.1540000000000001 0.001 2 9.095738288119679e-07 0 0 1
Step 155 0.1550000000000001 0.001 2 8.060898927580005e-07 0 0 1
Step 156 0.1560000000000001 0.001 2 6.554416048163306e-07 0 0 1
Step 157 0.1570000000000001 0.001 2 8.251192055737654e-07 0 0 1
Step 158 0.1580000000000001 0.001 2 5.735200140934851e-07 0 0 1
Step 159 0.1590000000000001 0.001 2 6.843812873519164e-07 0 0 1
Step 160 0.1600000000000001 0.001 2 6.696861494547641e-07 0 0 1
Step 161 0.1610000000000001 0.001 2 7.430188976108484e-07 0 0 1
Step 162 0.1620000000000001 0.001 2 9.790163270680531e-07 0 0 1
Step 163 0.1630000000000001 0.001 2 8.584972508080289e-07 0 0 1
Step 164 0.1640000000000001 0.001 2 1.058680157657746e-06 0 0 1
Step 165 0.1650000000000001 0.001 2 6.168033737635901e-07 0 0 1
Step 166 0.1660000000000001 0.001 2 8.493171092321255e-07 0 0 1
Step 167 0.1670000000000001 0.001 2 7.529142688793382e-07 0 0 1
Step 168 0.1680000000000001 0.001 2 8.44478493530982e-07 0 0 1
Step 169 0.1690000000000001 0.001 2 5.778597880743075e-07 0 0 1
Step 170 0.1700000000000001 0.001 2 7.639648801286211e-07 0 0 1
Step 171 0.1710000000000001 0.001 2 8.870223357950115e-07 0 0 1
Step 172 0.1720000000000001 0.001 2 9.246611053760228e-07 0 0 1
Step 173 0.1730000000000001 0.001 2 1.237870957506262e-06 0 0 1
Step 174 0.1740000000000001 0.001 2 6.275631805719946e-07 0 0 1
Step 175 0.1750000000000001 0.001 2 9.05653842119409e-07 0 0 1
Step 176 0.1760000000000001 0.001 2 6.649147187847301e-07 0 0 1
Step 177 0.1770000000000001 0.001 2 7.742598002068328e-07 0 0 1
Step 178 0.1780000000000001 0.001 2 1.076280231660976e-06 0 0 1
Step 179 0.1790000000000001 0.001 2 9.097324074004556e-07 0 0 1
Step 180 0.1800000000000001 0.001 2 7.363801265164189e-07 0 0 1
Step 181 0.1810000000000001 0.001 2 6.171605862485233e-07 0 0 1
Step 182 0.1820000000000001 0.001 2 7.532169964605696e-07 0 0 1
Step 183 0.1830000000000001 0.001 2 6.020283798176113e-07 0 0 1
Step 184 0.1840000000000001 0.001 2 5.343325437776705e-07 0 0 1
Step 185 0.1850000000000001 0.001 2 7.398266221927606e-07 0 0 1
Step 186 0.1860000000000001 0.001 2 1.113828665732649e-06 0 0 1
Step 187 0.1870000000000001 0.001 2 8.324241760459052e-07 0 0 1
Step 188 0.1880000000000001 0.001 2 9.106358373183836e-07 0 0 1
Step 189 0.1890000000000001 0.001 2 8.535653223679946e-07 0 0 1
Step 190 0.1900000000000001 0.001 2 8.886462089356612e-07 0 0 1
Step 191 0.1910000000000001 0.001 2 8.31605533450534e-07 0 0 1
Step 192 0.1920000000000001 0.001 2 6.298537939674445e-07 0 0 1
Step 193 0.1930000000000001 0.001 2 9.225346190176386e-07 0 0 1
Step 194 0.1940000000000001 0.001 2 1.051520715093475e-06 0 0 1
Step 195 0.1950000000000001 0.001 2 7.602098456727389e-07 0 0 1
Step 196 0.1960000000000001 0.001 2 9.344452525410029e-07 0 0 1
Step 197 0.1970000000000001 0.001 2 9.935717777128834e-07 0 0 1
Step 198 0.1980000000000001 0.001 2 9.475157088954567e-07 0 0 1
Step 199 0.1990000000000001 0.001 2 7.581816904599632e-07 0 0 1
Step 200 0.2000000000000001 0.001 2 8.524008067659315e-07 0 0 1
Step 201 0.2010000000000002 0.001 2 5.439545316093732e-07 0 0 1
Step 202 0.2020000000000002 0.001 2 9.907742365453764e-07 0 0 1
Step 203 0.2030000000000002 0.001 2 7.400775962953191e-07 0 0 1
Step 204 0.2040000000000002 0.001 2 6.797356822700825e-07 0 0 1
Step 205 0.2050000000000002 0.001 2 6.339511684023914e-07 0 0 1
Step 206 0.2060000000000002 0.001 2 5.996102813786257e-07 0 0 1
Step 207 0.2070000000000002 0.001 2 8.637114392206962e-07 0 0 1
Step 208 0.2080000000000002 0.001 2 7.120931129236142e-07 0 0 1
Step 209 0.2090000000000002 0.001 2 9.542287510599656e-07 0 0 1
Step 210 0.2100000000000002 0.001 2 8.102896784375854e-07 0 0 1
Step 211 0.2110000000000002 0.001 3 7.064286474848133e-07 0 0 1
Step 212 0.2120000000000002 0.001 2 6.356467478689363e-07 0 0 1
Step 213 0.2130000000000002 0.001 3 7.520331008043703e-07 0 0 1
Step 214 0.2140000000000002 0.001 2 8.865903440094399e-07 0 0 1
Step 215 0.2150000000000002 0.001 3 4.844319673780424e-07 0 0 1
Step 216 0.2160000000000002 0.001 2 7.406222493059756e-07 0 0 1
Step 217 0.2170000000000002 0.001 3 8.851747842712982e-07 0 0 1
Step 218 0.2180000000000002 0.001 2 6.414758947201683e-07 0 0 1
Step 219 0.2190000000000002 0.001 3 6.45777476533151e-07 0 0 1
Step 220 0.2200000000000002 0.001 2 6.059945504661196e-07 0 0 1
Step 221 0.2210000000000002 0.001 3 6.42740218946382e-07 0 0 1
Step 222 0.2220000000000002 0.001 2 7.555003486831934e-07 0 0 1
Step 223 0.2230000000000002 0.001 3 6.066036440657474e-07 0 0 1
Step 224 0.2240000000000002 0.001 2 5.707711327538756e-07 0 0 1
Step 225 0.2250000000000002 0.001 2 8.81552597106507e-07 0 0 1
Step 226 0.2260000000000002 0.001 6 7.201609574954935e-07 0 0 1
Step 227 0.2270000000000002 0.001 2 9.256955831135143e-07 0 0 1
Step 228 0.2280000000000002 0.001 3 6.740121224370181e-07 0 0 1
Step 229 0.2290000000000002 0.001 2 7.405274781062549e-07 0 0 1
Step 230 0.2300000000000002 0.001 2 8.466834875768974e-07 0 0 1
Step 231 0.2310000000000002 0.001 2 6.338547302914637e-07 0 0 1
Step 232 0.2320000000000002 0.001 2 8.507066823413877e-07 0 0 1
Step 233 0.2330000000000002 0.001 2 7.267409949298893e-07 0 0 1
Step 234 0.2340000000000002 0.001 2 7.653657806576557e-07 0 0 1
Step 235 0.2350000000000002 0.001 2 7.188161378725892e-07 0 0 1
Step 236 0.2360000000000002 0.001 2 6.610407110585286e-07 0 0 1
Step 237 0.2370000000000002 0.001 2 7.184931991033556e-07 0 0 1
Step 238 0.2380000000000002 0.001 2 7.264138370764473e-07 0 0 1
Step 239 0.2390000000000002 0.001 2 8.151131438923682e-07 0 0 1
Step 240 0.2400000000000002 0.001 2 5.720028768744667e-07 0 0 1
Step 241 0.2410000000000002 0.001 2 8.541192657253263e-07 0 0 1
Step 242 0.2420000000000002 0.001 2 9.929104763185883e-07 0 0 1
Step 243 0.2430000000000002 0.001 2 6.728314822706048e-07 0 0 1
Step 244 0.2440000000000002 0.001 2 6.634521717032465e-07 0 0 1
Step 245 0.2450000000000002 0.001 2 8.704299756714267e-07 0 0 1
Step 246 0.2460000000000002 0.001 2 7.883082681597367e-07 0 0 1
Step 247 0.2470000000000002 0.001 2 7.861992476343778e-07 0 0 1
Step 248 0.2480000000000002 0.001 2 1.094625873756192e-06 0 0 1
Step 249 0.2490000000000002 0.001 2 7.731235087245436e-07 0 0 1
Step 250 0.2500000000000002 0.001 3 7.096161481869936e-07 0 0 1
Step 251 0.2510000000000002 0.001 2 8.050653851519037e-07 0 0 1
Step 252 0.2520000000000002 0.001 2 9.441075960127017e-07 0 0 1
Step 253 0.2530000000000002 0.001 2 1.059044221351813e-06 0 0 1
Step 254 0.2540000000000002 0.001 2 8.838031460998916e-07 0 0 1
Step 255 0.2550000000000002 0.001 2 8.052269287337938e-07 0 0 1
Step 256 0.2560000000000002 0.001 2 6.494395302756573e-07 0 0 1
Step 257 0.2570000000000002 0.001 2 7.275431707478297e-07 0 0 1
Step 258 0.2580000000000002 0.001 3 8.000528904685898e-07 0 0 1
Step 259 0.2590000000000002 0.001 2 6.55788416892749e-07 0 0 1
Step 260 0.2600000000000002 0.001 2 8.393680825111191e-07 0 0 1
Step 261 0.2610000000000002 0.001 2 9.343276121476815e-07 0 0 1
Step 262 0.2620000000000002 0.001 2 8.123241796369469e-07 0 0 1
Step 263 0.2630000000000002 0.001 2 9.213175360786685e-07 0 0 1
Step 264 0.2640000000000002 0.001 2 8.115676555524387e-07 0 0 1
Step 265 0.2650000000000002 0.001 2 8.293470784695358e-07 0 0 1
Step 266 0.2660000000000002 0.001 3 1.096072206348751e-06 0 0 1
Step 267 0.2670000000000002 0.001 2 6.718301853062219e-07 0 0 1
Step 268 0.2680000000000002 0.001 2 9.903716710741922e-07 0 0 1
Step 269 0.2690000000000002 0.001 2 1.181351808706329e-06 0 0 1
Step 270 0.2700000000000002 0.001 2 8.03439462037985e-07 0 0 1
Step 271 0.2710000000000002 0.001 2 8.016784247339648e-07 0 0 1
Step 272 0.2720000000000002 0.001 2 7.004094585897954e-07 0 0 1
Step 273 0.2730000000000002 0.001 2 7.426375053743178e-07 0 0 1
Step 274 0.2740000000000002 0.001 3 8.00924110872529e-07 0 0 1
Step 275 0.2750000000000002 0.001 2 6.69995455056105e-07 0 0 1
Step 276 0.2760000000000002 0.001 2 8.724402182013812e-07 0 0 1
Step 277 0.2770000000000002 0.001 2 8.628080669527139e-07 0 0 1
Step 278 0.2780000000000002 0.001 2 8.936770217198358e-07 0 0 1
Step 279 0.2790000000000002 0.001 2 6.832162192158576e-07 0 0 1
Step 280 0.2800000000000002 0.001 2 8.410446406988634e-07 0 0 1
Step 281 0.2810000000000002 0.001 2 7.680959034515743e-07 0 0 1
Step 282 0.2820000000000002 0.001 3 7.648541614958462e-07 0 0 1
Step 283 0.2830000000000002 0.001 2 5.659824802441607e-07 0 0 1
Step 284 0.2840000000000002 0.001 2 9.19643276846369e-07 0 0 1
Step 285 0.2850000000000002 0.001 2 1.282687052609795e-06 0 0 1
Step 286 0.2860000000000002 0.001 2 7.349224848454422e-07 0 0 1
Step 287 0.2870000000000002 0.001 2 6.561182677253339e-07 0 0 1
Step 288 0.2880000000000002 0.001 2 6.97333915884066e-07 0 0 1
Step 289 0.2890000000000002 0.001 2 7.603506813256368e-07 0 0 1
Step 290 0.2900000000000002 0.001 2 9.166553366727449e-07 0 0 1
Step 291 0.2910000000000002 0.001 2 7.798392864138308e-07 0 0 1
Step 292 0.2920000000000002 0.001 2 7.346442121824377e-07 0 0 1
Step 293 0.2930000000000002 0.001 2 6.820281196850549e-07 0 0 1
Step 294 0.2940000000000002 0.001 2 7.547352609540294e-07 0 0 1
Step 295 0.2950000000000002 0.001 2 5.546844456743568e-07 0 0 1
Step 296 0.2960000000000002 0.001 2 6.073295348135115e-07 0 0 1
Step 297 0.2970000000000002 0.001 2 8.466315218798627e-07 0 0 1
Step 298 0.2980000000000002 0.001 2 8.970466234012595e-07 0 0 1
Step 299 0.2990000000000002 0.001 2 8.119869224808568e-07 0 0 1
Step 300 0.3000000000000002 0.001 2 8.935593059336955e-07 0 0 1
Step 301 0.3010000000000002 0.001 2 7.489867409265867e-07 0 0 1
Step 302 0.3020000000000002 0.001 2 7.408332320358736e-07 0 0 1
Step 303 0.3030000000000002 0.001 2 7.410186725229626e-07 0 0 1
Step 304 0.3040000000000002 0.001 2 1.015775480988837e-06 0 0 1
Step 305 0.3050000000000002 0.001 2 5.611034227207053e-07 0 0 1
Step 306 0.3060000000000002 0.001 2 8.124760028797858e-07 0 0 1
Step 307 0.3070000000000002 0.001 2 6.948696785612712e-07 0 0 1
Step 308 0.3080000000000002 0.001 2 6.821535340124708e-07 0 0 1
Step 309 0.3090000000000002 0.001 2 1.011672271712536e-06 0 0 1
Step 310 0.3100000000000002 0.001 2 8.632744473920086e-07 0 0 1
Step 311 0.3110000000000002 0.001 2 7.470186819106747e-07 0 0 1
Step 312 0.3120000000000002 0.001 2 8.760988607257325e-07 0 0 1
Step 313 0.3130000000000002 0.001 2 8.876446918189288e-07 0 0 1
Step 314 0.3140000000000002 0.001 2 8.382472155784309e-07 0 0 1
Step 315 0.3150000000000002 0.001 2 8.05979688530707e-07 0 0 1
Step 316 0.3160000000000002 0.001 2 8.712118430962347e-07 0 0 1
Step 317 0.3170000000000002 0.001 2 8.810997471881571e-07 0 0 1
Step 318 0.3180000000000002 0.001 2 5.916635950765379e-07 0 0 1
Step 319 0.3190000000000002 0.001 2 6.721969795182838e-07 0 0 1
Step 320 0.3200000000000002 0.001 2 8.555572587156287e-07 0 0 1
Step 321 0.3210000000000002 0.001 2 6.044206695829403e-07 0 0 1
Step 322 0.3220000000000002 0.001 2 8.417764847806342e-07 0 0 1
Step 323 0.3230000000000002 0.001 2 7.793181846521494e-07 0 0 1
Step 324 0.3240000000000002 0.001 2 6.315214028540601e-07 0 0 1
Step 325 0.3250000000000002 0.001 2 1.032570505307925e-06 0 0 1
Step 326 0.3260000000000002 0.001 2 6.038925004381599e-07 0 0 1
Step 327 0.3270000000000002 0.001 2 8.022735871360255e-07 0 0 1
Step 328 0.3280000000000002 0.001 2 8.682104169513277e-07 0 0 1
Step 329 0.3290000000000002 0.001 2 6.997820840413727e-07 0 0 1
Step 330 0.3300000000000002 0.001 2 6.539471576973898e-07 0 0 1
Step 331 0.3310000000000002 0.001 2 7.030665061072579e-07 0 0 1
Step 332 0.3320000000000002 0.001 2 7.328670008470464e-07 0 0 1
Step 333 0.3330000000000002 0.001 2 7.905667196421837e-07 0 0 1
Step 334 0.3340000000000002 0.001 2 6.517349137824117e-07 0 0 1
Step 335 0.3350000000000002 0.001 2 9.342418300538892e-07 0 0 1
Step 336 0.3360000000000002 0.001 2 5.965320517889449e-07 0 0 1
Step 337 0.3370000000000002 0.001 2 6.402244350466683e-07 0 0 1
Step 338 0.3380000000000002 0.001 2 9.760297900771502e-07 0 0 1
Step 339 0.3390000000000002 0.001 2 7.304422748376494e-07 0 0 1
Step 340 0.3400000000000002 0.001 2 6.889601105504031e-07 0 0 1
Step 341 0.3410000000000002 0.001 2 6.91639594779754e-07 0 0 1
Step 342 0.3420000000000002 0.001 2 6.402739290932979e-07 0 0 1
Step 343 0.3430000000000002 0.001 2 7.202670608329341e-07 0 0 1
Step 344 0.3440000000000003 0.001 2 6.627091373009818e-07 0 0 1
Step 345 0.3450000000000003 0.001 2 5.103503880066144e-07 0 0 1
Step 346 0.3460000000000003 0.001 2 9.260994407784944e-07 0 0 1
Step 347 0.3470000000000003 0.001 2 7.126876255500631e-07 0 0 1
Step 348 0.3480000000000003 0.001 2 6.701170927585793e-07 0 0 1
Step 349 0.3490000000000003 0.001 2 5.96246937186874e-07 0 0 1
Step 350 0.3500000000000003 0.001 2 6.950379395965893e-07 0 0 1
Step 351 0.3510000000000003 0.001 2 6.13344041349232e-07 0 0 1
Step 352 0.3520000000000003 0.001 2 6.865035019870606e-07 0 0 1
Step 353 0.3530000000000003 0.001 2 5.518928758002607e-07 0 0 1
Step 354 0.3540000000000003 0.001 2 6.774464299062661e-07 0 0 1
Step 355 0.3550000000000003 0.001 2 7.74756390240369e-07 0 0 1
Step 356 0.3560000000000003 0.001 2 7.660375312792454e-07 0 0 1
Step 357 0.3570000000000003 0.001 2 7.1896507403929e-07 0 0 1
Step 358 0.3580000000000003 0.001 2 5.949294518862311e-07 0 0 1
Step 359 0.3590000000000003 0.001 2 6.982936958511399e-07 0 0 1
Step 360 0.3600000000000003 0.001 2 6.900656025445715e-07 0 0 1
Step 361 0.3610000000000003 0.001 2 8.214306644519328e-07 0 0 1
Step 362 0.3620000000000003 0.001 2 6.435210296649149e-07 0 0 1
Step 363 0.3630000000000003 0.001 2 7.193998737130555e-07 0 0 1
Step 364 0.3640000000000003 0.001 2 7.669004001774212e-07 0 0 1
Step 365 0.3650000000000003 0.001 2 6.061601729331224e-07 0 0 1
Step 366 0.3660000000000003 0.001 2 9.012977869658903e-07 0 0 1
Step 367 0.3670000000000003 0.001 2 9.222497460824386e-07 0 0 1
Step 368 0.3680000000000003 0.001 2 6.874971547907865e-07 0 0 1
Step 369 0.3690000000000003 0.001 2 8.756579333197479e-07 0 0 1
Step 370 0.3700000000000003 0.001 2 8.597329479403881e-07 0 0 1
Step 371 0.3710000000000003 0.001 2 6.276112984864087e-07 0 0 1
Step 372 0.3720000000000003 0.001 2 8.558688550535307e-07 0 0 1
Step 373 0.3730000000000003 0.001 2 6.47092259549957e-07 0 0 1
Step 374 0.3740000000000003 0.001 2 7.902662242762128e-07 0 0 1
Step 375 0.3750000000000003 0.001 2 4.779130867954123e-07 0 0 1
Step 376 0.3760000000000003 0.001 2 5.039541947408647e-07 0 0 1
Step 377 0.3770000000000003 0.001 2 6.21788045279826e-07 0 0 1
Step 378 0.3780000000000003 0.001 2 6.796562016993735e-07 0 0 1
Step 379 0.3790000000000003 0.001 2 6.152557660614217e-07 0 0 1
Step 380 0.3800000000000003 0.001 2 6.511203746447066e-07 0 0 1
Step 381 0.3810000000000003 0.001 2 7.427465197708686e-07 0 0 1
Step 382 0.3820000000000003 0.001 2 7.115038981806967e-07 0 0 1
Step 383 0.3830000000000003 0.001 2 6.208422296128912e-07 0 0 1
Step 384 0.3840000000000003 0.001 2 7.228932955027308e-07 0 0 1
Step 385 0.3850000000000003 0.001 2 7.381802602813827e-07 0 0 1
Step 386 0.3860000000000003 0.001 2 8.054460281603046e-07 0 0 1
Step 387 0.3870000000000003 0.001 2 8.526909835413579e-07 0 0 1
Step 388 0.3880000000000003 0.001 2 6.555602897832502e-07 0 0 1
Step 389 0.3890000000000003 0.001 2 6.793900704662666e-07 0 0 1
Step 390 0.3900000000000003 0.001 2 6.028920437970698e-07 0 0 1
Step 391 0.3910000000000003 0.001 2 6.270599567584216e-07 0 0 1
Step 392 0.3920000000000003 0.001 2 7.492235358092591e-07 0 0 1
Step 393 0.3930000000000003 0.001 2 7.677856659015183e-07 0 0 1
Step 394 0.3940000000000003 0.001 2 7.549295194037155e-07 0 0 1
Step 395 0.3950000000000003 0.001 2 6.752808458860568e-07 0 0 1
Step 396 0.3960000000000003 0.001 2 5.427928107711569e-07 0 0 1
Step 397 0.3970000000000003 0.001 2 6.864141215563711e-07 0 0 1
Step 398 0.3980000000000003 0.001 2 7.308369560496907e-07 0 0 1
Step 399 0.3990000000000003 0.001 2 5.787083537348853e-07 0 0 1
Step 400 0.4000000000000003 0.001 2 5.517373229898789e-07 0 0 1
Step 401 0.4010000000000003 0.001 2 8.545931220558842e-07 0 0 1
Step 402 0.4020000000000003 0.001 2 8.421770639138125e-07 0 0 1
Step 403 0.4030000000000003 0.001 2 6.802493893693688e-07 0 0 1
Step 404 0.4040000000000003 0.001 2 7.225299711050131e-07 0 0 1
Step 405 0.4050000000000003 0.001 2 5.290898276248002e-07 0 0 1
Step 406 0.4060000000000003 0.001 2 6.523978510050933e-07 0 0 1
Step 407 0.4070000000000003 0.001 2 9.664942139663893e-07 0 0 1
Step 408 0.4080000000000003 0.001 2 4.800097824592672e-07 0 0 1
Step 409 0.4090000000000003 0.001 2 5.462096702025819e-07 0 0 1
Step 410 0.4100000000000003 0.001 2 6.914066192528088e-07 0 0 1
Step 411 0.4110000000000003 0.001 2 6.782622392854014e-07 0 0 1
Step 412 0.4120000000000003 0.001 2 7.190435258534768e-07 0 0 1
Step 413 0.4130000000000003 0.001 2 9.7243435626649e-07 0 0 1
Step 414 0.4140000000000003 0.001 2 5.263970136860226e-07 0 0 1
Step 415 0.4150000000000003 0.001 2 1.055113117797855e-06 0 0 1
Step 416 0.4160000000000003 0.001 2 8.388763877989076e-07 0 0 1
Step 417 0.4170000000000003 0.001 2 8.918925258495029e-07 0 0 1
Step 418 0.4180000000000003 0.001 2 7.660367410116923e-07 0 0 1
Step 419 0.4190000000000003 0.001 2 9.666580448640065e-07 0 0 1
Step 420 0.4200000000000003 0.001 2 1.092055063144953e-06 0 0 1
Step 421 0.4210000000000003 0.001 2 1.225714680525634e-06 0 0 1
Step 422 0.4220000000000003 0.001 3 6.690082174727023e-07 0 0 1
Step 423 0.4230000000000003 0.001 2 8.25760432236739e-07 0 0 1
Step 424 0.4240000000000003 0.001 2 8.732863982294408e-07 0 0 1
Step 425 0.4250000000000003 0.001 2 1.045395262162153e-06 0 0 1
Step 426 0.4260000000000003 0.001 3 8.419850690556894e-07 0 0 1
Step 427 0.4270000000000003 0.001 2 8.674912792015661e-07 0 0 1
Step 428 0.4280000000000003 0.001 3 4.278152382123944e-07 0 0 1
Step 429 0.4290000000000003 0.001 2 7.359994283145008e-07 0 0 1
Step 430 0.4300000000000003 0.001 2 9.087701164711694e-07 0 0 1
Step 431 0.4310000000000003 0.001 2 9.719640467230485e-07 0 0 1
Step 432 0.4320000000000003 0.001 2 9.706407939759761e-07 0 0 1
Step 433 0.4330000000000003 0.001 2 9.590958883617694e-07 0 0 1
Step 434 0.4340000000000003 0.001 3 5.800814269044059e-07 0 0 1
Step 435 0.4350000000000003 0.001 2 5.459534754993467e-07 0 0 1
Step 436 0.4360000000000003 0.001 2 8.911910721794104e-07 0 0 1
Step 437 0.4370000000000003 0.001 2 9.888715647355062e-07 0 0 1
Step 438 0.4380000000000003 0.001 2 8.144846102407232e-07 0 0 1
Step 439 0.4390000000000003 0.001 2 6.966584189495898e-07 0 0 1
Step 440 0.4400000000000003 0.001 2 5.418225130769853e-07 0 0 1
Step 441 0.4410000000000003 0.001 2 7.755915859477339e-07 0 0 1
Step 442 0.4420000000000003 0.001 2 5.426104100717221e-07 0 0 1
Step 443 0.4430000000000003 0.001 2 7.45917087291186e-07 0 0 1
Step 444 0.4440000000000003 0.001 2 6.53849603747151e-07 0 0 1
Step 445 0.4450000000000003 0.001 2 7.498144991541158e-07 0 0 1
Step 446 0.4460000000000003 0.001 2 7.231207130479179e-07 0 0 1
Step 447 0.4470000000000003 0.001 2 8.374938685534896e-07 0 0 1
Step 448 0.4480000000000003 0.001 2 5.382230204252676e-07 0 0 1
Step 449 0.4490000000000003 0.001 2 5.532889432999784e-07 0 0 1
Step 450 0.4500000000000003 0.001 2 6.671588933234133e-07 0 0 1
Step 451 0.4510000000000003 0.001 2 6.163564764399502e-07 0 0 1
Step 452 0.4520000000000003 0.001 2 8.236760116627802e-07 0 0 1
Step 453 0.4530000000000003 0.001 2 7.990220856457346e-07 0 0 1
Step 454 0.4540000000000003 0.001 2 6.46042071160382e-07 0 0 1
Step 455 0.4550000000000003 0.001 2 7.532815117446867e-07 0 0 1
Step 456 0.4560000000000003 0.001 2 6.560024919513953e-07 0 0 1
Step 457 0.4570000000000004 0.001 2 6.32122795206301e-07 0 0 1
Step 458 0.4580000000000004 0.001 2 7.237976319326387e-07 0 0 1
Step 459 0.4590000000000004 0.001 2 9.694230961164595e-07 0 0 1
Step 460 0.4600000000000004 0.001 2 8.369629850711332e-07 0 0 1
Step 461 0.4610000000000004 0.001 2 9.436157192007488e-07 0 0 1
Step 462 0.4620000000000004 0.001 2 4.716944438816776e-07 0 0 1
Step 463 0.4630000000000004 0.001 2 6.93478254814645e-07 0 0 1
Step 464 0.4640000000000004 0.001 2 7.353119413836412e-07 0 0 1
Step 465 0.4650000000000004 0.001 2 9.950112000971805e-07 0 0 1
Step 466 0.4660000000000004 0.001 2 7.671927597423465e-07 0 0 1
Step 467 0.4670000000000004 0.001 2 8.007635786177008e-07 0 0 1
Step 468 0.4680000000000004 0.001 2 7.087881334206053e-07 0 0 1
Step 469 0.4690000000000004 0.001 2 8.329945571519979e-07 0 0 1
Step 470 0.4700000000000004 0.001 2 8.042983537586722e-07 0 0 1
Step 471 0.4710000000000004 0.001 2 7.838543919101883e-07 0 0 1
Step 472 0.4720000000000004 0.001 2 6.972983815177027e-07 0 0 1
Step 473 0.4730000000000004 0.001 2 5.146133433887322e-07 0 0 1
Step 474 0.4740000000000004 0.001 2 6.85066793509387e-07 0 0 1
Step 475 0.4750000000000004 0.001 2 6.812896081049068e-07 0 0 1
Step 476 0.4760000000000004 0.001 2 7.907662731046258e-07 0 0 1
Step 477 0.4770000000000004 0.001 2 6.27416638448184e-07 0 0 1
Step 478 0.4780000000000004 0.001 2 6.186066243936593e-07 0 0 1
Step 479 0.4790000000000004 0.001 2 7.448872702312371e-07 0 0 1
Step 480 0.4800000000000004 0.001 2 6.781498076688983e-07 0 0 1
Step 481 0.4810000000000004 0.001 2 6.667667437718536e-07 0 0 1
Step 482 0.4820000000000004 0.001 2 7.444475578429933e-07 0 0 1
Step 483 0.4830000000000004 0.001 2 8.347695842246888e-07 0 0 1
Step 484 0.4840000000000004 0.001 2 4.11664807952644e-07 0 0 1
Step 485 0.4850000000000004 0.001 2 7.00172431653838e-07 0 0 1
Step 486 0.4860000000000004 0.001 2 1.011679686899805e-06 0 0 1
Step 487 0.4870000000000004 0.001 2 7.286664724319078e-07 0 0 1
Step 488 0.4880000000000004 0.001 2 9.08207735503757e-07 0 0 1
Step 489 0.4890000000000004 0.001 2 7.438548217130577e-07 0 0 1
Step 490 0.4900000000000004 0.001 2 6.225978641875009e-07 0 0 1
Step 491 0.4910000000000004 0.001 2 6.777633093719954e-07 0 0 1
Step 492 0.4920000000000004 0.001 2 6.943886229828458e-07 0 0 1
Step 493 0.4930000000000004 0.001 2 4.47435228742076e-07 0 0 1
Step 494 0.4940000000000004 0.001 2 9.101611849000092e-07 0 0 1
Step 495 0.4950000000000004 0.001 2 7.997184351215317e-07 0 0 1
Step 496 0.4960000000000004 0.001 2 8.339576303228227e-07 0 0 1
Step 497 0.4970000000000004 0.001 2 4.389393062284685e-07 0 0 1
Step 498 0.4980000000000004 0.001 2 6.248081290112427e-07 0 0 1
Step 499 0.4990000000000004 0.001 2 5.806103033980898e-07 0 0 1
Step 500 0.5000000000000003 0.001 2 9.207553798186296e-07 0 0 1
Step 501 0.5010000000000003 0.001 2 4.999736610615644e-07 0 0 1
Step 502 0.5020000000000003 0.001 2 5.716561720223742e-07 0 0 1
Step 503 0.5030000000000003 0.001 2 5.409708117859512e-07 0 0 1
Step 504 0.5040000000000003 0.001 2 8.194261949180663e-07 0 0 1
Step 505 0.5050000000000003 0.001 2 8.231149457484022e-07 0 0 1
Step 506 0.5060000000000003 0.001 2 8.014373958126027e-07 0 0 1
Step 507 0.5070000000000003 0.001 2 6.337476266357846e-07 0 0 1
Step 508 0.5080000000000003 0.001 2 6.358847295698233e-07 0 0 1
Step 509 0.5090000000000003 0.001 2 7.698355378763042e-07 0 0 1
Step 510 0.5100000000000003 0.001 2 5.542568645998396e-07 0 0 1
Step 511 0.5110000000000003 0.001 2 8.937825028530092e-07 0 0 1
Step 512 0.5120000000000003 0.001 2 9.393486559830539e-07 0 0 1
Step 513 0.5130000000000003 0.001 2 7.308591645750071e-07 0 0 1
Step 514 0.5140000000000003 0.001 2 7.815888744077046e-07 0 0 1
Step 515 0.5150000000000003 0.001 2 8.698992105971624e-07 0 0 1
Step 516 0.5160000000000003 0.001 2 7.617657478964982e-07 0 0 1
Step 517 0.5170000000000003 0.001 2 4.862184623485211e-07 0 0 1
Step 518 0.5180000000000003 0.001 2 6.874101464375623e-07 0 0 1
Step 519 0.5190000000000003 0.001 2 7.476065357346878e-07 0 0 1
Step 520 0.5200000000000004 0.001 2 5.928006665726879e-07 0 0 1
Step 521 0.5210000000000004 0.001 2 7.44656443059605e-07 0 0 1
Step 522 0.5220000000000004 0.001 2 7.495846612035925e-07 0 0 1
Step 523 0.5230000000000004 0.001 2 6.505423910052859e-07 0 0 1
Step 524 0.5240000000000004 0.001 2 8.520333534436399e-07 0 0 1
Step 525 0.5250000000000004 0.001 2 8.251623620271615e-07 0 0 1
Step 526 0.5260000000000004 0.001 2 3.769305065590352e-07 0 0 1
Step 527 0.5270000000000004 0.001 2 9.567366397772132e-07 0 0 1
Step 528 0.5280000000000004 0.001 2 8.576508208482261e-07 0 0 1
Step 529 0.5290000000000004 0.001 2 5.022080684461507e-07 0 0 1
Step 530 0.5300000000000004 0.001 2 8.587070847015053e-07 0 0 1
Step 531 0.5310000000000004 0.001 2 7.571087302628336e-07 0 0 1
Step 532 0.5320000000000004 0.001 2 6.522525231063299e-07 0 0 1
Step 533 0.5330000000000004 0.001 2 7.292012428734305e-07 0 0 1
Step 534 0.5340000000000004 0.001 2 8.099589781186191e-07 0 0 1
Step 535 0.5350000000000004 0.001 2 8.565803284810758e-07 0 0 1
Step 536 0.5360000000000004 0.001 2 6.033660684411082e-07 0 0 1
Step 537 0.5370000000000004 0.001 2 6.411203560544295e-07 0 0 1
Step 538 0.5380000000000004 0.001 2 4.957055948531288e-07 0 0 1
Step 539 0.5390000000000004 0.001 2 7.672912304260168e-07 0 0 1
Step 540 0.5400000000000004 0.001 2 6.748146431628571e-07 0 0 1
Step 541 0.5410000000000004 0.001 2 6.362025858553662e-07 0 0 1
Step 542 0.5420000000000004 0.001 2 5.876608671907813e-07 0 0 1
Step 543 0.5430000000000004 0.001 2 6.356708880562361e-07 0 0 1
Step 544 0.5440000000000004 0.001 2 8.875717541499782e-07 0 0 1
Step 545 0.5450000000000004 0.001 2 4.594744241873783e-07 0 0 1
Step 546 0.5460000000000004 0.001 2 7.090103729495972e-07 0 0 1
Step 547 0.5470000000000004 0.001 2 1.084820420349473e-06 0 0 1
Step 548 0.5480000000000004 0.001 2 9.897326199688768e-07 0 0 1
Step 549 0.5490000000000004 0.001 2 8.331687554142661e-07 0 0 1
Step 550 0.5500000000000004 0.001 2 5.610592001795487e-07 0 0 1
Step 551 0.5510000000000004 0.001 2 7.861162409859785e-07 0 0 1
Step 552 0.5520000000000004 0.001 2 5.211670510548258e-07 0 0 1
Step 553 0.5530000000000004 0.001 2 4.802605944743758e-07 0 0 1
Step 554 0.5540000000000004 0.001 2 6.679144885732167e-07 0 0 1
Step 555 0.5550000000000004 0.001 2 7.091440853478277e-07 0 0 1
Step 556 0.5560000000000004 0.001 2 7.436775507042477e-07 0 0 1
Step 557 0.5570000000000004 0.001 2 6.878562477966222e-07 0 0 1
Step 558 0.5580000000000004 0.001 2 8.594442911083054e-07 0 0 1
Step 559 0.5590000000000004 0.001 2 9.753365929853936e-07 0 0 1
Step 560 0.5600000000000004 0.001 2 4.628649814790033e-07 0 0 1
Step 561 0.5610000000000004 0.001 2 8.173465574323901e-07 0 0 1
Step 562 0.5620000000000004 0.001 2 7.440247813373322e-07 0 0 1
Step 563 0.5630000000000004 0.001 2 6.618056306502222e-07 0 0 1
Step 564 0.5640000000000004 0.001 2 6.631839017171694e-07 0 0 1
Step 565 0.5650000000000004 0.001 2 5.483221399351261e-07 0 0 1
Step 566 0.5660000000000004 0.001 2 8.915537938518481e-07 0 0 1
Step 567 0.5670000000000004 0.001 2 5.732613597488463e-07 0 0 1
Step 568 0.5680000000000004 0.001 2 3.706480928512454e-07 0 0 1
Step 569 0.5690000000000004 0.001 2 6.577903333488574e-07 0 0 1
Step 570 0.5700000000000004 0.001 2 6.095142840732969e-07 0 0 1
Step 571 0.5710000000000004 0.001 2 7.170867385465132e-07 0 0 1
Step 572 0.5720000000000004 0.001 2 6.963229327213077e-07 0 0 1
Step 573 0.5730000000000004 0.001 2 6.114012939486771e-07 0 0 1
Step 574 0.5740000000000004 0.001 2 1.101596586745844e-06 0 0 1
Step 575 0.5750000000000004 0.001 2 6.757265550129248e-07 0 0 1
Step 576 0.5760000000000004 0.001 2 5.439038443501081e-07 0 0 1
Step 577 0.5770000000000004 0.001 2 4.900329991827436e-07 0 0 1
Step 578 0.5780000000000004 0.001 2 7.343435308815731e-07 0 0 1
Step 579 0.5790000000000004 0.001 2 8.374373966675893e-07 0 0 1
Step 580 0.5800000000000004 0.001 2 5.951435834287378e-07 0 0 1
Step 581 0.5810000000000004 0.001 2 6.709865549810795e-07 0 0 1
Step 582 0.5820000000000004 0.001 2 7.284630156833537e-07 0 0 1
Step 583 0.5830000000000004 0.001 2 6.856749037508643e-07 0 0 1
Step 584 0.5840000000000004 0.001 2 7.193995223625701e-07 0 0 1
Step 585 0.5850000000000004 0.001 2 8.19307462434595e-07 0 0 1
Step 586 0.5860000000000004 0.001 2 7.698768421829244e-07 0 0 1
Step 587 0.5870000000000004 0.001 2 8.844110851556854e-07 0 0 1
Step 588 0.5880000000000004 0.001 2 6.044394681358199e-07 0 0 1
Step 589 0.5890000000000004 0.001 2 8.591996802844053e-07 0 0 1
Step 590 0.5900000000000004 0.001 2 6.600175644533697e-07 0 0 1
Step 591 0.5910000000000004 0.001 2 6.17036454405251e-07 0 0 1
Step 592 0.5920000000000004 0.001 2 5.111237486974671e-07 0 0 1
Step 593 0.5930000000000004 0.001 2 4.668495656113303e-07 0 0 1
Step 594 0.5940000000000004 0.001 2 6.499002234870951e-07 0 0 1
Step 595 0.5950000000000004 0.001 2 7.377708011070007e-07 0 0 1
Step 596 0.5960000000000004 0.001 2 4.691575671474045e-07 0 0 1
Step 597 0.5970000000000004 0.001 2 7.072947571436423e-07 0 0 1
Step 598 0.5980000000000004 0.001 2 6.220488594192583e-07 0 0 1
Step 599 0.5990000000000004 0.001 2 7.659135182270829e-07 0 0 1
Step 600 0.6000000000000004 0.001 2 7.452121355394502e-07 0 0 1
Step 601 0.6010000000000004 0.001 2 6.189768632265217e-07 0 0 1
Step 602 0.6020000000000004 0.001 2 5.649988895552446e-07 0 0 1
Step 603 0.6030000000000004 0.001 2 6.179053659381276e-07 0 0 1
Step 604 0.6040000000000004 0.001 2 7.527934893971005e-07 0 0 1
Step 605 0.6050000000000004 0.001 2 7.597782707544453e-07 0 0 1
Step 606 0.6060000000000004 0.001 2 8.611746123486609e-07 0 0 1
Step 607 0.6070000000000004 0.001 2 8.127590871012467e-07 0 0 1
Step 608 0.6080000000000004 0.001 2 7.87330247435781e-07 0 0 1
Step 609 0.6090000000000004 0.001 2 7.312609373461047e-07 0 0 1
Step 610 0.6100000000000004 0.001 2 9.718676538545623e-07 0 0 1
Step 611 0.6110000000000004 0.001 2 8.124488891007057e-07 0 0 1
Step 612 0.6120000000000004 0.001 2 6.31434199378673e-07 0 0 1
Step 613 0.6130000000000004 0.001 2 6.382930028388175e-07 0 0 1
Step 614 0.6140000000000004 0.001 2 8.526313030286166e-07 0 0 1
Step 615 0.6150000000000004 0.001 2 6.377661518764231e-07 0 0 1
Step 616 0.6160000000000004 0.001 2 8.803379491232658e-07 0 0 1
Step 617 0.6170000000000004 0.001 2 6.121624941425242e-07 0 0 1
Step 618 0.6180000000000004 0.001 2 8.786822590560305e-07 0 0 1
Step 619 0.6190000000000004 0.001 2 6.949710776661706e-07 0 0 1
Step 620 0.6200000000000004 0.001 2 4.873485389981828e-07 0 0 1
Step 621 0.6210000000000004 0.001 2 8.957819390173006e-07 0 0 1
Step 622 0.6220000000000004 0.001 2 7.399744271418964e-07 0 0 1
Step 623 0.6230000000000004 0.001 2 7.16790912569424e-07 0 0 1
Step 624 0.6240000000000004 0.001 2 5.673483201132201e-07 0 0 1
Step 625 0.6250000000000004 0.001 2 6.738857866345166e-07 0 0 1
Step 626 0.6260000000000004 0.001 2 8.711438882522822e-07 0 0 1
Step 627 0.6270000000000004 0.001 2 7.596965998535585e-07 0 0 1
Step 628 0.6280000000000004 0.001 2 7.388932397537819e-07 0 0 1
Step 629 0.6290000000000004 0.001 2 7.790924910807414e-07 0 0 1
Step 630 0.6300000000000004 0.001 2 9.197243013571478e-07 0 0 1
Step 631 0.6310000000000004 0.001 2 6.531706251812159e-07 0 0 1
Step 632 0.6320000000000005 0.001 2 7.655912862919426e-07 0 0 1
Step 633 0.6330000000000005 0.001 2 7.700839634002204e-07 0 0 1
Step 634 0.6340000000000005 0.001 2 7.326286958751507e-07 0 0 1
Step 635 0.6350000000000005 0.001 2 9.675776548153112e-07 0 0 1
Step 636 0.6360000000000005 0.001 2 8.284688664354477e-07 0 0 1
Step 637 0.6370000000000005 0.001 2 8.451235119928815e-07 0 0 1
Step 638 0.6380000000000005 0.001 2 1.049093323986878e-06 0 0 1
Step 639 0.6390000000000005 0.001 2 1.048504485942047e-06 0 0 1
Step 640 0.6400000000000005 0.001 2 7.948021868077631e-07 0 0 1
Step 641 0.6410000000000005 0.001 2 7.379029307165532e-07 0 0 1
Step 642 0.6420000000000005 0.001 2 7.308956154070787e-07 0 0 1
Step 643 0.6430000000000005 0.001 2 8.322683876247487e-07 0 0 1
Step 644 0.6440000000000005 0.001 2 7.895477656964265e-07 0 0 1
Step 645 0.6450000000000005 0.001 2 6.018054374875279e-07 0 0 1
Step 646 0.6460000000000005 0.001 2 6.897735479899684e-07 0 0 1
Step 647 0.6470000000000005 0.001 2 5.795060189774171e-07 0 0 1
Step 648 0.6480000000000005 0.001 2 5.648477360892685e-07 0 0 1
Step 649 0.6490000000000005 0.001 2 8.863410200016539e-07 0 0 1
Step 650 0.6500000000000005 0.001 2 5.273958354652832e-07 0 0 1
Step 651 0.6510000000000005 0.001 2 6.150040648883582e-07 0 0 1
Step 652 0.6520000000000005 0.001 2 7.347764422358543e-07 0 0 1
Step 653 0.6530000000000005 0.001 2 7.940892390107237e-07 0 0 1
Step 654 0.6540000000000005 0.001 2 6.184356701977998e-07 0 0 1
Step 655 0.6550000000000005 0.001 2 5.124931012753593e-07 0 0 1
Step 656 0.6560000000000005 0.001 2 6.165770540858369e-07 0 0 1
Step 657 0.6570000000000005 0.001 2 8.190038392647239e-07 0 0 1
Step 658 0.6580000000000005 0.001 2 6.771606366128962e-07 0 0 1
Step 659 0.6590000000000005 0.001 2 6.85197315940402e-07 0 0 1
Step 660 0.6600000000000005 0.001 2 5.944924096606253e-07 0 0 1
Step 661 0.6610000000000005 0.001 2 6.556103651468437e-07 0 0 1
Step 662 0.6620000000000005 0.001 2 5.309419094038007e-07 0 0 1
Step 663 0.6630000000000005 0.001 2 7.104901114815057e-07 0 0 1
Step 664 0.6640000000000005 0.001 2 5.429442956929978e-07 0 0 1
Step 665 0.6650000000000005 0.001 2 7.148481700792227e-07 0 0 1
Step 666 0.6660000000000005 0.001 2 7.614179017956442e-07 0 0 1
Step 667 0.6670000000000005 0.001 2 5.985817424986365e-07 0 0 1
Step 668 0.6680000000000005 0.001 2 5.356929252632252e-07 0 0 1
Step 669 0.6690000000000005 0.001 2 4.115460841819798e-07 0 0 1
Step 670 0.6700000000000005 0.001 2 7.137942306525759e-07 0 0 1
Step 671 0.6710000000000005 0.001 2 9.137805096276966e-07 0 0 1
Step 672 0.6720000000000005 0.001 2 6.745584448792085e-07 0 0 1
Step 673 0.6730000000000005 0.001 2 7.134244299747607e-07 0 0 1
Step 674 0.6740000000000005 0.001 2 8.341351706389671e-07 0 0 1
Step 675 0.6750000000000005 0.001 2 8.433299114483792e-07 0 0 1
Step 676 0.6760000000000005 0.001 2 5.916206672133539e-07 0 0 1
Step 677 0.6770000000000005 0.001 2 8.092353932009458e-07 0 0 1
Step 678 0.6780000000000005 0.001 2 4.847933840283421e-07 0 0 1
Step 679 0.6790000000000005 0.001 2 6.305225788467294e-07 0 0 1
Step 680 0.6800000000000005 0.001 2 8.751373411118567e-07 0 0 1
Step 681 0.6810000000000005 0.001 2 6.391312120219369e-07 0 0 1
Step 682 0.6820000000000005 0.001 2 9.289087740420959e-07 0 0 1
Step 683 0.6830000000000005 0.001 2 1.024057480479812e-06 0 0 1
Step 684 0.6840000000000005 0.001 2 4.70496783547187e-07 0 0 1
Step 685 0.6850000000000005 0.001 2 9.338449975083698e-07 0 0 1
Step 686 0.6860000000000005 0.001 2 7.490376946519635e-07 0 0 1
Step 687 0.6870000000000005 0.001 2 8.169712947397147e-07 0 0 1
Step 688 0.6880000000000005 0.001 2 8.567452001117203e-07 0 0 1
Step 689 0.6890000000000005 0.001 2 9.333826328063816e-07 0 0 1
Step 690 0.6900000000000005 0.001 2 7.292719226991578e-07 0 0 1
Step 691 0.6910000000000005 0.001 2 7.037855157008885e-07 0 0 1
Step 692 0.6920000000000005 0.001 2 7.461300638911846e-07 0 0 1
Step 693 0.6930000000000005 0.001 2 7.455306464742571e-07 0 0 1
Step 694 0.6940000000000005 0.001 2 6.657894063292371e-07 0 0 1
Step 695 0.6950000000000005 0.001 2 7.223708837859015e-07 0 0 1
Step 696 0.6960000000000005 0.001 2 7.853784173712811e-07 0 0 1
Step 697 0.6970000000000005 0.001 2 4.911667071590303e-07 0 0 1
Step 698 0.6980000000000005 0.001 2 6.568555187234367e-07 0 0 1
Step 699 0.6990000000000005 0.001 2 8.677745232565942e-07 0 0 1
Step 700 0.7000000000000005 0.001 2 5.937656395948851e-07 0 0 1
Step 701 0.7010000000000005 0.001 2 5.4181341549695e-07 0 0 1
Step 702 0.7020000000000005 0.001 2 7.402574230165835e-07 0 0 1
Step 703 0.7030000000000005 0.001 2 8.746967261819726e-07 0 0 1
Step 704 0.7040000000000005 0.001 2 6.621092905830349e-07 0 0 1
Step 705 0.7050000000000005 0.001 2 7.221062065589435e-07 0 0 1
Step 706 0.7060000000000005 0.001 2 6.32494410641352e-07 0 0 1
Step 707 0.7070000000000005 0.001 2 8.527886905344403e-07 0 0 1
Step 708 0.7080000000000005 0.001 2 5.351320928814178e-07 0 0 1
Step 709 0.7090000000000005 0.001 2 6.517110330179549e-07 0 0 1
Step 710 0.7100000000000005 0.001 2 9.21665939727796e-07 0 0 1
Step 711 0.7110000000000005 0.001 2 7.592943849113541e-07 0 0 1
Step 712 0.7120000000000005 0.001 2 6.588347462337619e-07 0 0 1
Step 713 0.7130000000000005 0.001 2 5.373258970986127e-07 0 0 1
Step 714 0.7140000000000005 0.001 2 6.123999780126488e-07 0 0 1
Step 715 0.7150000000000005 0.001 2 7.430297449393259e-07 0 0 1
Step 716 0.7160000000000005 0.001 2 6.856641937123008e-07 0 0 1
Step 717 0.7170000000000005 0.001 2 6.85551863743503e-07 0 0 1
Step 718 0.7180000000000005 0.001 2 9.942058611752851e-07 0 0 1
Step 719 0.7190000000000005 0.001 2 7.081408743200191e-07 0 0 1
Step 720 0.7200000000000005 0.001 2 7.351716938401421e-07 0 0 1
Step 721 0.7210000000000005 0.001 2 5.248963559173782e-07 0 0 1
Step 722 0.7220000000000005 0.001 2 7.648187682244832e-07 0 0 1
Step 723 0.7230000000000005 0.001 2 7.400396284046921e-07 0 0 1
Step 724 0.7240000000000005 0.001 2 7.56652305005015e-07 0 0 1
Step 725 0.7250000000000005 0.001 2 6.769778757681465e-07 0 0 1
Step 726 0.7260000000000005 0.001 2 6.397362285054619e-07 0 0 1
Step 727 0.7270000000000005 0.001 2 7.260302118058771e-07 0 0 1
Step 728 0.7280000000000005 0.001 2 6.627226500143666e-07 0 0 1
Step 729 0.7290000000000005 0.001 2 5.327296441472553e-07 0 0 1
Step 730 0.7300000000000005 0.001 2 1.00690135461681e-06 0 0 1
Step 731 0.7310000000000005 0.001 2 5.519781412903538e-07 0 0 1
Step 732 0.7320000000000005 0.001 2 5.531458703412261e-07 0 0 1
Step 733 0.7330000000000005 0.001 2 6.229329228399882e-07 0 0 1
Step 734 0.7340000000000005 0.001 2 5.640044208820131e-07 0 0 1
Step 735 0.7350000000000005 0.001 2 7.354016664213673e-07 0 0 1
Step 736 0.7360000000000005 0.001 2 7.804897747217204e-07 0 0 1
Step 737 0.7370000000000005 0.001 2 8.812635838076637e-07 0 0 1
Step 738 0.7380000000000005 0.001 2 4.921464105437678e-07 0 0 1
Step 739 0.7390000000000005 0.001 2 8.795917803683162e-07 0 0 1
Step 740 0.7400000000000005 0.001 2 6.508178787354344e-07 0 0 1
Step 741 0.7410000000000005 0.001 2 7.727251598994863e-07 0 0 1
Step 742 0.7420000000000005 0.001 2 7.707524229782574e-07 0 0 1
Step 743 0.7430000000000005 0.001 2 8.629499666346254e-07 0 0 1
Step 744 0.7440000000000005 0.001 2 6.833689501134929e-07 0 0 1
Step 745 0.7450000000000006 0.001 2 7.453608435917185e-07 0 0 1
Step 746 0.7460000000000006 0.001 2 7.107084342246592e-07 0 0 1
Step 747 0.7470000000000006 0.001 2 9.717120466667261e-07 0 0 1
Step 748 0.7480000000000006 0.001 2 9.10690609267447e-07 0 0 1
Step 749 0.7490000000000006 0.001 2 9.789267983408394e-07 0 0 1
Step 750 0.7500000000000006 0.001 2 7.277295800753222e-07 0 0 1
Step 751 0.7510000000000006 0.001 2 8.840861014878263e-07 0 0 1
Step 752 0.7520000000000006 0.001 2 5.817292303950304e-07 0 0 1
Step 753 0.7530000000000006 0.001 2 5.769672847051038e-07 0 0 1
Step 754 0.7540000000000006 0.001 2 5.498614468302829e-07 0 0 1
Step 755 0.7550000000000006 0.001 2 6.143741681029018e-07 0 0 1
Step 756 0.7560000000000006 0.001 2 7.070280743005667e-07 0 0 1
Step 757 0.7570000000000006 0.001 2 5.699512801775962e-07 0 0 1
Step 758 0.7580000000000006 0.001 2 8.318693069059741e-07 0 0 1
Step 759 0.7590000000000006 0.001 2 6.482489909086809e-07 0 0 1
Step 760 0.7600000000000006 0.001 2 6.004943766142599e-07 0 0 1
Step 761 0.7610000000000006 0.001 2 9.777106139658522e-07 0 0 1
Step 762 0.7620000000000006 0.001 2 6.928586546799735e-07 0 0 1
Step 763 0.7630000000000006 0.001 2 5.530553627828252e-07 0 0 1
Step 764 0.7640000000000006 0.001 2 4.544519918056098e-07 0 0 1
Step 765 0.7650000000000006 0.001 2 6.557482147605335e-07 0 0 1
Step 766 0.7660000000000006 0.001 2 6.8911110772104e-07 0 0 1
Step 767 0.7670000000000006 0.001 2 7.706814359378643e-07 0 0 1
Step 768 0.7680000000000006 0.001 2 6.85886678000537e-07 0 0 1
Step 769 0.7690000000000006 0.001 2 6.573616615430961e-07 0 0 1
Step 770 0.7700000000000006 0.001 2 4.341446265164672e-07 0 0 1
Step 771 0.7710000000000006 0.001 2 6.023305872500339e-07 0 0 1
Step 772 0.7720000000000006 0.001 2 8.237459871991585e-07 0 0 1
Step 773 0.7730000000000006 0.001 2 6.472531418786681e-07 0 0 1
Step 774 0.7740000000000006 0.001 2 6.836894097055448e-07 0 0 1
Step 775 0.7750000000000006 0.001 2 7.617123295576673e-07 0 0 1
Step 776 0.7760000000000006 0.001 2 7.330061696672904e-07 0 0 1
Step 777 0.7770000000000006 0.001 2 7.038266429406992e-07 0 0 1
Step 778 0.7780000000000006 0.001 2 8.949198795071401e-07 0 0 1
Step 779 0.7790000000000006 0.001 2 8.922863742935178e-07 0 0 1
Step 780 0.7800000000000006 0.001 2 7.096285153618473e-07 0 0 1
Step 781 0.7810000000000006 0.001 2 9.154122665713584e-07 0 0 1
Step 782 0.7820000000000006 0.001 2 5.396642542384758e-07 0 0 1
Step 783 0.7830000000000006 0.001 2 6.299992215218109e-07 0 0 1
Step 784 0.7840000000000006 0.001 2 7.408127735911462e-07 0 0 1
Step 785 0.7850000000000006 0.001 2 5.576906006756536e-07 0 0 1
Step 786 0.7860000000000006 0.001 2 6.285396156237767e-07 0 0 1
Step 787 0.7870000000000006 0.001 2 4.783080738368051e-07 0 0 1
Step 788 0.7880000000000006 0.001 2 9.773648981461302e-07 0 0 1
Step 789 0.7890000000000006 0.001 2 7.541205339560831e-07 0 0 1
Step 790 0.7900000000000006 0.001 2 8.028734182310875e-07 0 0 1
Step 791 0.7910000000000006 0.001 2 7.364032795178836e-07 0 0 1
Step 792 0.7920000000000006 0.001 2 7.291986129054614e-07 0 0 1
Step 793 0.7930000000000006 0.001 2 7.80939625813555e-07 0 0 1
Step 794 0.7940000000000006 0.001 2 8.305471478897673e-07 0 0 1
Step 795 0.7950000000000006 0.001 2 4.834095767613201e-07 0 0 1
Step 796 0.7960000000000006 0.001 2 5.589048687993378e-07 0 0 1
Step 797 0.7970000000000006 0.001 2 5.600962369259844e-07 0 0 1
Step 798 0.7980000000000006 0.001 2 4.607143238974973e-07 0 0 1
Step 799 0.7990000000000006 0.001 2 8.65007048819086e-07 0 0 1
Step 800 0.8000000000000006 0.001 2 4.969654891601291e-07 0 0 1
Step 801 0.8010000000000006 0.001 2 9.859359528829668e-07 0 0 1
Step 802 0.8020000000000006 0.001 2 7.505930017203009e-07 0 0 1
Step 803 0.8030000000000006 0.001 2 9.568533599866549e-07 0 0 1
Step 804 0.8040000000000006 0.001 2 7.385374419602895e-07 0 0 1
Step 805 0.8050000000000006 0.001 2 1.010085417188045e-06 0 0 1
Step 806 0.8060000000000006 0.001 2 5.270877787057317e-07 0 0 1
Step 807 0.8070000000000006 0.001 2 6.038847003716536e-07 0 0 1
Step 808 0.8080000000000006 0.001 2 5.147951824138569e-07 0 0 1
Step 809 0.8090000000000006 0.001 2 8.13108952263372e-07 0 0 1
Step 810 0.8100000000000006 0.001 2 6.514432473257278e-07 0 0 1
Step 811 0.8110000000000006 0.001 2 6.570364658333966e-07 0 0 1
Step 812 0.8120000000000006 0.001 2 7.645201498624556e-07 0 0 1
Step 813 0.8130000000000006 0.001 2 6.158059676264893e-07 0 0 1
Step 814 0.8140000000000006 0.001 2 8.390046004627064e-07 0 0 1
Step 815 0.8150000000000006 0.001 2 6.892985350167917e-07 0 0 1
Step 816 0.8160000000000006 0.001 2 8.725868142454091e-07 0 0 1
Step 817 0.8170000000000006 0.001 2 6.594479652161039e-07 0 0 1
Step 818 0.8180000000000006 0.001 2 5.716518156982157e-07 0 0 1
Step 819 0.8190000000000006 0.001 2 5.187423564319465e-07 0 0 1
Step 820 0.8200000000000006 0.001 2 7.771939278482356e-07 0 0 1
Step 821 0.8210000000000006 0.001 2 4.885384205037245e-07 0 0 1
Step 822 0.8220000000000006 0.001 2 7.836419062448737e-07 0 0 1
Step 823 0.8230000000000006 0.001 2 6.077853180550999e-07 0 0 1
Step 824 0.8240000000000006 0.001 2 6.590087173299337e-07 0 0 1
Step 825 0.8250000000000006 0.001 2 7.866306756189297e-07 0 0 1
Step 826 0.8260000000000006 0.001 2 6.036563054188846e-07 0 0 1
Step 827 0.8270000000000006 0.001 2 6.293267158359343e-07 0 0 1
Step 828 0.8280000000000006 0.001 2 7.273904659433914e-07 0 0 1
Step 829 0.8290000000000006 0.001 2 5.794622149506038e-07 0 0 1
Step 830 0.8300000000000006 0.001 2 8.883637512325974e-07 0 0 1
Step 831 0.8310000000000006 0.001 2 6.464460842480543e-07 0 0 1
Step 832 0.8320000000000006 0.001 2 5.078415077176534e-07 0 0 1
Step 833 0.8330000000000006 0.001 2 9.633232826245067e-07 0 0 1
Step 834 0.8340000000000006 0.001 2 7.511553740867426e-07 0 0 1
Step 835 0.8350000000000006 0.001 2 8.588847187254303e-07 0 0 1
Step 836 0.8360000000000006 0.001 2 6.760424825080004e-07 0 0 1
Step 837 0.8370000000000006 0.001 2 8.707286395737906e-07 0 0 1
Step 838 0.8380000000000006 0.001 2 7.137275829166313e-07 0 0 1
Step 839 0.8390000000000006 0.001 2 8.671522179858461e-07 0 0 1
Step 840 0.8400000000000006 0.001 2 8.296421638603234e-07 0 0 1
Step 841 0.8410000000000006 0.001 2 6.088253247603464e-07 0 0 1
Step 842 0.8420000000000006 0.001 2 8.954290153764569e-07 0 0 1
Step 843 0.8430000000000006 0.001 2 7.288504949451653e-07 0 0 1
Step 844 0.8440000000000006 0.001 2 8.251170096847627e-07 0 0 1
Step 845 0.8450000000000006 0.001 2 6.630729485820961e-07 0 0 1
Step 846 0.8460000000000006 0.001 2 7.206554350414943e-07 0 0 1
Step 847 0.8470000000000006 0.001 2 1.026965285890415e-06 0 0 1
Step 848 0.8480000000000006 0.001 2 6.826902322116947e-07 0 0 1
Step 849 0.8490000000000006 0.001 2 6.236487791700801e-07 0 0 1
Step 850 0.8500000000000006 0.001 2 8.470685815090805e-07 0 0 1
Step 851 0.8510000000000006 0.001 2 4.883501678058193e-07 0 0 1
Step 852 0.8520000000000006 0.001 2 8.971248216800392e-07 0 0 1
Step 853 0.8530000000000006 0.001 2 6.16590724889466e-07 0 0 1
Step 854 0.8540000000000006 0.001 2 6.364671865200123e-07 0 0 1
Step 855 0.8550000000000006 0.001 2 8.316381770013948e-07 0 0 1
Step 856 0.8560000000000006 0.001 2 6.904756669580562e-07 0 0 1
Step 857 0.8570000000000007 0.001 2 4.865094955741676e-07 0 0 1
Step 858 0.8580000000000007 0.001 2 6.023918462685492e-07 0 0 1
Step 859 0.8590000000000007 0.001 2 9.069492642662061e-07 0 0 1
Step 860 0.8600000000000007 0.001 2 6.733234914556934e-07 0 0 1
Step 861 0.8610000000000007 0.001 2 6.294213147870507e-07 0 0 1
Step 862 0.8620000000000007 0.001 2 6.860193090299753e-07 0 0 1
Step 863 0.8630000000000007 0.001 2 7.603939338164773e-07 0 0 1
Step 864 0.8640000000000007 0.001 2 5.013299653858754e-07 0 0 1
Step 865 0.8650000000000007 0.001 2 6.35135191222156e-07 0 0 1
Step 866 0.8660000000000007 0.001 2 5.925082932860092e-07 0 0 1
Step 867 0.8670000000000007 0.001 2 8.011623340767578e-07 0 0 1
Step 868 0.8680000000000007 0.001 2 9.6207698512217e-07 0 0 1
Step 869 0.8690000000000007 0.001 2 5.84446032198452e-07 0 0 1
Step 870 0.8700000000000007 0.001 2 7.342184474284457e-07 0 0 1
Step 871 0.8710000000000007 0.001 2 7.778425443310049e-07 0 0 1
Step 872 0.8720000000000007 0.001 2 5.210086343671797e-07 0 0 1
Step 873 0.8730000000000007 0.001 2 7.26405396906478e-07 0 0 1
Step 874 0.8740000000000007 0.001 2 1.064781882317536e-06 0 0 1
Step 875 0.8750000000000007 0.001 2 7.285990977664157e-07 0 0 1
Step 876 0.8760000000000007 0.001 2 9.548874199925646e-07 0 0 1
Step 877 0.8770000000000007 0.001 2 4.40009213722622e-07 0 0 1
Step 878 0.8780000000000007 0.001 2 7.754346061727835e-07 0 0 1
Step 879 0.8790000000000007 0.001 2 5.921421349564525e-07 0 0 1
Step 880 0.8800000000000007 0.001 2 7.3984670764301e-07 0 0 1
Step 881 0.8810000000000007 0.001 2 6.678895356947322e-07 0 0 1
Step 882 0.8820000000000007 0.001 2 8.089101217552087e-07 0 0 1
Step 883 0.8830000000000007 0.001 2 6.551298778525377e-07 0 0 1
Step 884 0.8840000000000007 0.001 2 5.791568575909575e-07 0 0 1
Step 885 0.8850000000000007 0.001 2 9.501789984249743e-07 0 0 1
Step 886 0.8860000000000007 0.001 2 6.533660788134206e-07 0 0 1
Step 887 0.8870000000000007 0.001 2 8.043891248021646e-07 0 0 1
Step 888 0.8880000000000007 0.001 2 7.608790248280389e-07 0 0 1
Step 889 0.8890000000000007 0.001 2 6.351069217664534e-07 0 0 1
Step 890 0.8900000000000007 0.001 2 6.792222515865932e-07 0 0 1
Step 891 0.8910000000000007 0.001 2 7.804975263590447e-07 0 0 1
Step 892 0.8920000000000007 0.001 2 5.826927787891596e-07 0 0 1
Step 893 0.8930000000000007 0.001 2 8.233951770219798e-07 0 0 1
Step 894 0.8940000000000007 0.001 2 6.558234528999705e-07 0 0 1
Step 895 0.8950000000000007 0.001 2 6.345764280834542e-07 0 0 1
Step 896 0.8960000000000007 0.001 2 8.09355201748343e-07 0 0 1
Step 897 0.8970000000000007 0.001 2 6.453727257982959e-07 0 0 1
Step 898 0.8980000000000007 0.001 2 8.3232964586384e-07 0 0 1
Step 899 0.8990000000000007 0.001 2 1.050897910087154e-06 0 0 1
Step 900 0.9000000000000007 0.001 2 7.131616071337902e-07 0 0 1
Step 901 0.9010000000000007 0.001 2 8.188004337070704e-07 0 0 1
Step 902 0.9020000000000007 0.001 2 9.732563479834321e-07 0 0 1
Step 903 0.9030000000000007 0.001 2 7.259457936896467e-07 0 0 1
Step 904 0.9040000000000007 0.001 2 6.287785391284364e-07 0 0 1
Step 905 0.9050000000000007 0.001 2 6.926037895324987e-07 0 0 1
Step 906 0.9060000000000007 0.001 2 7.309872628137032e-07 0 0 1
Step 907 0.9070000000000007 0.001 2 7.676247114280155e-07 0 0 1
Step 908 0.9080000000000007 0.001 2 6.924334233724392e-07 0 0 1
Step 909 0.9090000000000007 0.001 2 6.957973332515431e-07 0 0 1
Step 910 0.9100000000000007 0.001 2 6.56646528873536e-07 0 0 1
Step 911 0.9110000000000007 0.001 2 7.352487679585946e-07 0 0 1
Step 912 0.9120000000000007 0.001 2 7.124983466024011e-07 0 0 1
Step 913 0.9130000000000007 0.001 2 1.185370536861716e-06 0 0 1
Step 914 0.9140000000000007 0.001 2 6.150091905724203e-07 0 0 1
Step 915 0.9150000000000007 0.001 2 5.047780985350504e-07 0 0 1
Step 916 0.9160000000000007 0.001 2 8.704072560477165e-07 0 0 1
Step 917 0.9170000000000007 0.001 2 4.734928139323957e-07 0 0 1
Step 918 0.9180000000000007 0.001 2 7.283335611043639e-07 0 0 1
Step 919 0.9190000000000007 0.001 2 6.15649949563396e-07 0 0 1
Step 920 0.9200000000000007 0.001 2 7.459553969554182e-07 0 0 1
Step 921 0.9210000000000007 0.001 2 8.216679942959455e-07 0 0 1
Step 922 0.9220000000000007 0.001 2 5.204942620274264e-07 0 0 1
Step 923 0.9230000000000007 0.001 2 7.806731106701813e-07 0 0 1
Step 924 0.9240000000000007 0.001 2 4.664724369118144e-07 0 0 1
Step 925 0.9250000000000007 0.001 2 7.887419653963088e-07 0 0 1
Step 926 0.9260000000000007 0.001 2 6.725357246705451e-07 0 0 1
Step 927 0.9270000000000007 0.001 2 6.151360019157957e-07 0 0 1
Step 928 0.9280000000000007 0.001 2 1.001046256987777e-06 0 0 1
Step 929 0.9290000000000007 0.001 2 6.651134216683418e-07 0 0 1
Step 930 0.9300000000000007 0.001 2 7.535646826548613e-07 0 0 1
Step 931 0.9310000000000007 0.001 2 6.497915391720371e-07 0 0 1
Step 932 0.9320000000000007 0.001 2 6.024042803714911e-07 0 0 1
Step 933 0.9330000000000007 0.001 2 7.02316493169282e-07 0 0 1
Step 934 0.9340000000000007 0.001 2 7.843073464963223e-07 0 0 1
Step 935 0.9350000000000007 0.001 2 6.51055340139895e-07 0 0 1
Step 936 0.9360000000000007 0.001 2 6.215534116331556e-07 0 0 1
Step 937 0.9370000000000007 0.001 2 4.904207980574862e-07 0 0 1
Step 938 0.9380000000000007 0.001 2 7.003480711440043e-07 0 0 1
Step 939 0.9390000000000007 0.001 2 7.246170361923637e-07 0 0 1
Step 940 0.9400000000000007 0.001 2 7.13818037061826e-07 0 0 1
Step 941 0.9410000000000007 0.001 2 9.005138907654514e-07 0 0 1
Step 942 0.9420000000000007 0.001 2 6.397985130591035e-07 0 0 1
Step 943 0.9430000000000007 0.001 2 9.197242763478891e-07 0 0 1
Step 944 0.9440000000000007 0.001 2 7.236945135975095e-07 0 0 1
Step 945 0.9450000000000007 0.001 2 9.865044371930201e-07 0 0 1
Step 946 0.9460000000000007 0.001 2 1.032770977715015e-06 0 0 1
Step 947 0.9470000000000007 0.001 2 8.273785037397187e-07 0 0 1
Step 948 0.9480000000000007 0.001 2 7.540689829742457e-07 0 0 1
Step 949 0.9490000000000007 0.001 2 6.216124796693842e-07 0 0 1
Step 950 0.9500000000000007 0.001 2 7.388969091189871e-07 0 0 1
Step 951 0.9510000000000007 0.001 2 6.360243212027209e-07 0 0 1
Step 952 0.9520000000000007 0.001 2 7.508011079785058e-07 0 0 1
Step 953 0.9530000000000007 0.001 2 5.986178787619781e-07 0 0 1
Step 954 0.9540000000000007 0.001 2 7.104082583212015e-07 0 0 1
Step 955 0.9550000000000007 0.001 2 7.638563877103506e-07 0 0 1
Step 956 0.9560000000000007 0.001 2 8.762539630056895e-07 0 0 1
Step 957 0.9570000000000007 0.001 2 8.09842945213679e-07 0 0 1
Step 958 0.9580000000000007 0.001 2 5.505544467918708e-07 0 0 1
Step 959 0.9590000000000007 0.001 2 5.764642974476751e-07 0 0 1
Step 960 0.9600000000000007 0.001 2 7.742494007155019e-07 0 0 1
Step 961 0.9610000000000007 0.001 2 6.21360482148349e-07 0 0 1
Step 962 0.9620000000000007 0.001 2 6.061382065990013e-07 0 0 1
Step 963 0.9630000000000007 0.001 2 6.084989573798866e-07 0 0 1
Step 964 0.9640000000000007 0.001 2 7.794670621294101e-07 0 0 1
Step 965 0.9650000000000007 0.001 2 6.811523274861696e-07 0 0 1
Step 966 0.9660000000000007 0.001 2 5.799249759256596e-07 0 0 1
Step 967 0.9670000000000007 0.001 2 7.158311904829016e-07 0 0 1
Step 968 0.9680000000000007 0.001 2 8.72148429620139e-07 0 0 1
Step 969 0.9690000000000007 0.001 2 7.138666290321983e-07 0 0 1
Step 970 0.9700000000000008 0.001 2 6.406553066021154e-07 0 0 1
Step 971 0.9710000000000008 0.001 2 8.837705233408818e-07 0 0 1
Step 972 0.9720000000000008 0.001 2 8.420913081036246e-07 0 0 1
Step 973 0.9730000000000008 0.001 2 8.062060970578082e-07 0 0 1
Step 974 0.9740000000000008 0.001 2 6.685981838893282e-07 0 0 1
Step 975 0.9750000000000008 0.001 2 7.937649056357807e-07 0 0 1
Step 976 0.9760000000000008 0.001 2 5.88974999686592e-07 0 0 1
Step 977 0.9770000000000008 0.001 2 8.570174688095314e-07 0 0 1
Step 978 0.9780000000000008 0.001 2 8.350951074877721e-07 0 0 1
Step 979 0.9790000000000008 0.001 2 6.472781293137116e-07 0 0 1
Step 980 0.9800000000000008 0.001 2 5.649997775364676e-07 0 0 1
Step 981 0.9810000000000008 0.001 2 5.597845543687102e-07 0 0 1
Step 982 0.9820000000000008 0.001 2 6.330655255638981e-07 0 0 1
Step 983 0.9830000000000008 0.001 2 8.270888504588837e-07 0 0 1
Step 984 0.9840000000000008 0.001 2 7.099516094505104e-07 0 0 1
Step 985 0.9850000000000008 0.001 2 5.333831254230469e-07 0 0 1
Step 986 0.9860000000000008 0.001 2 8.624654853882431e-07 0 0 1
Step 987 0.9870000000000008 0.001 2 8.313330552307294e-07 0 0 1
Step 988 0.9880000000000008 0.001 2 8.345757382759261e-07 0 0 1
Step 989 0.9890000000000008 0.001 2 6.454357464377749e-07 0 0 1
Step 990 0.9900000000000008 0.001 2 8.822382165492464e-07 0 0 1
Step 991 0.9910000000000008 0.001 2 7.388489917629855e-07 0 0 1
Step 992 0.9920000000000008 0.001 2 6.93165719191325e-07 0 0 1
Step 993 0.9930000000000008 0.001 2 7.611722614100717e-07 0 0 1
Step 994 0.9940000000000008 0.001 2 6.380494261356141e-07 0 0 1
Step 995 0.9950000000000008 0.001 2 5.982742869029651e-07 0 0 1
Step 996 0.9960000000000008 0.001 2 9.761159565749898e-07 0 0 1
Step 997 0.9970000000000008 0.001 2 6.0522363665095e-07 0 0 1
Step 998 0.9980000000000008 0.001 2 6.220152326639277e-07 0 0 1
Step 999 0.9990000000000008 0.001 2 5.433266746084901e-07 0 0 1
Step 1000 1.000000000000001 0.001 2 5.216477568448753e-07 0 0 1
