# Derivatives solution step at time 0 performed in 0 iterations with 6.54614e-17 error
# Key for lines starting with "Step":
# Step Time TStep NIter ResErr SolErr SolConv Out
Step 0 0 0 0 6.54614e-17 0 0 1
Step 1 0.001 0.001 2 2.35514e-06 0 0 1
Step 2 0.002 0.001 13 6.749362336034243e-07 0 0 1
Step 3 0.003 0.001 2 1.499701484502116e-06 0 0 1
Step 4 0.004 0.001 3 7.862875986921812e-07 0 0 1
Step 5 0.005 0.001 2 6.061873421776788e-07 0 0 1
Step 6 0.006 0.001 3 7.521928169411096e-07 0 0 1
Step 7 0.007 0.001 2 6.680954569914856e-07 0 0 1
Step 8 0.008 0.001 3 8.043570512976015e-07 0 0 1
Step 9 0.009000000000000001 0.001 2 7.122368221349388e-07 0 0 1
Step 10 0.01 0.001 8 1.353263247690366e-06 0 0 1
Step 11 0.011 0.001 2 7.528139071486828e-07 0 0 1
Step 12 0.012 0.001 8 1.170061973080345e-06 0 0 1
Step 13 0.013 0.001 2 4.577002425006976e-07 0 0 1
Step 14 0.01400000000000001 0.001 3 9.609365883355501e-07 0 0 1
Step 15 0.01500000000000001 0.001 2 7.500461458746031e-07 0 0 1
Step 16 0.01600000000000001 0.001 3 6.550375885409532e-07 0 0 1
Step 17 0.01700000000000001 0.001 2 7.757731291328654e-07 0 0 1
Step 18 0.01800000000000001 0.001 6 1.272998146838348e-06 0 0 1
Step 19 0.01900000000000001 0.001 2 8.511428347960481e-07 0 0 1
Step 20 0.02000000000000001 0.001 3 7.742172500880328e-07 0 0 1
Step 21 0.02100000000000001 0.001 2 5.533747790013286e-07 0 0 1
Step 22 0.02200000000000001 0.001 2 1.019655758332653e-06 0 0 1
Step 23 0.02300000000000001 0.001 2 8.913720641281116e-07 0 0 1
Step 24 0.02400000000000001 0.001 2 7.453215163802383e-07 0 0 1
Step 25 0.02500000000000002 0.001 2 6.339944077375544e-07 0 0 1
Step 26 0.02600000000000002 0.001 4 9.941211519483001e-07 0 0 1
Step 27 0.02700000000000002 0.001 2 4.349193225150557e-07 0 0 1
Step 28 0.02800000000000002 0.001 2 6.735433154439696e-07 0 0 1
Step 29 0.02900000000000002 0.001 2 7.519777166127213e-07 0 0 1
Step 30 0.03000000000000002 0.001 2 5.52808465419995e-07 0 0 1
Step 31 0.03100000000000002 0.001 2 7.153671922394749e-07 0 0 1
Step 32 0.03200000000000002 0.001 2 6.521622850426054e-07 0 0 1
Step 33 0.03300000000000002 0.001 2 9.637370751276558e-07 0 0 1
Step 34 0.03400000000000002 0.001 2 5.526624368068428e-07 0 0 1
Step 35 0.03500000000000002 0.001 2 5.788126866069495e-07 0 0 1
Step 36 0.03600000000000003 0.001 2 5.084910680882544e-07 0 0 1
Step 37 0.03700000000000003 0.001 2 8.045565734432988e-07 0 0 1
Step 38 0.03800000000000003 0.001 2 7.663625404819037e-07 0 0 1
Step 39 0.03900000000000003 0.001 2 7.278945444713493e-07 0 0 1
Step 40 0.04000000000000003 0.001 2 6.266816054530122e-07 0 0 1
Step 41 0.04100000000000003 0.001 2 8.69858297135873e-07 0 0 1
Step 42 0.04200000000000003 0.001 2 7.03992480496822e-07 0 0 1
Step 43 0.04300000000000003 0.001 2 6.492078544231137e-07 0 0 1
Step 44 0.04400000000000003 0.001 2 8.709478835144641e-07 0 0 1
Step 45 0.04500000000000003 0.001 2 9.710186882361934e-07 0 0 1
Step 46 0.04600000000000003 0.001 2 1.03109830545174e-06 0 0 1
Step 47 0.04700000000000003 0.001 2 8.085728112762205e-07 0 0 1
Step 48 0.04800000000000004 0.001 2 6.200560380557623e-07 0 0 1
Step 49 0.04900000000000004 0.001 2 6.366034760318969e-07 0 0 1
Step 50 0.05000000000000004 0.001 2 9.033659136115772e-07 0 0 1
Step 51 0.05100000000000004 0.001 2 6.886025994041704e-07 0 0 1
Step 52 0.05200000000000004 0.001 2 7.045579430780757e-07 0 0 1
Step 53 0.05300000000000004 0.001 2 5.582615265548175e-07 0 0 1
Step 54 0.05400000000000004 0.001 2 7.594746287980533e-07 0 0 1
Step 55 0.05500000000000004 0.001 2 8.804506005773464e-07 0 0 1
Step 56 0.05600000000000004 0.001 2 5.610880094779557e-07 0 0 1
Step 57 0.05700000000000004 0.001 2 6.135440953124707e-07 0 0 1
Step 58 0.05800000000000004 0.001 2 7.720434150415512e-07 0 0 1
Step 59 0.05900000000000005 0.001 2 7.134648325672568e-07 0 0 1
Step 60 0.06000000000000005 0.001 2 1.076638371732004e-06 0 0 1
Step 61 0.06100000000000005 0.001 2 7.682626654294741e-07 0 0 1
Step 62 0.06200000000000005 0.001 2 5.348595040131386e-07 0 0 1
Step 63 0.06300000000000004 0.001 2 9.008550724916997e-07 0 0 1
Step 64 0.06400000000000004 0.001 2 9.219816047771688e-07 0 0 1
Step 65 0.06500000000000004 0.001 2 6.6446315967052e-07 0 0 1
Step 66 0.06600000000000004 0.001 2 7.032358779038094e-07 0 0 1
Step 67 0.06700000000000005 0.001 2 7.714745049469245e-07 0 0 1
Step 68 0.06800000000000005 0.001 2 7.631003203128436e-07 0 0 1
Step 69 0.06900000000000005 0.001 2 8.684916823928351e-07 0 0 1
Step 70 0.07000000000000005 0.001 2 7.897008844181881e-07 0 0 1
Step 71 0.07100000000000005 0.001 2 6.583911532376525e-07 0 0 1
Step 72 0.07200000000000005 0.001 2 6.67700472065619e-07 0 0 1
Step 73 0.07300000000000005 0.001 2 5.761510768060978e-07 0 0 1
Step 74 0.07400000000000005 0.001 2 6.062432397911246e-07 0 0 1
Step 75 0.07500000000000005 0.001 2 6.689510983036319e-07 0 0 1
Step 76 0.07600000000000005 0.001 2 5.657742122309129e-07 0 0 1
Step 77 0.07700000000000005 0.001 2 6.373351684467433e-07 0 0 1
Step 78 0.07800000000000006 0.001 2 5.146892458424453e-07 0 0 1
Step 79 0.07900000000000006 0.001 2 7.974488277831684e-07 0 0 1
Step 80 0.08000000000000006 0.001 2 4.575563735458137e-07 0 0 1
Step 81 0.08100000000000006 0.001 2 6.181523798187259e-07 0 0 1
Step 82 0.08200000000000006 0.001 2 5.870469769126611e-07 0 0 1
Step 83 0.08300000000000006 0.001 2 6.501652082765761e-07 0 0 1
Step 84 0.08400000000000006 0.001 2 7.597780748007907e-07 0 0 1
Step 85 0.08500000000000006 0.001 2 4.80986671132347e-07 0 0 1
Step 86 0.08600000000000006 0.001 2 6.14021180939454e-07 0 0 1
Step 87 0.08700000000000006 0.001 2 7.737623888451402e-07 0 0 1
Step 88 0.08800000000000006 0.001 2 4.427506973791648e-07 0 0 1
Step 89 0.08900000000000007 0.001 2 5.89177016011751e-07 0 0 1
Step 90 0.09000000000000007 0.001 2 7.897147558816575e-07 0 0 1
Step 91 0.09100000000000007 0.001 2 5.436596383697499e-07 0 0 1
Step 92 0.09200000000000007 0.001 2 7.083162541680915e-07 0 0 1
Step 93 0.09300000000000007 0.001 2 5.937926671682076e-07 0 0 1
Step 94 0.09400000000000007 0.001 2 6.033303746501686e-07 0 0 1
Step 95 0.09500000000000007 0.001 2 6.234433368540881e-07 0 0 1
Step 96 0.09600000000000007 0.001 2 6.204166561185074e-07 0 0 1
Step 97 0.09700000000000007 0.001 2 6.141113050186435e-07 0 0 1
Step 98 0.09800000000000007 0.001 2 7.716961633401396e-07 0 0 1
Step 99 0.09900000000000007 0.001 2 7.129415508826319e-07 0 0 1
Step 100 0.1000000000000001 0.001 2 5.762859331526635e-07 0 0 1
Step 101 0.1010000000000001 0.001 2 4.5373944538948e-07 0 0 1
Step 102 0.1020000000000001 0.001 2 1.076488403381289e-06 0 0 1
Step 103 0.1030000000000001 0.001 2 6.429246451062841e-07 0 0 1
Step 104 0.1040000000000001 0.001 2 6.105223278796494e-07 0 0 1
Step 105 0.1050000000000001 0.001 2 7.046919710834948e-07 0 0 1
Step 106 0.1060000000000001 0.001 2 6.749282710997181e-07 0 0 1
Step 107 0.1070000000000001 0.001 2 6.513589875701956e-07 0 0 1
Step 108 0.1080000000000001 0.001 2 6.589087109887918e-07 0 0 1
Step 109 0.1090000000000001 0.001 2 1.129591511138305e-06 0 0 1
Step 110 0.1100000000000001 0.001 2 5.585253142930575e-07 0 0 1
Step 111 0.1110000000000001 0.001 2 6.820722875963488e-07 0 0 1
Step 112 0.1120000000000001 0.001 2 8.297654380419974e-07 0 0 1
Step 113 0.1130000000000001 0.001 2 7.074457726777393e-07 0 0 1
Step 114 0.1140000000000001 0.001 2 6.272028710855481e-07 0 0 1
Step 115 0.1150000000000001 0.001 2 5.710627696198252e-07 0 0 1
Step 116 0.1160000000000001 0.001 2 6.701936183671394e-07 0 0 1
Step 117 0.1170000000000001 0.001 2 6.871184792958962e-07 0 0 1
Step 118 0.1180000000000001 0.001 2 6.014986907688368e-07 0 0 1
Step 119 0.1190000000000001 0.001 2 5.734090996643372e-07 0 0 1
Step 120 0.1200000000000001 0.001 2 7.195563378871586e-07 0 0 1
Step 121 0.1210000000000001 0.001 2 6.407655618529387e-07 0 0 1
Step 122 0.1220000000000001 0.001 2 8.158957488645143e-07 0 0 1
Step 123 0.1230000000000001 0.001 2 7.116882493206804e-07 0 0 1
Step 124 0.1240000000000001 0.001 2 5.796084797072e-07 0 0 1
Step 125 0.1250000000000001 0.001 2 8.82222439195211e-07 0 0 1
Step 126 0.1260000000000001 0.001 2 7.293291807001257e-07 0 0 1
Step 127 0.1270000000000001 0.001 2 5.435372646962069e-07 0 0 1
Step 128 0.1280000000000001 0.001 2 6.042711314936214e-07 0 0 1
Step 129 0.1290000000000001 0.001 2 9.157353886974591e-07 0 0 1
Step 130 0.1300000000000001 0.001 2 7.250690693602724e-07 0 0 1
Step 131 0.1310000000000001 0.001 2 4.729138387535764e-07 0 0 1
Step 132 0.1320000000000001 0.001 2 7.493993765109848e-07 0 0 1
Step 133 0.1330000000000001 0.001 2 6.676918050761397e-07 0 0 1
Step 134 0.1340000000000001 0.001 2 1.058036703468776e-06 0 0 1
Step 135 0.1350000000000001 0.001 2 6.926605191299288e-07 0 0 1
Step 136 0.1360000000000001 0.001 2 9.778941073528416e-07 0 0 1
Step 137 0.1370000000000001 0.001 2 6.057530893453595e-07 0 0 1
Step 138 0.1380000000000001 0.001 2 7.599128816447269e-07 0 0 1
Step 139 0.1390000000000001 0.001 2 6.376261095244777e-07 0 0 1
Step 140 0.1400000000000001 0.001 2 7.329272745728544e-07 0 0 1
Step 141 0.1410000000000001 0.001 2 5.517365754152095e-07 0 0 1
Step 142 0.1420000000000001 0.001 2 6.748944755195079e-07 0 0 1
Step 143 0.1430000000000001 0.001 2 5.757507119205165e-07 0 0 1
Step 144 0.1440000000000001 0.001 2 8.787685926908956e-07 0 0 1
Step 145 0.1450000000000001 0.001 2 6.622672664514979e-07 0 0 1
Step 146 0.1460000000000001 0.001 2 8.443109493735326e-07 0 0 1
Step 147 0.1470000000000001 0.001 2 7.477960480061419e-07 0 0 1
Step 148 0.1480000000000001 0.001 2 6.92324354835742e-07 0 0 1
Step 149 0.1490000000000001 0.001 2 7.90471415308465e-07 0 0 1
Step 150 0.1500000000000001 0.001 2 6.905741408815685e-07 0 0 1
Step 151 0.1510000000000001 0.001 2 7.478905056844507e-07 0 0 1
Step 152 0.1520000000000001 0.001 2 5.703599067597598e-07 0 0 1
Step 153 0.1530000000000001 0.001 2 5.648126925958693e-07 0 0 1
Step 154 0.1540000000000001 0.001 2 8.279394918294789e-07 0 0 1
Step 155 0.1550000000000001 0.001 2 8.383862621330035e-07 0 0 1
Step 156 0.1560000000000001 0.001 2 7.652699077199805e-07 0 0 1
Step 157 0.1570000000000001 0.001 2 8.146038317608131e-07 0 0 1
Step 158 0.1580000000000001 0.001 2 6.924033544321894e-07 0 0 1
Step 159 0.1590000000000001 0.001 2 7.780750509567216e-07 0 0 1
Step 160 0.1600000000000001 0.001 2 5.395923601970618e-07 0 0 1
Step 161 0.1610000000000001 0.001 2 5.677148445962139e-07 0 0 1
Step 162 0.1620000000000001 0.001 2 7.696573636553407e-07 0 0 1
Step 163 0.1630000000000001 0.001 2 8.88222593192921e-07 0 0 1
Step 164 0.1640000000000001 0.001 2 6.290012520466017e-07 0 0 1
Step 165 0.1650000000000001 0.001 2 7.273364280801691e-07 0 0 1
Step 166 0.1660000000000001 0.001 2 7.726007821903443e-07 0 0 1
Step 167 0.1670000000000001 0.001 2 6.648728464649195e-07 0 0 1
Step 168 0.1680000000000001 0.001 2 6.286050670543506e-07 0 0 1
Step 169 0.1690000000000001 0.001 2 1.325750005709443e-06 0 0 1
Step 170 0.1700000000000001 0.001 2 8.570955022668701e-07 0 0 1
Step 171 0.1710000000000001 0.001 2 8.055858703497683e-07 0 0 1
Step 172 0.1720000000000001 0.001 2 6.315705138718743e-07 0 0 1
Step 173 0.1730000000000001 0.001 2 7.582800698469684e-07 0 0 1
Step 174 0.1740000000000001 0.001 2 6.11894780254514e-07 0 0 1
Step 175 0.1750000000000001 0.001 2 6.51037172644138e-07 0 0 1
Step 176 0.1760000000000001 0.001 2 5.822690273736554e-07 0 0 1
Step 177 0.1770000000000001 0.001 2 9.300366861713511e-07 0 0 1
Step 178 0.1780000000000001 0.001 2 8.748128910270207e-07 0 0 1
Step 179 0.1790000000000001 0.001 2 1.090418973761162e-06 0 0 1
Step 180 0.1800000000000001 0.001 2 7.433972541369735e-07 0 0 1
Step 181 0.1810000000000001 0.001 2 7.759190532802765e-07 0 0 1
Step 182 0.1820000000000001 0.001 2 7.047346923581389e-07 0 0 1
Step 183 0.1830000000000001 0.001 2 7.673624959584694e-07 0 0 1
Step 184 0.1840000000000001 0.001 2 1.175213429937644e-06 0 0 1
Step 185 0.1850000000000001 0.001 2 1.084653629212333e-06 0 0 1
Step 186 0.1860000000000001 0.001 2 9.902270950484054e-07 0 0 1
Step 187 0.1870000000000001 0.001 2 8.457687356934173e-07 0 0 1
Step 188 0.1880000000000001 0.001 2 7.618200283750425e-07 0 0 1
Step 189 0.1890000000000001 0.001 2 8.546773101245399e-07 0 0 1
Step 190 0.1900000000000001 0.001 2 7.335222050232136e-07 0 0 1
Step 191 0.1910000000000001 0.001 2 7.811483809082736e-07 0 0 1
Step 192 0.1920000000000001 0.001 2 7.842333274764056e-07 0 0 1
Step 193 0.1930000000000001 0.001 2 1.028930216102275e-06 0 0 1
Step 194 0.1940000000000001 0.001 2 9.063401780107863e-07 0 0 1
Step 195 0.1950000000000001 0.001 2 8.564538600525529e-07 0 0 1
Step 196 0.1960000000000001 0.001 2 5.503965634078732e-07 0 0 1
Step 197 0.1970000000000001 0.001 2 7.882250175827039e-07 0 0 1
Step 198 0.1980000000000001 0.001 2 7.037201847217661e-07 0 0 1
Step 199 0.1990000000000001 0.001 2 5.968286079340308e-07 0 0 1
Step 200 0.2000000000000001 0.001 2 5.385915362407105e-07 0 0 1
Step 201 0.2010000000000002 0.001 2 6.296867429397074e-07 0 0 1
Step 202 0.2020000000000002 0.001 2 8.355941699815853e-07 0 0 1
Step 203 0.2030000000000002 0.001 2 6.064927181842264e-07 0 0 1
Step 204 0.2040000000000002 0.001 2 7.366248721177943e-07 0 0 1
Step 205 0.2050000000000002 0.001 2 6.631679366756326e-07 0 0 1
Step 206 0.2060000000000002 0.001 2 7.224898389934316e-07 0 0 1
Step 207 0.2070000000000002 0.001 2 7.827042274072775e-07 0 0 1
Step 208 0.2080000000000002 0.001 2 9.204075834126844e-07 0 0 1
Step 209 0.2090000000000002 0.001 2 9.517671443370873e-07 0 0 1
Step 210 0.2100000000000002 0.001 2 9.907314733910931e-07 0 0 1
Step 211 0.2110000000000002 0.001 3 6.396460676383687e-07 0 0 1
Step 212 0.2120000000000002 0.001 2 6.593839145715532e-07 0 0 1
Step 213 0.2130000000000002 0.001 3 7.452715886014571e-07 0 0 1
Step 214 0.2140000000000002 0.001 2 5.274117624504377e-07 0 0 1
Step 215 0.2150000000000002 0.001 3 6.14704831643299e-07 0 0 1
Step 216 0.2160000000000002 0.001 2 8.19356523689769e-07 0 0 1
Step 217 0.2170000000000002 0.001 3 8.307674773951355e-07 0 0 1
Step 218 0.2180000000000002 0.001 2 5.742100629094193e-07 0 0 1
Step 219 0.2190000000000002 0.001 3 5.413676579758672e-07 0 0 1
Step 220 0.2200000000000002 0.001 2 1.381722266153415e-06 0 0 1
Step 221 0.2210000000000002 0.001 3 9.993669330602337e-07 0 0 1
Step 222 0.2220000000000002 0.001 2 6.442404746923729e-07 0 0 1
Step 223 0.2230000000000002 0.001 3 6.581142287773132e-07 0 0 1
Step 224 0.2240000000000002 0.001 2 6.430693066153818e-07 0 0 1
Step 225 0.2250000000000002 0.001 2 8.963711532747243e-07 0 0 1
Step 226 0.2260000000000002 0.001 6 9.229874821985867e-07 0 0 1
Step 227 0.2270000000000002 0.001 2 6.50886134203661e-07 0 0 1
Step 228 0.2280000000000002 0.001 3 5.370589430181543e-07 0 0 1
Step 229 0.2290000000000002 0.001 2 7.469768285332439e-07 0 0 1
Step 230 0.2300000000000002 0.001 2 8.914570218899333e-07 0 0 1
Step 231 0.2310000000000002 0.001 2 6.695890519089885e-07 0 0 1
Step 232 0.2320000000000002 0.001 2 9.377575583736462e-07 0 0 1
Step 233 0.2330000000000002 0.001 2 1.086552588601033e-06 0 0 1
Step 234 0.2340000000000002 0.001 2 6.541726339486753e-07 0 0 1
Step 235 0.2350000000000002 0.001 2 7.379440114627575e-07 0 0 1
Step 236 0.2360000000000002 0.001 2 5.915105036668717e-07 0 0 1
Step 237 0.2370000000000002 0.001 2 5.769113840362716e-07 0 0 1
Step 238 0.2380000000000002 0.001 2 7.767386710625515e-07 0 0 1
Step 239 0.2390000000000002 0.001 2 7.899626312008899e-07 0 0 1
Step 240 0.2400000000000002 0.001 2 7.680810151045867e-07 0 0 1
Step 241 0.2410000000000002 0.001 2 7.849524638391347e-07 0 0 1
Step 242 0.2420000000000002 0.001 2 1.031032449337389e-06 0 0 1
Step 243 0.2430000000000002 0.001 2 8.736802112138423e-07 0 0 1
Step 244 0.2440000000000002 0.001 2 1.096006874937532e-06 0 0 1
Step 245 0.2450000000000002 0.001 2 7.567028659264857e-07 0 0 1
Step 246 0.2460000000000002 0.001 2 7.032221250595291e-07 0 0 1
Step 247 0.2470000000000002 0.001 2 8.503318902511774e-07 0 0 1
Step 248 0.2480000000000002 0.001 2 7.0733362545669e-07 0 0 1
Step 249 0.2490000000000002 0.001 2 8.953509237828091e-07 0 0 1
Step 250 0.2500000000000002 0.001 3 6.941343702624464e-07 0 0 1
Step 251 0.2510000000000002 0.001 2 4.556664990704621e-07 0 0 1
Step 252 0.2520000000000002 0.001 2 8.875386564349064e-07 0 0 1
Step 253 0.2530000000000002 0.001 2 9.062606687811998e-07 0 0 1
Step 254 0.2540000000000002 0.001 2 8.04636874872524e-07 0 0 1
Step 255 0.2550000000000002 0.001 2 8.661054341821867e-07 0 0 1
Step 256 0.2560000000000002 0.001 2 8.913605363786297e-07 0 0 1
Step 257 0.2570000000000002 0.001 2 8.201309195602835e-07 0 0 1
Step 258 0.2580000000000002 0.001 3 7.196333187222826e-07 0 0 1
Step 259 0.2590000000000002 0.001 2 5.81792274033289e-07 0 0 1
Step 260 0.2600000000000002 0.001 2 1.135369361221697e-06 0 0 1
Step 261 0.2610000000000002 0.001 2 8.158304682515357e-07 0 0 1
Step 262 0.2620000000000002 0.001 2 9.47494679007026e-07 0 0 1
Step 263 0.2630000000000002 0.001 2 8.204968211622097e-07 0 0 1
Step 264 0.2640000000000002 0.001 2 6.719736612307858e-07 0 0 1
Step 265 0.2650000000000002 0.001 2 9.475339111130789e-07 0 0 1
Step 266 0.2660000000000002 0.001 3 8.774461003408997e-07 0 0 1
Step 267 0.2670000000000002 0.001 2 7.140120325136502e-07 0 0 1
Step 268 0.2680000000000002 0.001 2 7.691320047707438e-07 0 0 1
Step 269 0.2690000000000002 0.001 2 8.979133710757683e-07 0 0 1
Step 270 0.2700000000000002 0.001 2 7.043689370827732e-07 0 0 1
Step 271 0.2710000000000002 0.001 2 9.277886158064145e-07 0 0 1
Step 272 0.2720000000000002 0.001 2 6.775308555741559e-07 0 0 1
Step 273 0.2730000000000002 0.001 2 7.595866976163226e-07 0 0 1
Step 274 0.2740000000000002 0.001 3 7.597479213250961e-07 0 0 1
Step 275 0.2750000000000002 0.001 2 7.071808041000954e-07 0 0 1
Step 276 0.2760000000000002 0.001 2 8.305698717191539e-07 0 0 1
Step 277 0.2770000000000002 0.001 2 7.939924507195989e-07 0 0 1
Step 278 0.2780000000000002 0.001 2 9.971077502558337e-07 0 0 1
Step 279 0.2790000000000002 0.001 2 6.553658818975415e-07 0 0 1
Step 280 0.2800000000000002 0.001 2 9.130405654064499e-07 0 0 1
Step 281 0.2810000000000002 0.001 2 7.568384420135798e-07 0 0 1
Step 282 0.2820000000000002 0.001 3 7.856580180732064e-07 0 0 1
Step 283 0.2830000000000002 0.001 2 6.770185858456788e-07 0 0 1
Step 284 0.2840000000000002 0.001 2 8.930445526930837e-07 0 0 1
Step 285 0.2850000000000002 0.001 2 6.811461686847638e-07 0 0 1
Step 286 0.2860000000000002 0.001 2 9.761292588546722e-07 0 0 1
Step 287 0.2870000000000002 0.001 2 8.755631270126552e-07 0 0 1
Step 288 0.2880000000000002 0.001 2 7.242590187317668e-07 0 0 1
Step 289 0.2890000000000002 0.001 2 7.888650048224702e-07 0 0 1
Step 290 0.2900000000000002 0.001 2 9.629419282316453e-07 0 0 1
Step 291 0.2910000000000002 0.001 2 6.529874112917045e-07 0 0 1
Step 292 0.2920000000000002 0.001 2 9.297262414671728e-07 0 0 1
Step 293 0.2930000000000002 0.001 2 6.583721415707947e-07 0 0 1
Step 294 0.2940000000000002 0.001 2 7.820935175540066e-07 0 0 1
Step 295 0.2950000000000002 0.001 2 7.346596906822647e-07 0 0 1
Step 296 0.2960000000000002 0.001 2 6.969819560031544e-07 0 0 1
Step 297 0.2970000000000002 0.001 2 7.65999472976367e-07 0 0 1
Step 298 0.2980000000000002 0.001 2 9.402673549902587e-07 0 0 1
Step 299 0.2990000000000002 0.001 2 8.916302114438706e-07 0 0 1
Step 300 0.3000000000000002 0.001 2 1.042488828820946e-06 0 0 1
Step 301 0.3010000000000002 0.001 2 6.995636611319383e-07 0 0 1
Step 302 0.3020000000000002 0.001 2 9.176635721036412e-07 0 0 1
Step 303 0.3030000000000002 0.001 2 7.516608009765895e-07 0 0 1
Step 304 0.3040000000000002 0.001 2 7.63384472205286e-07 0 0 1
Step 305 0.3050000000000002 0.001 2 6.866773165821083e-07 0 0 1
Step 306 0.3060000000000002 0.001 2 1.066333976683972e-06 0 0 1
Step 307 0.3070000000000002 0.001 2 8.055096930634922e-07 0 0 1
Step 308 0.3080000000000002 0.001 2 7.135730190764652e-07 0 0 1
Step 309 0.3090000000000002 0.001 2 9.590503410480615e-07 0 0 1
Step 310 0.3100000000000002 0.001 2 6.519421002474029e-07 0 0 1
Step 311 0.3110000000000002 0.001 2 8.639893800059141e-07 0 0 1
Step 312 0.3120000000000002 0.001 2 6.277030090320176e-07 0 0 1
Step 313 0.3130000000000002 0.001 2 5.969439669665634e-07 0 0 1
Step 314 0.3140000000000002 0.001 2 7.585286554496276e-07 0 0 1
Step 315 0.3150000000000002 0.001 2 6.832872246444829e-07 0 0 1
Step 316 0.3160000000000002 0.001 2 1.076870867116347e-06 0 0 1
Step 317 0.3170000000000002 0.001 2 5.32861164746306e-07 0 0 1
Step 318 0.3180000000000002 0.001 2 7.416740719106167e-07 0 0 1
Step 319 0.3190000000000002 0.001 2 7.792425542252618e-07 0 0 1
Step 320 0.3200000000000002 0.001 2 8.537324541786031e-07 0 0 1
Step 321 0.3210000000000002 0.001 2 9.905712964385055e-07 0 0 1
Step 322 0.3220000000000002 0.001 2 6.526759704648985e-07 0 0 1
Step 323 0.3230000000000002 0.001 2 9.176618869500399e-07 0 0 1
Step 324 0.3240000000000002 0.001 2 7.318813915475497e-07 0 0 1
Step 325 0.3250000000000002 0.001 2 7.618132029198586e-07 0 0 1
Step 326 0.3260000000000002 0.001 2 5.730128646756777e-07 0 0 1
Step 327 0.3270000000000002 0.001 2 8.364259749241842e-07 0 0 1
Step 328 0.3280000000000002 0.001 2 6.402376797635342e-07 0 0 1
Step 329 0.3290000000000002 0.001 2 9.95904498930516e-07 0 0 1
Step 330 0.3300000000000002 0.001 2 7.99544699236717e-07 0 0 1
Step 331 0.3310000000000002 0.001 2 9.752102605532761e-07 0 0 1
Step 332 0.3320000000000002 0.001 2 7.632388415295909e-07 0 0 1
Step 333 0.3330000000000002 0.001 2 1.046466925305048e-06 0 0 1
Step 334 0.3340000000000002 0.001 2 7.748831393359438e-07 0 0 1
Step 335 0.3350000000000002 0.001 2 7.142273050049082e-07 0 0 1
Step 336 0.3360000000000002 0.001 2 8.549902660884017e-07 0 0 1
Step 337 0.3370000000000002 0.001 2 5.928457756336761e-07 0 0 1
Step 338 0.3380000000000002 0.001 2 7.010206417630437e-07 0 0 1
Step 339 0.3390000000000002 0.001 2 6.708114203522841e-07 0 0 1
Step 340 0.3400000000000002 0.001 2 5.474674357998764e-07 0 0 1
Step 341 0.3410000000000002 0.001 2 7.441288842817696e-07 0 0 1
Step 342 0.3420000000000002 0.001 2 6.102827410672124e-07 0 0 1
Step 343 0.3430000000000002 0.001 2 7.156987795270797e-07 0 0 1
Step 344 0.3440000000000003 0.001 2 4.913147036603437e-07 0 0 1
Step 345 0.3450000000000003 0.001 2 5.961674262553154e-07 0 0 1
Step 346 0.3460000000000003 0.001 2 6.486882923531157e-07 0 0 1
Step 347 0.3470000000000003 0.001 2 7.412497249334984e-07 0 0 1
Step 348 0.3480000000000003 0.001 2 6.169484833367148e-07 0 0 1
Step 349 0.3490000000000003 0.001 2 7.809967155241734e-07 0 0 1
Step 350 0.3500000000000003 0.001 2 5.272359662674545e-07 0 0 1
Step 351 0.3510000000000003 0.001 2 7.517055454295946e-07 0 0 1
Step 352 0.3520000000000003 0.001 2 6.37142046635343e-07 0 0 1
Step 353 0.3530000000000003 0.001 2 6.041366751264692e-07 0 0 1
Step 354 0.3540000000000003 0.001 2 7.637460142685201e-07 0 0 1
Step 355 0.3550000000000003 0.001 2 4.729022674253457e-07 0 0 1
Step 356 0.3560000000000003 0.001 2 6.511681444546611e-07 0 0 1
Step 357 0.3570000000000003 0.001 2 5.595504188192868e-07 0 0 1
Step 358 0.3580000000000003 0.001 2 5.836909391129463e-07 0 0 1
Step 359 0.3590000000000003 0.001 2 5.614931781520262e-07 0 0 1
Step 360 0.3600000000000003 0.001 2 7.33663914396499e-07 0 0 1
Step 361 0.3610000000000003 0.001 2 5.180306726092009e-07 0 0 1
Step 362 0.3620000000000003 0.001 2 7.176963039141971e-07 0 0 1
Step 363 0.3630000000000003 0.001 2 8.359735574441357e-07 0 0 1
Step 364 0.3640000000000003 0.001 2 8.321721180759382e-07 0 0 1
Step 365 0.3650000000000003 0.001 2 6.307354134094773e-07 0 0 1
Step 366 0.3660000000000003 0.001 2 6.234826941020834e-07 0 0 1
Step 367 0.3670000000000003 0.001 2 8.842053035847837e-07 0 0 1
Step 368 0.3680000000000003 0.001 2 5.341709531717962e-07 0 0 1
Step 369 0.3690000000000003 0.001 2 8.717657881038464e-07 0 0 1
Step 370 0.3700000000000003 0.001 2 8.170910333308599e-07 0 0 1
Step 371 0.3710000000000003 0.001 2 6.991631519584646e-07 0 0 1
Step 372 0.3720000000000003 0.001 2 5.850478994397618e-07 0 0 1
Step 373 0.3730000000000003 0.001 2 7.451882512187577e-07 0 0 1
Step 374 0.3740000000000003 0.001 2 8.544500182245541e-07 0 0 1
Step 375 0.3750000000000003 0.001 2 6.570742581387398e-07 0 0 1
Step 376 0.3760000000000003 0.001 2 9.215194413871385e-07 0 0 1
Step 377 0.3770000000000003 0.001 2 8.065841234941421e-07 0 0 1
Step 378 0.3780000000000003 0.001 2 8.355891840392639e-07 0 0 1
Step 379 0.3790000000000003 0.001 2 4.327069900738486e-07 0 0 1
Step 380 0.3800000000000003 0.001 2 6.158440739002023e-07 0 0 1
Step 381 0.3810000000000003 0.001 2 5.871979338656826e-07 0 0 1
Step 382 0.3820000000000003 0.001 2 9.744667243226077e-07 0 0 1
Step 383 0.3830000000000003 0.001 2 6.949293977165763e-07 0 0 1
Step 384 0.3840000000000003 0.001 2 7.286754848895733e-07 0 0 1
Step 385 0.3850000000000003 0.001 2 7.140129247429376e-07 0 0 1
Step 386 0.3860000000000003 0.001 2 6.612355604074212e-07 0 0 1
Step 387 0.3870000000000003 0.001 2 5.136618382437857e-07 0 0 1
Step 388 0.3880000000000003 0.001 2 6.390176076524044e-07 0 0 1
Step 389 0.3890000000000003 0.001 2 7.614205855088679e-07 0 0 1
Step 390 0.3900000000000003 0.001 2 7.855436831715752e-07 0 0 1
Step 391 0.3910000000000003 0.001 2 7.13157214071894e-07 0 0 1
Step 392 0.3920000000000003 0.001 2 7.871051571829208e-07 0 0 1
Step 393 0.3930000000000003 0.001 2 5.314627119573726e-07 0 0 1
Step 394 0.3940000000000003 0.001 2 7.304909113346294e-07 0 0 1
Step 395 0.3950000000000003 0.001 2 9.26030951407981e-07 0 0 1
Step 396 0.3960000000000003 0.001 2 6.287401528225337e-07 0 0 1
Step 397 0.3970000000000003 0.001 2 5.020535374787639e-07 0 0 1
Step 398 0.3980000000000003 0.001 2 9.830368932299132e-07 0 0 1
Step 399 0.3990000000000003 0.001 2 6.225069987494545e-07 0 0 1
Step 400 0.4000000000000003 0.001 2 6.764904391831356e-07 0 0 1
Step 401 0.4010000000000003 0.001 2 5.834152295960753e-07 0 0 1
Step 402 0.4020000000000003 0.001 2 6.329197944298338e-07 0 0 1
Step 403 0.4030000000000003 0.001 2 6.926306212286823e-07 0 0 1
Step 404 0.4040000000000003 0.001 2 5.91197106883407e-07 0 0 1
Step 405 0.4050000000000003 0.001 2 7.074853114311585e-07 0 0 1
Step 406 0.4060000000000003 0.001 2 5.66925123748588e-07 0 0 1
Step 407 0.4070000000000003 0.001 2 1.017081229119343e-06 0 0 1
Step 408 0.4080000000000003 0.001 2 7.697548862254603e-07 0 0 1
Step 409 0.4090000000000003 0.001 2 7.098686980707187e-07 0 0 1
Step 410 0.4100000000000003 0.001 2 7.621710385782767e-07 0 0 1
Step 411 0.4110000000000003 0.001 2 4.605668444065619e-07 0 0 1
Step 412 0.4120000000000003 0.001 2 7.636841161254016e-07 0 0 1
Step 413 0.4130000000000003 0.001 2 8.645596816788635e-07 0 0 1
Step 414 0.4140000000000003 0.001 2 6.295463399121668e-07 0 0 1
Step 415 0.4150000000000003 0.001 2 6.459002183428259e-07 0 0 1
Step 416 0.4160000000000003 0.001 2 7.629028539914518e-07 0 0 1
Step 417 0.4170000000000003 0.001 2 8.75107769373268e-07 0 0 1
Step 418 0.4180000000000003 0.001 2 9.549665145751386e-07 0 0 1
Step 419 0.4190000000000003 0.001 2 9.029847307275472e-07 0 0 1
Step 420 0.4200000000000003 0.001 2 8.928905061996559e-07 0 0 1
Step 421 0.4210000000000003 0.001 2 1.08864952790566e-06 0 0 1
Step 422 0.4220000000000003 0.001 3 7.599105203207635e-07 0 0 1
Step 423 0.4230000000000003 0.001 2 6.454467784770315e-07 0 0 1
Step 424 0.4240000000000003 0.001 2 1.056124532201832e-06 0 0 1
Step 425 0.4250000000000003 0.001 2 1.113354898151201e-06 0 0 1
Step 426 0.4260000000000003 0.001 3 7.541698106356952e-07 0 0 1
Step 427 0.4270000000000003 0.001 2 6.855221409838323e-07 0 0 1
Step 428 0.4280000000000003 0.001 3 8.403641989774966e-07 0 0 1
Step 429 0.4290000000000003 0.001 2 8.975202844992305e-07 0 0 1
Step 430 0.4300000000000003 0.001 2 1.15463003146371e-06 0 0 1
Step 431 0.4310000000000003 0.001 2 1.220055762791793e-06 0 0 1
Step 432 0.4320000000000003 0.001 2 7.836801208657657e-07 0 0 1
Step 433 0.4330000000000003 0.001 2 7.895535887740638e-07 0 0 1
Step 434 0.4340000000000003 0.001 3 8.985244000654952e-07 0 0 1
Step 435 0.4350000000000003 0.001 2 8.210616791289941e-07 0 0 1
Step 436 0.4360000000000003 0.001 2 8.210643616728818e-07 0 0 1
Step 437 0.4370000000000003 0.001 2 7.728325640134347e-07 0 0 1
Step 438 0.4380000000000003 0.001 2 6.293328494921993e-07 0 0 1
Step 439 0.4390000000000003 0.001 2 5.562632671405068e-07 0 0 1
Step 440 0.4400000000000003 0.001 2 6.574163858384558e-07 0 0 1
Step 441 0.4410000000000003 0.001 2 8.050251162660084e-07 0 0 1
Step 442 0.4420000000000003 0.001 2 5.65431007137521e-07 0 0 1
Step 443 0.4430000000000003 0.001 2 5.313290536269229e-07 0 0 1
Step 444 0.4440000000000003 0.001 2 8.600395667404438e-07 0 0 1
Step 445 0.4450000000000003 0.001 2 6.241309351204628e-07 0 0 1
Step 446 0.4460000000000003 0.001 2 5.63942726703421e-07 0 0 1
Step 447 0.4470000000000003 0.001 2 6.42651065225502e-07 0 0 1
Step 448 0.4480000000000003 0.001 2 5.743931417125748e-07 0 0 1
Step 449 0.4490000000000003 0.001 2 8.242997671762253e-07 0 0 1
Step 450 0.4500000000000003 0.001 2 4.46293113353526e-07 0 0 1
Step 451 0.4510000000000003 0.001 2 8.141863470103236e-07 0 0 1
Step 452 0.4520000000000003 0.001 2 5.475875061616176e-07 0 0 1
Step 453 0.4530000000000003 0.001 2 1.112773602783466e-06 0 0 1
Step 454 0.4540000000000003 0.001 2 5.08301733611723e-07 0 0 1
Step 455 0.4550000000000003 0.001 2 5.206431004910496e-07 0 0 1
Step 456 0.4560000000000003 0.001 2 6.172946612517666e-07 0 0 1
Step 457 0.4570000000000004 0.001 2 7.137942075756376e-07 0 0 1
Step 458 0.4580000000000004 0.001 2 8.993387048723856e-07 0 0 1
Step 459 0.4590000000000004 0.001 2 5.308018610315462e-07 0 0 1
Step 460 0.4600000000000004 0.001 2 7.76950870404738e-07 0 0 1
Step 461 0.4610000000000004 0.001 2 6.972762434192245e-07 0 0 1
Step 462 0.4620000000000004 0.001 2 6.378465277757059e-07 0 0 1
Step 463 0.4630000000000004 0.001 2 8.589088042316745e-07 0 0 1
Step 464 0.4640000000000004 0.001 2 9.076056613295771e-07 0 0 1
Step 465 0.4650000000000004 0.001 2 6.237637879758768e-07 0 0 1
Step 466 0.4660000000000004 0.001 2 7.5530208353056e-07 0 0 1
Step 467 0.4670000000000004 0.001 2 7.004955444092822e-07 0 0 1
Step 468 0.4680000000000004 0.001 2 6.727609268632648e-07 0 0 1
Step 469 0.4690000000000004 0.001 2 5.550094645758903e-07 0 0 1
Step 470 0.4700000000000004 0.001 2 6.571852007363753e-07 0 0 1
Step 471 0.4710000000000004 0.001 2 4.696208861462376e-07 0 0 1
Step 472 0.4720000000000004 0.001 2 4.721250962118366e-07 0 0 1
Step 473 0.4730000000000004 0.001 2 6.678915917901113e-07 0 0 1
Step 474 0.4740000000000004 0.001 2 1.262797423652882e-06 0 0 1
Step 475 0.4750000000000004 0.001 2 5.357639963544057e-07 0 0 1
Step 476 0.4760000000000004 0.001 2 7.547779167021099e-07 0 0 1
Step 477 0.4770000000000004 0.001 2 6.826352625821906e-07 0 0 1
Step 478 0.4780000000000004 0.001 2 7.882997643483377e-07 0 0 1
Step 479 0.4790000000000004 0.001 2 5.728682377833385e-07 0 0 1
Step 480 0.4800000000000004 0.001 2 5.839741456576951e-07 0 0 1
Step 481 0.4810000000000004 0.001 2 6.355716540580245e-07 0 0 1
Step 482 0.4820000000000004 0.001 2 6.688569653335321e-07 0 0 1
Step 483 0.4830000000000004 0.001 2 7.743714219319836e-07 0 0 1
Step 484 0.4840000000000004 0.001 2 7.247702667187637e-07 0 0 1
Step 485 0.4850000000000004 0.001 2 9.029400293135658e-07 0 0 1
Step 486 0.4860000000000004 0.001 2 7.185856652116578e-07 0 0 1
Step 487 0.4870000000000004 0.001 2 7.748289080424967e-07 0 0 1
Step 488 0.4880000000000004 0.001 2 7.28347382909199e-07 0 0 1
Step 489 0.4890000000000004 0.001 2 6.533029546578245e-07 0 0 1
Step 490 0.4900000000000004 0.001 2 7.224432631151354e-07 0 0 1
Step 491 0.4910000000000004 0.001 2 5.871682800512732e-07 0 0 1
Step 492 0.4920000000000004 0.001 2 7.393895679391736e-07 0 0 1
Step 493 0.4930000000000004 0.001 2 6.844366643223764e-07 0 0 1
Step 494 0.4940000000000004 0.001 2 7.038209655317406e-07 0 0 1
Step 495 0.4950000000000004 0.001 2 7.890333216721313e-07 0 0 1
Step 496 0.4960000000000004 0.001 2 7.084744469598467e-07 0 0 1
Step 497 0.4970000000000004 0.001 2 7.248772551610514e-07 0 0 1
Step 498 0.4980000000000004 0.001 2 7.833982385789984e-07 0 0 1
Step 499 0.4990000000000004 0.001 2 7.04368323097369e-07 0 0 1
Step 500 0.5000000000000003 0.001 2 7.446958667196693e-07 0 0 1
Step 501 0.5010000000000003 0.001 2 7.133006027969677e-07 0 0 1
Step 502 0.5020000000000003 0.001 2 5.391886850334175e-07 0 0 1
Step 503 0.5030000000000003 0.001 2 6.090448325823357e-07 0 0 1
Step 504 0.5040000000000003 0.001 2 6.067758598022772e-07 0 0 1
Step 505 0.5050000000000003 0.001 2 7.262222063892658e-07 0 0 1
Step 506 0.5060000000000003 0.001 2 6.72786467710393e-07 0 0 1
Step 507 0.5070000000000003 0.001 2 7.651198012503587e-07 0 0 1
Step 508 0.5080000000000003 0.001 2 6.364826893911327e-07 0 0 1
Step 509 0.5090000000000003 0.001 2 6.747452611402497e-07 0 0 1
Step 510 0.5100000000000003 0.001 2 5.749079310312668e-07 0 0 1
Step 511 0.5110000000000003 0.001 2 1.006463233340436e-06 0 0 1
Step 512 0.5120000000000003 0.001 2 6.488674074373716e-07 0 0 1
Step 513 0.5130000000000003 0.001 2 6.584186433708294e-07 0 0 1
Step 514 0.5140000000000003 0.001 2 8.160997271020684e-07 0 0 1
Step 515 0.5150000000000003 0.001 2 7.404404259139783e-07 0 0 1
Step 516 0.5160000000000003 0.001 2 8.197119830788987e-07 0 0 1
Step 517 0.5170000000000003 0.001 2 6.153089002122811e-07 0 0 1
Step 518 0.5180000000000003 0.001 2 9.267902789800661e-07 0 0 1
Step 519 0.5190000000000003 0.001 2 7.47943334798926e-07 0 0 1
Step 520 0.5200000000000004 0.001 2 6.876589345640179e-07 0 0 1
Step 521 0.5210000000000004 0.001 2 7.016392501159343e-07 0 0 1
Step 522 0.5220000000000004 0.001 2 5.894436927538213e-07 0 0 1
Step 523 0.5230000000000004 0.001 2 6.081130665313371e-07 0 0 1
Step 524 0.5240000000000004 0.001 2 7.096660520360275e-07 0 0 1
Step 525 0.5250000000000004 0.001 2 7.48407106407914e-07 0 0 1
Step 526 0.5260000000000004 0.001 2 4.619218440622189e-07 0 0 1
Step 527 0.5270000000000004 0.001 2 6.104634550327709e-07 0 0 1
Step 528 0.5280000000000004 0.001 2 8.080074629570264e-07 0 0 1
Step 529 0.5290000000000004 0.001 2 6.250858775709289e-07 0 0 1
Step 530 0.5300000000000004 0.001 2 6.431095782547195e-07 0 0 1
Step 531 0.5310000000000004 0.001 2 4.868743761424696e-07 0 0 1
Step 532 0.5320000000000004 0.001 2 5.363549097078392e-07 0 0 1
Step 533 0.5330000000000004 0.001 2 6.485581693136958e-07 0 0 1
Step 534 0.5340000000000004 0.001 2 7.04046067998147e-07 0 0 1
Step 535 0.5350000000000004 0.001 2 3.793103331195535e-07 0 0 1
Step 536 0.5360000000000004 0.001 2 6.728858018935441e-07 0 0 1
Step 537 0.5370000000000004 0.001 2 4.777091236674861e-07 0 0 1
Step 538 0.5380000000000004 0.001 2 5.670074236690764e-07 0 0 1
Step 539 0.5390000000000004 0.001 2 1.00369106968674e-06 0 0 1
Step 540 0.5400000000000004 0.001 2 6.916380581709387e-07 0 0 1
Step 541 0.5410000000000004 0.001 2 5.188150361547406e-07 0 0 1
Step 542 0.5420000000000004 0.001 2 4.666311430848183e-07 0 0 1
Step 543 0.5430000000000004 0.001 2 9.341084010217801e-07 0 0 1
Step 544 0.5440000000000004 0.001 2 5.60814282432944e-07 0 0 1
Step 545 0.5450000000000004 0.001 2 6.380686873003079e-07 0 0 1
Step 546 0.5460000000000004 0.001 2 7.159441082776378e-07 0 0 1
Step 547 0.5470000000000004 0.001 2 7.528529941954037e-07 0 0 1
Step 548 0.5480000000000004 0.001 2 5.184436068600589e-07 0 0 1
Step 549 0.5490000000000004 0.001 2 5.24164503491918e-07 0 0 1
Step 550 0.5500000000000004 0.001 2 5.187021804927552e-07 0 0 1
Step 551 0.5510000000000004 0.001 2 7.969782254464626e-07 0 0 1
Step 552 0.5520000000000004 0.001 2 7.167104649957791e-07 0 0 1
Step 553 0.5530000000000004 0.001 2 5.788951789698652e-07 0 0 1
Step 554 0.5540000000000004 0.001 2 5.381432504323045e-07 0 0 1
Step 555 0.5550000000000004 0.001 2 6.601529177157491e-07 0 0 1
Step 556 0.5560000000000004 0.001 2 5.841274618342971e-07 0 0 1
Step 557 0.5570000000000004 0.001 2 6.056245062417799e-07 0 0 1
Step 558 0.5580000000000004 0.001 2 6.20159378624316e-07 0 0 1
Step 559 0.5590000000000004 0.001 2 4.622009983835178e-07 0 0 1
Step 560 0.5600000000000004 0.001 2 4.553092237077756e-07 0 0 1
Step 561 0.5610000000000004 0.001 2 5.525616156361826e-07 0 0 1
Step 562 0.5620000000000004 0.001 2 9.636617143960438e-07 0 0 1
Step 563 0.5630000000000004 0.001 2 6.470732303296777e-07 0 0 1
Step 564 0.5640000000000004 0.001 2 7.658378955979238e-07 0 0 1
Step 565 0.5650000000000004 0.001 2 7.184176581651972e-07 0 0 1
Step 566 0.5660000000000004 0.001 2 5.521609118020143e-07 0 0 1
Step 567 0.5670000000000004 0.001 2 6.816683634978384e-07 0 0 1
Step 568 0.5680000000000004 0.001 2 7.223835186536353e-07 0 0 1
Step 569 0.5690000000000004 0.001 2 7.917383619175689e-07 0 0 1
Step 570 0.5700000000000004 0.001 2 6.499003052393095e-07 0 0 1
Step 571 0.5710000000000004 0.001 2 6.266063093521373e-07 0 0 1
Step 572 0.5720000000000004 0.001 2 6.477936088717677e-07 0 0 1
Step 573 0.5730000000000004 0.001 2 7.209416669250795e-07 0 0 1
Step 574 0.5740000000000004 0.001 2 8.058144353833304e-07 0 0 1
Step 575 0.5750000000000004 0.001 2 5.929901698603586e-07 0 0 1
Step 576 0.5760000000000004 0.001 2 5.246429538490317e-07 0 0 1
Step 577 0.5770000000000004 0.001 2 6.385648382897413e-07 0 0 1
Step 578 0.5780000000000004 0.001 2 8.886630595760177e-07 0 0 1
Step 579 0.5790000000000004 0.001 2 6.35044145311217e-07 0 0 1
Step 580 0.5800000000000004 0.001 2 6.282941879321183e-07 0 0 1
Step 581 0.5810000000000004 0.001 2 6.961398350177086e-07 0 0 1
Step 582 0.5820000000000004 0.001 2 7.234125788786152e-07 0 0 1
Step 583 0.5830000000000004 0.001 2 5.939872750316693e-07 0 0 1
Step 584 0.5840000000000004 0.001 2 7.633176323879047e-07 0 0 1
Step 585 0.5850000000000004 0.001 2 5.299128672706969e-07 0 0 1
Step 586 0.5860000000000004 0.001 2 9.488358884407685e-07 0 0 1
Step 587 0.5870000000000004 0.001 2 7.668552776898936e-07 0 0 1
Step 588 0.5880000000000004 0.001 2 6.162606813534911e-07 0 0 1
Step 589 0.5890000000000004 0.001 2 8.33598020920731e-07 0 0 1
Step 590 0.5900000000000004 0.001 2 5.307124971730183e-07 0 0 1
Step 591 0.5910000000000004 0.001 2 8.424959611809841e-07 0 0 1
Step 592 0.5920000000000004 0.001 2 6.30889448611218e-07 0 0 1
Step 593 0.5930000000000004 0.001 2 5.296656511450313e-07 0 0 1
Step 594 0.5940000000000004 0.001 2 6.680325223353154e-07 0 0 1
Step 595 0.5950000000000004 0.001 2 7.217300547475327e-07 0 0 1
Step 596 0.5960000000000004 0.001 2 6.476072035202936e-07 0 0 1
Step 597 0.5970000000000004 0.001 2 8.606616393383395e-07 0 0 1
Step 598 0.5980000000000004 0.001 2 6.385133746577873e-07 0 0 1
Step 599 0.5990000000000004 0.001 2 6.556707536453293e-07 0 0 1
Step 600 0.6000000000000004 0.001 2 6.081183041020674e-07 0 0 1
Step 601 0.6010000000000004 0.001 2 6.201914802597277e-07 0 0 1
Step 602 0.6020000000000004 0.001 2 8.000014436172652e-07 0 0 1
Step 603 0.6030000000000004 0.001 2 4.771178642249779e-07 0 0 1
Step 604 0.6040000000000004 0.001 2 5.510035673910588e-07 0 0 1
Step 605 0.6050000000000004 0.001 2 5.86763405031029e-07 0 0 1
Step 606 0.6060000000000004 0.001 2 7.833954046501205e-07 0 0 1
Step 607 0.6070000000000004 0.001 2 6.855217498920686e-07 0 0 1
Step 608 0.6080000000000004 0.001 2 7.43927463021096e-07 0 0 1
Step 609 0.6090000000000004 0.001 2 6.26936494935837e-07 0 0 1
Step 610 0.6100000000000004 0.001 2 7.701525809716116e-07 0 0 1
Step 611 0.6110000000000004 0.001 2 1.004404119330015e-06 0 0 1
Step 612 0.6120000000000004 0.001 2 6.32567779867084e-07 0 0 1
Step 613 0.6130000000000004 0.001 2 6.178169704743422e-07 0 0 1
Step 614 0.6140000000000004 0.001 2 6.652412311333704e-07 0 0 1
Step 615 0.6150000000000004 0.001 2 6.510928611863189e-07 0 0 1
Step 616 0.6160000000000004 0.001 2 6.691573804301737e-07 0 0 1
Step 617 0.6170000000000004 0.001 2 8.326779801135824e-07 0 0 1
Step 618 0.6180000000000004 0.001 2 4.449493336682277e-07 0 0 1
Step 619 0.6190000000000004 0.001 2 7.155648542013142e-07 0 0 1
Step 620 0.6200000000000004 0.001 2 6.62197925260187e-07 0 0 1
Step 621 0.6210000000000004 0.001 2 9.85477676660107e-07 0 0 1
Step 622 0.6220000000000004 0.001 2 9.606082487696667e-07 0 0 1
Step 623 0.6230000000000004 0.001 2 6.84290248566106e-07 0 0 1
Step 624 0.6240000000000004 0.001 2 7.236270104990978e-07 0 0 1
Step 625 0.6250000000000004 0.001 2 7.462136451871672e-07 0 0 1
Step 626 0.6260000000000004 0.001 2 8.241459218704138e-07 0 0 1
Step 627 0.6270000000000004 0.001 2 6.106810129887084e-07 0 0 1
Step 628 0.6280000000000004 0.001 2 6.88924415978098e-07 0 0 1
Step 629 0.6290000000000004 0.001 2 9.403940308781795e-07 0 0 1
Step 630 0.6300000000000004 0.001 2 7.732798819602223e-07 0 0 1
Step 631 0.6310000000000004 0.001 2 8.206233365968576e-07 0 0 1
Step 632 0.6320000000000005 0.001 2 5.897337877349287e-07 0 0 1
Step 633 0.6330000000000005 0.001 2 9.401594732052191e-07 0 0 1
Step 634 0.6340000000000005 0.001 2 9.051358549246985e-07 0 0 1
Step 635 0.6350000000000005 0.001 2 7.466280979355463e-07 0 0 1
Step 636 0.6360000000000005 0.001 2 1.041658734158666e-06 0 0 1
Step 637 0.6370000000000005 0.001 2 5.952789863779196e-07 0 0 1
Step 638 0.6380000000000005 0.001 2 7.67084772081444e-07 0 0 1
Step 639 0.6390000000000005 0.001 2 1.019030932419269e-06 0 0 1
Step 640 0.6400000000000005 0.001 2 6.889454346001842e-07 0 0 1
Step 641 0.6410000000000005 0.001 2 8.761407784652533e-07 0 0 1
Step 642 0.6420000000000005 0.001 2 5.461998603862204e-07 0 0 1
Step 643 0.6430000000000005 0.001 2 9.208440896546063e-07 0 0 1
Step 644 0.6440000000000005 0.001 2 7.051130319394181e-07 0 0 1
Step 645 0.6450000000000005 0.001 2 5.722243724440603e-07 0 0 1
Step 646 0.6460000000000005 0.001 2 7.368093719907225e-07 0 0 1
Step 647 0.6470000000000005 0.001 2 4.924371079298969e-07 0 0 1
Step 648 0.6480000000000005 0.001 2 5.743765119437376e-07 0 0 1
Step 649 0.6490000000000005 0.001 2 6.868510942183039e-07 0 0 1
Step 650 0.6500000000000005 0.001 2 6.222154242494209e-07 0 0 1
Step 651 0.6510000000000005 0.001 2 6.010557548749816e-07 0 0 1
Step 652 0.6520000000000005 0.001 2 1.000348538805118e-06 0 0 1
Step 653 0.6530000000000005 0.001 2 6.545838298633698e-07 0 0 1
Step 654 0.6540000000000005 0.001 2 5.063386561575108e-07 0 0 1
Step 655 0.6550000000000005 0.001 2 7.238422719245516e-07 0 0 1
Step 656 0.6560000000000005 0.001 2 7.098680071222999e-07 0 0 1
Step 657 0.6570000000000005 0.001 2 7.53021429130532e-07 0 0 1
Step 658 0.6580000000000005 0.001 2 4.822890797003676e-07 0 0 1
Step 659 0.6590000000000005 0.001 2 6.168947826220265e-07 0 0 1
Step 660 0.6600000000000005 0.001 2 6.606382602353211e-07 0 0 1
Step 661 0.6610000000000005 0.001 2 6.438931798608636e-07 0 0 1
Step 662 0.6620000000000005 0.001 2 8.897266877698911e-07 0 0 1
Step 663 0.6630000000000005 0.001 2 8.409913863772174e-07 0 0 1
Step 664 0.6640000000000005 0.001 2 5.385621583429935e-07 0 0 1
Step 665 0.6650000000000005 0.001 2 5.212593302631967e-07 0 0 1
Step 666 0.6660000000000005 0.001 2 6.977546155346195e-07 0 0 1
Step 667 0.6670000000000005 0.001 2 4.89104147484537e-07 0 0 1
Step 668 0.6680000000000005 0.001 2 1.042815934648354e-06 0 0 1
Step 669 0.6690000000000005 0.001 2 7.357005444342092e-07 0 0 1
Step 670 0.6700000000000005 0.001 2 6.159946766230654e-07 0 0 1
Step 671 0.6710000000000005 0.001 2 5.896009663431172e-07 0 0 1
Step 672 0.6720000000000005 0.001 2 7.93523940471283e-07 0 0 1
Step 673 0.6730000000000005 0.001 2 5.072746852022397e-07 0 0 1
Step 674 0.6740000000000005 0.001 2 8.889240695938519e-07 0 0 1
Step 675 0.6750000000000005 0.001 2 5.344004911894452e-07 0 0 1
Step 676 0.6760000000000005 0.001 2 9.226743594528821e-07 0 0 1
Step 677 0.6770000000000005 0.001 2 6.317658014683434e-07 0 0 1
Step 678 0.6780000000000005 0.001 2 7.441436417140669e-07 0 0 1
Step 679 0.6790000000000005 0.001 2 7.65554888749095e-07 0 0 1
Step 680 0.6800000000000005 0.001 2 7.309485875284107e-07 0 0 1
Step 681 0.6810000000000005 0.001 2 6.615142239472113e-07 0 0 1
Step 682 0.6820000000000005 0.001 2 6.166889983744991e-07 0 0 1
Step 683 0.6830000000000005 0.001 2 8.533404273577734e-07 0 0 1
Step 684 0.6840000000000005 0.001 2 6.600037276071366e-07 0 0 1
Step 685 0.6850000000000005 0.001 2 8.144223239552376e-07 0 0 1
Step 686 0.6860000000000005 0.001 2 8.39712921595592e-07 0 0 1
Step 687 0.6870000000000005 0.001 2 6.653077694635976e-07 0 0 1
Step 688 0.6880000000000005 0.001 2 4.530096331143001e-07 0 0 1
Step 689 0.6890000000000005 0.001 2 5.599844780391566e-07 0 0 1
Step 690 0.6900000000000005 0.001 2 9.328439231303072e-07 0 0 1
Step 691 0.6910000000000005 0.001 2 4.948950605721685e-07 0 0 1
Step 692 0.6920000000000005 0.001 2 7.589042351413198e-07 0 0 1
Step 693 0.6930000000000005 0.001 2 6.868911486110662e-07 0 0 1
Step 694 0.6940000000000005 0.001 2 1.038718261861903e-06 0 0 1
Step 695 0.6950000000000005 0.001 2 5.038862097306557e-07 0 0 1
Step 696 0.6960000000000005 0.001 2 6.157784404371042e-07 0 0 1
Step 697 0.6970000000000005 0.001 2 6.749340584015355e-07 0 0 1
Step 698 0.6980000000000005 0.001 2 7.478202369012266e-07 0 0 1
Step 699 0.6990000000000005 0.001 2 7.630075847904142e-07 0 0 1
Step 700 0.7000000000000005 0.001 2 7.19220290442695e-07 0 0 1
Step 701 0.7010000000000005 0.001 2 6.242267711818184e-07 0 0 1
Step 702 0.7020000000000005 0.001 2 8.637578566727849e-07 0 0 1
Step 703 0.7030000000000005 0.001 2 5.260885717234529e-07 0 0 1
Step 704 0.7040000000000005 0.001 2 7.128881833298798e-07 0 0 1
Step 705 0.7050000000000005 0.001 2 5.878492895361084e-07 0 0 1
Step 706 0.7060000000000005 0.001 2 6.94662930545522e-07 0 0 1
Step 707 0.7070000000000005 0.001 2 6.013680223960268e-07 0 0 1
Step 708 0.7080000000000005 0.001 2 6.283827898205934e-07 0 0 1
Step 709 0.7090000000000005 0.001 2 5.522534496468206e-07 0 0 1
Step 710 0.7100000000000005 0.001 2 5.541726039793532e-07 0 0 1
Step 711 0.7110000000000005 0.001 2 6.160531617963268e-07 0 0 1
Step 712 0.7120000000000005 0.001 2 6.898339952294795e-07 0 0 1
Step 713 0.7130000000000005 0.001 2 4.749125812507245e-07 0 0 1
Step 714 0.7140000000000005 0.001 2 5.92826378007002e-07 0 0 1
Step 715 0.7150000000000005 0.001 2 7.112453666612051e-07 0 0 1
Step 716 0.7160000000000005 0.001 2 7.316739440036582e-07 0 0 1
Step 717 0.7170000000000005 0.001 2 9.455185069292729e-07 0 0 1
Step 718 0.7180000000000005 0.001 2 7.628003606790675e-07 0 0 1
Step 719 0.7190000000000005 0.001 2 9.152153159508239e-07 0 0 1
Step 720 0.7200000000000005 0.001 2 7.917516641897368e-07 0 0 1
Step 721 0.7210000000000005 0.001 2 5.901149450086451e-07 0 0 1
Step 722 0.7220000000000005 0.001 2 6.499941323523236e-07 0 0 1
Step 723 0.7230000000000005 0.001 2 8.648126627433417e-07 0 0 1
Step 724 0.7240000000000005 0.001 2 5.251252090108303e-07 0 0 1
Step 725 0.7250000000000005 0.001 2 7.90304079963575e-07 0 0 1
Step 726 0.7260000000000005 0.001 2 6.960758917302042e-07 0 0 1
Step 727 0.7270000000000005 0.001 2 8.106403826946953e-07 0 0 1
Step 728 0.7280000000000005 0.001 2 6.828976288131155e-07 0 0 1
Step 729 0.7290000000000005 0.001 2 7.225124435861436e-07 0 0 1
Step 730 0.7300000000000005 0.001 2 8.455946832266654e-07 0 0 1
Step 731 0.7310000000000005 0.001 2 6.677210958185314e-07 0 0 1
Step 732 0.7320000000000005 0.001 2 6.497321935693776e-07 0 0 1
Step 733 0.7330000000000005 0.001 2 6.058720784362349e-07 0 0 1
Step 734 0.7340000000000005 0.001 2 9.425313773300758e-07 0 0 1
Step 735 0.7350000000000005 0.001 2 8.35880574442685e-07 0 0 1
Step 736 0.7360000000000005 0.001 2 3.627238911401254e-07 0 0 1
Step 737 0.7370000000000005 0.001 2 5.469179405308618e-07 0 0 1
Step 738 0.7380000000000005 0.001 2 6.622757255706468e-07 0 0 1
Step 739 0.7390000000000005 0.001 2 8.677484883774165e-07 0 0 1
Step 740 0.7400000000000005 0.001 2 7.953141133142801e-07 0 0 1
Step 741 0.7410000000000005 0.001 2 6.336851983257272e-07 0 0 1
Step 742 0.7420000000000005 0.001 2 7.584531141903465e-07 0 0 1
Step 743 0.7430000000000005 0.001 2 6.778287691510694e-07 0 0 1
Step 744 0.7440000000000005 0.001 2 6.603361694720166e-07 0 0 1
Step 745 0.7450000000000006 0.001 2 6.946971387025032e-07 0 0 1
Step 746 0.7460000000000006 0.001 2 4.842570717503409e-07 0 0 1
Step 747 0.7470000000000006 0.001 2 6.63210227860381e-07 0 0 1
Step 748 0.7480000000000006 0.001 2 3.762937509790632e-07 0 0 1
Step 749 0.7490000000000006 0.001 2 8.803470846324915e-07 0 0 1
Step 750 0.7500000000000006 0.001 2 1.07072095945158e-06 0 0 1
Step 751 0.7510000000000006 0.001 2 5.066257249172365e-07 0 0 1
Step 752 0.7520000000000006 0.001 2 8.398187574457153e-07 0 0 1
Step 753 0.7530000000000006 0.001 2 6.854455118376735e-07 0 0 1
Step 754 0.7540000000000006 0.001 2 9.633362200964163e-07 0 0 1
Step 755 0.7550000000000006 0.001 2 7.387903404395622e-07 0 0 1
Step 756 0.7560000000000006 0.001 2 6.862875794582168e-07 0 0 1
Step 757 0.7570000000000006 0.001 2 7.264298437310544e-07 0 0 1
Step 758 0.7580000000000006 0.001 2 6.043953104277233e-07 0 0 1
Step 759 0.7590000000000006 0.001 2 7.818622462201067e-07 0 0 1
Step 760 0.7600000000000006 0.001 2 1.114881294318273e-06 0 0 1
Step 761 0.7610000000000006 0.001 2 9.044470349546907e-07 0 0 1
Step 762 0.7620000000000006 0.001 2 8.478563042795532e-07 0 0 1
Step 763 0.7630000000000006 0.001 2 7.316828372442619e-07 0 0 1
Step 764 0.7640000000000006 0.001 2 8.819676117042836e-07 0 0 1
Step 765 0.7650000000000006 0.001 2 4.495091198649944e-07 0 0 1
Step 766 0.7660000000000006 0.001 2 5.633096949018605e-07 0 0 1
Step 767 0.7670000000000006 0.001 2 5.663881417044816e-07 0 0 1
Step 768 0.7680000000000006 0.001 2 8.882305437315061e-07 0 0 1
Step 769 0.7690000000000006 0.001 2 7.033735158460197e-07 0 0 1
Step 770 0.7700000000000006 0.001 2 5.964933859774619e-07 0 0 1
Step 771 0.7710000000000006 0.001 2 4.503188946329178e-07 0 0 1
Step 772 0.7720000000000006 0.001 2 1.04706944215126e-06 0 0 1
Step 773 0.7730000000000006 0.001 2 6.840390516292175e-07 0 0 1
Step 774 0.7740000000000006 0.001 2 5.987834801104599e-07 0 0 1
Step 775 0.7750000000000006 0.001 2 8.645246857317482e-07 0 0 1
Step 776 0.7760000000000006 0.001 2 8.446156667220234e-07 0 0 1
Step 777 0.7770000000000006 0.001 2 9.591994071483783e-07 0 0 1
Step 778 0.7780000000000006 0.001 2 5.615828883488798e-07 0 0 1
Step 779 0.7790000000000006 0.001 2 8.412870955574341e-07 0 0 1
Step 780 0.7800000000000006 0.001 2 5.680215981737661e-07 0 0 1
Step 781 0.7810000000000006 0.001 2 5.903046017131979e-07 0 0 1
Step 782 0.7820000000000006 0.001 2 7.966278331646192e-07 0 0 1
Step 783 0.7830000000000006 0.001 2 6.094166565202201e-07 0 0 1
Step 784 0.7840000000000006 0.001 2 5.445732255324186e-07 0 0 1
Step 785 0.7850000000000006 0.001 2 7.719249487939569e-07 0 0 1
Step 786 0.7860000000000006 0.001 2 7.388377528864004e-07 0 0 1
Step 787 0.7870000000000006 0.001 2 5.881820921163422e-07 0 0 1
Step 788 0.7880000000000006 0.001 2 6.391088452060668e-07 0 0 1
Step 789 0.7890000000000006 0.001 2 7.625830181655686e-07 0 0 1
Step 790 0.7900000000000006 0.001 2 5.777661657203695e-07 0 0 1
Step 791 0.7910000000000006 0.001 2 7.267637933360081e-07 0 0 1
Step 792 0.7920000000000006 0.001 2 7.161192415870497e-07 0 0 1
Step 793 0.7930000000000006 0.001 2 5.473059589848876e-07 0 0 1
Step 794 0.7940000000000006 0.001 2 6.467867071225583e-07 0 0 1
Step 795 0.7950000000000006 0.001 2 8.449958186313033e-07 0 0 1
Step 796 0.7960000000000006 0.001 2 5.282764772865413e-07 0 0 1
Step 797 0.7970000000000006 0.001 2 6.508645311203208e-07 0 0 1
Step 798 0.7980000000000006 0.001 2 6.43085057785093e-07 0 0 1
Step 799 0.7990000000000006 0.001 2 7.864986479412558e-07 0 0 1
Step 800 0.8000000000000006 0.001 2 8.046404504381215e-07 0 0 1
Step 801 0.8010000000000006 0.001 2 1.002500812229452e-06 0 0 1
Step 802 0.8020000000000006 0.001 2 8.181834086445633e-07 0 0 1
Step 803 0.8030000000000006 0.001 2 7.326530956730527e-07 0 0 1
Step 804 0.8040000000000006 0.001 2 6.870708409811669e-07 0 0 1
Step 805 0.8050000000000006 0.001 2 5.868875302686886e-07 0 0 1
Step 806 0.8060000000000006 0.001 2 6.658920216456863e-07 0 0 1
Step 807 0.8070000000000006 0.001 2 6.93843324752299e-07 0 0 1
Step 808 0.8080000000000006 0.001 2 7.509414519354134e-07 0 0 1
Step 809 0.8090000000000006 0.001 2 8.731987061384069e-07 0 0 1
Step 810 0.8100000000000006 0.001 2 7.274380319805322e-07 0 0 1
Step 811 0.8110000000000006 0.001 2 5.903294617492581e-07 0 0 1
Step 812 0.8120000000000006 0.001 2 6.601943275797162e-07 0 0 1
Step 813 0.8130000000000006 0.001 2 6.164948882497222e-07 0 0 1
Step 814 0.8140000000000006 0.001 2 6.482319340135688e-07 0 0 1
Step 815 0.8150000000000006 0.001 2 9.648633951553706e-07 0 0 1
Step 816 0.8160000000000006 0.001 2 7.295256706390238e-07 0 0 1
Step 817 0.8170000000000006 0.001 2 6.281378719978282e-07 0 0 1
Step 818 0.8180000000000006 0.001 2 4.450316310394264e-07 0 0 1
Step 819 0.8190000000000006 0.001 2 8.945008730043651e-07 0 0 1
Step 820 0.8200000000000006 0.001 2 7.034889641533042e-07 0 0 1
Step 821 0.8210000000000006 0.001 2 6.426629948794218e-07 0 0 1
Step 822 0.8220000000000006 0.001 2 7.509969569427103e-07 0 0 1
Step 823 0.8230000000000006 0.001 2 6.486594728803689e-07 0 0 1
Step 824 0.8240000000000006 0.001 2 4.71898638553134e-07 0 0 1
Step 825 0.8250000000000006 0.001 2 7.027518611890833e-07 0 0 1
Step 826 0.8260000000000006 0.001 2 5.527084458316742e-07 0 0 1
Step 827 0.8270000000000006 0.001 2 7.117355902359449e-07 0 0 1
Step 828 0.8280000000000006 0.001 2 7.764780007287614e-07 0 0 1
Step 829 0.8290000000000006 0.001 2 5.404729856097303e-07 0 0 1
Step 830 0.8300000000000006 0.001 2 7.073247554933441e-07 0 0 1
Step 831 0.8310000000000006 0.001 2 8.586796327668163e-07 0 0 1
Step 832 0.8320000000000006 0.001 2 8.697187414714905e-07 0 0 1
Step 833 0.8330000000000006 0.001 2 6.953758865548503e-07 0 0 1
Step 834 0.8340000000000006 0.001 2 5.503790163825641e-07 0 0 1
Step 835 0.8350000000000006 0.001 2 7.097143184603791e-07 0 0 1
Step 836 0.8360000000000006 0.001 2 6.874596461145554e-07 0 0 1
Step 837 0.8370000000000006 0.001 2 8.135076114919347e-07 0 0 1
Step 838 0.8380000000000006 0.001 2 8.007631561581504e-07 0 0 1
Step 839 0.8390000000000006 0.001 2 8.526958608695035e-07 0 0 1
Step 840 0.8400000000000006 0.001 2 6.892348070746241e-07 0 0 1
Step 841 0.8410000000000006 0.001 2 6.763056986724832e-07 0 0 1
Step 842 0.8420000000000006 0.001 2 7.398883224255053e-07 0 0 1
Step 843 0.8430000000000006 0.001 2 7.154909118328062e-07 0 0 1
Step 844 0.8440000000000006 0.001 2 7.708456998043064e-07 0 0 1
Step 845 0.8450000000000006 0.001 2 9.186583481227224e-07 0 0 1
Step 846 0.8460000000000006 0.001 2 8.644350358860221e-07 0 0 1
Step 847 0.8470000000000006 0.001 2 8.480139054083364e-07 0 0 1
Step 848 0.8480000000000006 0.001 2 7.751026269945367e-07 0 0 1
Step 849 0.8490000000000006 0.001 2 5.991415003510367e-07 0 0 1
Step 850 0.8500000000000006 0.001 2 7.118438497546703e-07 0 0 1
Step 851 0.8510000000000006 0.001 2 7.464595711822703e-07 0 0 1
Step 852 0.8520000000000006 0.001 2 7.173665815052742e-07 0 0 1
Step 853 0.8530000000000006 0.001 2 8.027304731848705e-07 0 0 1
Step 854 0.8540000000000006 0.001 2 8.500584008699582e-07 0 0 1
Step 855 0.8550000000000006 0.001 2 7.722354015260573e-07 0 0 1
Step 856 0.8560000000000006 0.001 2 6.915452050471207e-07 0 0 1
Step 857 0.8570000000000007 0.001 2 7.536304640888271e-07 0 0 1
Step 858 0.8580000000000007 0.001 2 5.351170120043711e-07 0 0 1
Step 859 0.8590000000000007 0.001 2 6.287452320248633e-07 0 0 1
Step 860 0.8600000000000007 0.001 2 8.089307806326114e-07 0 0 1
Step 861 0.8610000000000007 0.001 2 4.62750350162398e-07 0 0 1
Step 862 0.8620000000000007 0.001 2 7.464909476316814e-07 0 0 1
Step 863 0.8630000000000007 0.001 2 8.358718793669785e-07 0 0 1
Step 864 0.8640000000000007 0.001 2 6.985982636366928e-07 0 0 1
Step 865 0.8650000000000007 0.001 2 5.87492621817795e-07 0 0 1
Step 866 0.8660000000000007 0.001 2 6.957409235318429e-07 0 0 1
Step 867 0.8670000000000007 0.001 2 7.880142579366307e-07 0 0 1
Step 868 0.8680000000000007 0.001 2 6.60787023643724e-07 0 0 1
Step 869 0.8690000000000007 0.001 2 8.511459886180849e-07 0 0 1
Step 870 0.8700000000000007 0.001 2 6.683091686301435e-07 0 0 1
Step 871 0.8710000000000007 0.001 2 6.907809702647641e-07 0 0 1
Step 872 0.8720000000000007 0.001 2 9.382120636424441e-07 0 0 1
Step 873 0.8730000000000007 0.001 2 5.853755498486694e-07 0 0 1
Step 874 0.8740000000000007 0.001 2 8.268801433665975e-07 0 0 1
Step 875 0.8750000000000007 0.001 2 5.726691289694875e-07 0 0 1
Step 876 0.8760000000000007 0.001 2 5.395734049554642e-07 0 0 1
Step 877 0.8770000000000007 0.001 2 6.443204390819655e-07 0 0 1
Step 878 0.8780000000000007 0.001 2 7.930957536536245e-07 0 0 1
Step 879 0.8790000000000007 0.001 2 5.257742454310313e-07 0 0 1
Step 880 0.8800000000000007 0.001 2 4.709716318072035e-07 0 0 1
Step 881 0.8810000000000007 0.001 2 7.625055774929035e-07 0 0 1
Step 882 0.8820000000000007 0.001 2 6.383642719985775e-07 0 0 1
Step 883 0.8830000000000007 0.001 2 5.810996886245802e-07 0 0 1
Step 884 0.8840000000000007 0.001 2 5.494646608850024e-07 0 0 1
Step 885 0.8850000000000007 0.001 2 8.932274988674277e-07 0 0 1
Step 886 0.8860000000000007 0.001 2 7.229321760350614e-07 0 0 1
Step 887 0.8870000000000007 0.001 2 7.843158912110948e-07 0 0 1
Step 888 0.8880000000000007 0.001 2 7.368178268800063e-07 0 0 1
Step 889 0.8890000000000007 0.001 2 8.814538604993356e-07 0 0 1
Step 890 0.8900000000000007 0.001 2 4.922502378173443e-07 0 0 1
Step 891 0.8910000000000007 0.001 2 7.646406991186096e-07 0 0 1
Step 892 0.8920000000000007 0.001 2 5.450430104477481e-07 0 0 1
Step 893 0.8930000000000007 0.001 2 8.523420519605486e-07 0 0 1
Step 894 0.8940000000000007 0.001 2 7.702887295157683e-07 0 0 1
Step 895 0.8950000000000007 0.001 2 6.770130534737418e-07 0 0 1
Step 896 0.8960000000000007 0.001 2 6.099358544245463e-07 0 0 1
Step 897 0.8970000000000007 0.001 2 6.601751338524274e-07 0 0 1
Step 898 0.8980000000000007 0.001 2 6.401483625464388e-07 0 0 1
Step 899 0.8990000000000007 0.001 2 5.28721362052283e-07 0 0 1
Step 900 0.9000000000000007 0.001 2 6.245300639998254e-07 0 0 1
Step 901 0.9010000000000007 0.001 2 6.970521055338731e-07 0 0 1
Step 902 0.9020000000000007 0.001 2 6.787207800170667e-07 0 0 1
Step 903 0.9030000000000007 0.001 2 7.481084955825101e-07 0 0 1
Step 904 0.9040000000000007 0.001 2 6.459580022228109e-07 0 0 1
Step 905 0.9050000000000007 0.001 2 5.826304023060578e-07 0 0 1
Step 906 0.9060000000000007 0.001 2 7.236585201658328e-07 0 0 1
Step 907 0.9070000000000007 0.001 2 9.623082368064498e-07 0 0 1
Step 908 0.9080000000000007 0.001 2 7.741558357075372e-07 0 0 1
Step 909 0.9090000000000007 0.001 2 6.43898976511309e-07 0 0 1
Step 910 0.9100000000000007 0.001 2 5.731506537737084e-07 0 0 1
Step 911 0.9110000000000007 0.001 2 6.727712755931657e-07 0 0 1
Step 912 0.9120000000000007 0.001 2 5.993497426109203e-07 0 0 1
Step 913 0.9130000000000007 0.001 2 6.201498453514573e-07 0 0 1
Step 914 0.9140000000000007 0.001 2 6.615127328062874e-07 0 0 1
Step 915 0.9150000000000007 0.001 2 7.056585905824907e-07 0 0 1
Step 916 0.9160000000000007 0.001 2 6.962597211307889e-07 0 0 1
Step 917 0.9170000000000007 0.001 2 7.886909152023267e-07 0 0 1
Step 918 0.9180000000000007 0.001 2 7.299652495840828e-07 0 0 1
Step 919 0.9190000000000007 0.001 2 6.820286363136787e-07 0 0 1
Step 920 0.9200000000000007 0.001 2 6.536567305478514e-07 0 0 1
Step 921 0.9210000000000007 0.001 2 6.011412526639603e-07 0 0 1
Step 922 0.9220000000000007 0.001 2 6.971916964622727e-07 0 0 1
Step 923 0.9230000000000007 0.001 2 6.138710406916071e-07 0 0 1
Step 924 0.9240000000000007 0.001 2 6.953357630033721e-07 0 0 1
Step 925 0.9250000000000007 0.001 2 6.590315882667835e-07 0 0 1
Step 926 0.9260000000000007 0.001 2 6.994133482168574e-07 0 0 1
Step 927 0.9270000000000007 0.001 2 7.364981565048984e-07 0 0 1
Step 928 0.9280000000000007 0.001 2 5.873900489948858e-07 0 0 1
Step 929 0.9290000000000007 0.001 2 8.14151739970382e-07 0 0 1
Step 930 0.9300000000000007 0.001 2 8.549001118833095e-07 0 0 1
Step 931 0.9310000000000007 0.001 2 6.617638447598955e-07 0 0 1
Step 932 0.9320000000000007 0.001 2 4.744260754655095e-07 0 0 1
Step 933 0.9330000000000007 0.001 2 1.222674110834107e-06 0 0 1
Step 934 0.9340000000000007 0.001 2 6.431341186608454e-07 0 0 1
Step 935 0.9350000000000007 0.001 2 5.57278352086529e-07 0 0 1
Step 936 0.9360000000000007 0.001 2 6.482705545470813e-07 0 0 1
Step 937 0.9370000000000007 0.001 2 5.36245603465278e-07 0 0 1
Step 938 0.9380000000000007 0.001 2 8.586527863787735e-07 0 0 1
Step 939 0.9390000000000007 0.001 2 5.103538162055288e-07 0 0 1
Step 940 0.9400000000000007 0.001 2 8.510657196087321e-07 0 0 1
Step 941 0.9410000000000007 0.001 2 6.0844313208214e-07 0 0 1
Step 942 0.9420000000000007 0.001 2 5.87922865644789e-07 0 0 1
Step 943 0.9430000000000007 0.001 2 7.1489623416117e-07 0 0 1
Step 944 0.9440000000000007 0.001 2 1.007299908849314e-06 0 0 1
Step 945 0.9450000000000007 0.001 2 6.39124713964806e-07 0 0 1
Step 946 0.9460000000000007 0.001 2 6.606637214795662e-07 0 0 1
Step 947 0.9470000000000007 0.001 2 4.659133554203158e-07 0 0 1
Step 948 0.9480000000000007 0.001 2 7.542830080376981e-07 0 0 1
Step 949 0.9490000000000007 0.001 2 6.430332283806631e-07 0 0 1
Step 950 0.9500000000000007 0.001 2 5.156009122609794e-07 0 0 1
Step 951 0.9510000000000007 0.001 2 6.75365999241973e-07 0 0 1
Step 952 0.9520000000000007 0.001 2 8.079082048851311e-07 0 0 1
Step 953 0.9530000000000007 0.001 2 7.180364292313502e-07 0 0 1
Step 954 0.9540000000000007 0.001 2 8.448601916031634e-07 0 0 1
Step 955 0.9550000000000007 0.001 2 8.279087948310437e-07 0 0 1
Step 956 0.9560000000000007 0.001 2 5.542654803261091e-07 0 0 1
Step 957 0.9570000000000007 0.001 2 8.923754174388833e-07 0 0 1
Step 958 0.9580000000000007 0.001 2 6.794246491799162e-07 0 0 1
Step 959 0.9590000000000007 0.001 2 8.196088960728542e-07 0 0 1
Step 960 0.9600000000000007 0.001 2 6.560434646796166e-07 0 0 1
Step 961 0.9610000000000007 0.001 2 5.404553559339178e-07 0 0 1
Step 962 0.9620000000000007 0.001 2 6.860851085610927e-07 0 0 1
Step 963 0.9630000000000007 0.001 2 5.527829554846286e-07 0 0 1
Step 964 0.9640000000000007 0.001 2 5.546359965891842e-07 0 0 1
Step 965 0.9650000000000007 0.001 2 6.508299927158129e-07 0 0 1
Step 966 0.9660000000000007 0.001 2 4.36468263393651e-07 0 0 1
Step 967 0.9670000000000007 0.001 2 7.289939517429789e-07 0 0 1
Step 968 0.9680000000000007 0.001 2 6.610869088074374e-07 0 0 1
Step 969 0.9690000000000007 0.001 2 8.61889685281104e-07 0 0 1
Step 970 0.9700000000000008 0.001 2 7.476378775351163e-07 0 0 1
Step 971 0.9710000000000008 0.001 2 6.43328284591607e-07 0 0 1
Step 972 0.9720000000000008 0.001 2 6.648726950865812e-07 0 0 1
Step 973 0.9730000000000008 0.001 2 6.320472200874993e-07 0 0 1
Step 974 0.9740000000000008 0.001 2 4.538931890036513e-07 0 0 1
Step 975 0.9750000000000008 0.001 2 6.836379846976729e-07 0 0 1
Step 976 0.9760000000000008 0.001 2 7.257493912856125e-07 0 0 1
Step 977 0.9770000000000008 0.001 2 6.465156153327648e-07 0 0 1
Step 978 0.9780000000000008 0.001 2 6.51372941377256e-07 0 0 1
Step 979 0.9790000000000008 0.001 2 7.856039851356948e-07 0 0 1
Step 980 0.9800000000000008 0.001 2 6.594923588373663e-07 0 0 1
Step 981 0.9810000000000008 0.001 2 7.819203383364967e-07 0 0 1
Step 982 0.9820000000000008 0.001 2 6.210937797432637e-07 0 0 1
Step 983 0.9830000000000008 0.001 2 6.953844979448725e-07 0 0 1
Step 984 0.9840000000000008 0.001 2 7.247619490065503e-07 0 0 1
Step 985 0.9850000000000008 0.001 2 7.554014053651932e-07 0 0 1
Step 986 0.9860000000000008 0.001 2 7.757341594243292e-07 0 0 1
Step 987 0.9870000000000008 0.001 2 6.605093006400778e-07 0 0 1
Step 988 0.9880000000000008 0.001 2 5.317740370203587e-07 0 0 1
Step 989 0.9890000000000008 0.001 2 7.810800167279445e-07 0 0 1
Step 990 0.9900000000000008 0.001 2 5.718213684173634e-07 0 0 1
Step 991 0.9910000000000008 0.001 2 7.393825381634095e-07 0 0 1
Step 992 0.9920000000000008 0.001 2 7.996168741995988e-07 0 0 1
Step 993 0.9930000000000008 0.001 2 5.286506632425117e-07 0 0 1
Step 994 0.9940000000000008 0.001 2 7.302153767670173e-07 0 0 1
Step 995 0.9950000000000008 0.001 2 8.1664188923327e-07 0 0 1
Step 996 0.9960000000000008 0.001 2 6.208574988623547e-07 0 0 1
Step 997 0.9970000000000008 0.001 2 6.563450698730591e-07 0 0 1
Step 998 0.9980000000000008 0.001 2 8.420835884416691e-07 0 0 1
Step 999 0.9990000000000008 0.001 2 6.502709439025589e-07 0 0 1
Step 1000 1.000000000000001 0.001 2 7.225993230245867e-07 0 0 1
